<?xml version="1.0" encoding="UTF-8" standalone="no"?>
<!DOCTYPE svg PUBLIC "-//W3C//DTD SVG 1.1//EN"
 "http://www.w3.org/Graphics/SVG/1.1/DTD/svg11.dtd">
<!-- Generated by graphviz version 2.40.1 (20161225.0304)
 -->
<!-- Title: dependencies Pages: 1 -->
<svg width="722pt" height="284pt"
 viewBox="0.00 0.00 722.00 284.00" xmlns="http://www.w3.org/2000/svg" xmlns:xlink="http://www.w3.org/1999/xlink">
<g id="graph0" class="graph" transform="scale(1 1) rotate(0) translate(4 280)">
<title>dependencies</title>
<polygon fill="#ffffff" stroke="transparent" points="-4,4 -4,-280 718,-280 718,4 -4,4"/>
<text text-anchor="start" x="336.0091" y="-42.4" font-family="sans-serif" font-weight="bold" font-size="14.00" fill="#000000">Legend</text>
<polygon fill="#ffffb3" stroke="transparent" points="123,-10 123,-30 143,-30 143,-10 123,-10"/>
<text text-anchor="start" x="146.629" y="-15.4" font-family="sans-serif" font-size="14.00" fill="#000000"> &#160;Declarations</text>
<polygon fill="#8dd3c7" stroke="transparent" points="236,-10 236,-30 256,-30 256,-10 236,-10"/>
<text text-anchor="start" x="259.7251" y="-15.4" font-family="sans-serif" font-size="14.00" fill="#000000"> &#160;Module</text>
<polygon fill="#80b1d3" stroke="transparent" points="322,-10 322,-30 342,-30 342,-10 322,-10"/>
<text text-anchor="start" x="345.7812" y="-15.4" font-family="sans-serif" font-size="14.00" fill="#000000"> &#160;Bootstrap</text>
<polygon fill="#fdb462" stroke="transparent" points="419,-10 419,-30 439,-30 439,-10 419,-10"/>
<text text-anchor="start" x="442.6732" y="-15.4" font-family="sans-serif" font-size="14.00" fill="#000000"> &#160;Providers</text>
<polygon fill="#fb8072" stroke="transparent" points="515,-10 515,-30 535,-30 535,-10 515,-10"/>
<text text-anchor="start" x="538.7258" y="-15.4" font-family="sans-serif" font-size="14.00" fill="#000000"> &#160;Exports</text>
<g id="clust1" class="cluster">
<title>cluster_CommentListModule</title>
<polygon fill="none" stroke="#000000" stroke-dasharray="1,5" points="8,-70 8,-268 706,-268 706,-70 8,-70"/>
</g>
<g id="clust2" class="cluster">
<title>cluster_CommentListModule_declarations</title>
<polygon fill="none" stroke="#000000" points="524,-78 524,-130 698,-130 698,-78 524,-78"/>
</g>
<g id="clust4" class="cluster">
<title>cluster_CommentListModule_imports</title>
<polygon fill="none" stroke="#000000" points="196,-78 196,-130 516,-130 516,-78 196,-78"/>
</g>
<g id="clust5" class="cluster">
<title>cluster_CommentListModule_exports</title>
<polygon fill="none" stroke="#000000" points="262,-208 262,-260 440,-260 440,-208 262,-208"/>
</g>
<g id="clust7" class="cluster">
<title>cluster_CommentListModule_providers</title>
<polygon fill="none" stroke="#000000" points="16,-78 16,-130 188,-130 188,-78 16,-78"/>
</g>
<!-- CommentListComponent -->
<g id="node1" class="node">
<title>CommentListComponent</title>
<polygon fill="#ffffb3" stroke="#000000" points="690.3342,-122 531.6658,-122 531.6658,-86 690.3342,-86 690.3342,-122"/>
<text text-anchor="middle" x="611" y="-99.8" font-family="Times,serif" font-size="14.00" fill="#000000">CommentListComponent</text>
</g>
<!-- CommentListModule -->
<g id="node2" class="node">
<title>CommentListModule</title>
<polygon fill="#8dd3c7" stroke="#000000" points="419.0519,-187 416.0519,-191 395.0519,-191 392.0519,-187 282.9481,-187 282.9481,-151 419.0519,-151 419.0519,-187"/>
<text text-anchor="middle" x="351" y="-164.8" font-family="Times,serif" font-size="14.00" fill="#000000">CommentListModule</text>
</g>
<!-- CommentListComponent&#45;&gt;CommentListModule -->
<g id="edge1" class="edge">
<title>CommentListComponent&#45;&gt;CommentListModule</title>
<path fill="none" stroke="#000000" d="M611,-122.1061C611,-141.3391 611,-169 611,-169 611,-169 429.3119,-169 429.3119,-169"/>
<polygon fill="#000000" stroke="#000000" points="429.312,-165.5001 419.3119,-169 429.3119,-172.5001 429.312,-165.5001"/>
</g>
<!-- CommentListComponent  -->
<g id="node5" class="node">
<title>CommentListComponent </title>
<polygon fill="#fb8072" stroke="#000000" points="431.8339,-252 270.1661,-252 270.1661,-216 431.8339,-216 431.8339,-252"/>
<text text-anchor="middle" x="351" y="-229.8" font-family="Times,serif" font-size="14.00" fill="#000000">CommentListComponent </text>
</g>
<!-- CommentListModule&#45;&gt;CommentListComponent  -->
<g id="edge4" class="edge">
<title>CommentListModule&#45;&gt;CommentListComponent </title>
<path fill="none" stroke="#000000" stroke-dasharray="5,2" d="M351,-187.1061C351,-187.1061 351,-205.991 351,-205.991"/>
<polygon fill="#000000" stroke="#000000" points="347.5001,-205.9909 351,-215.991 354.5001,-205.991 347.5001,-205.9909"/>
</g>
<!-- CommentCreateModule -->
<g id="node3" class="node">
<title>CommentCreateModule</title>
<polygon fill="#8dd3c7" stroke="#000000" points="507.8047,-122 504.8047,-126 483.8047,-126 480.8047,-122 356.1953,-122 356.1953,-86 507.8047,-86 507.8047,-122"/>
<text text-anchor="middle" x="432" y="-99.8" font-family="Times,serif" font-size="14.00" fill="#000000">CommentCreateModule</text>
</g>
<!-- CommentCreateModule&#45;&gt;CommentListModule -->
<g id="edge2" class="edge">
<title>CommentCreateModule&#45;&gt;CommentListModule</title>
<path fill="none" stroke="#000000" d="M387.8117,-122.1061C387.8117,-122.1061 387.8117,-140.991 387.8117,-140.991"/>
<polygon fill="#000000" stroke="#000000" points="384.3118,-140.9909 387.8117,-150.991 391.3118,-140.991 384.3118,-140.9909"/>
</g>
<!-- ConfirmationModule -->
<g id="node4" class="node">
<title>ConfirmationModule</title>
<polygon fill="#8dd3c7" stroke="#000000" points="338.4846,-122 335.4846,-126 314.4846,-126 311.4846,-122 203.5154,-122 203.5154,-86 338.4846,-86 338.4846,-122"/>
<text text-anchor="middle" x="271" y="-99.8" font-family="Times,serif" font-size="14.00" fill="#000000">ConfirmationModule</text>
</g>
<!-- ConfirmationModule&#45;&gt;CommentListModule -->
<g id="edge3" class="edge">
<title>ConfirmationModule&#45;&gt;CommentListModule</title>
<path fill="none" stroke="#000000" d="M310.6083,-122.1061C310.6083,-122.1061 310.6083,-140.991 310.6083,-140.991"/>
<polygon fill="#000000" stroke="#000000" points="307.1084,-140.9909 310.6083,-150.991 314.1084,-140.991 307.1084,-140.9909"/>
</g>
<!-- CommentService -->
<g id="node6" class="node">
<title>CommentService</title>
<ellipse fill="#fdb462" stroke="#000000" cx="102" cy="-104" rx="78.1675" ry="18"/>
<text text-anchor="middle" x="102" y="-99.8" font-family="Times,serif" font-size="14.00" fill="#000000">CommentService</text>
</g>
<!-- CommentService&#45;&gt;CommentListModule -->
<g id="edge5" class="edge">
<title>CommentService&#45;&gt;CommentListModule</title>
<path fill="none" stroke="#000000" d="M102,-122.1061C102,-141.3391 102,-169 102,-169 102,-169 272.6303,-169 272.6303,-169"/>
<polygon fill="#000000" stroke="#000000" points="272.6303,-172.5001 282.6303,-169 272.6303,-165.5001 272.6303,-172.5001"/>
</g>
</g>
</svg>
