{
  "debug":                    true,
  "project":                  "r3",
  "mode":                     "default",
  "defaultLeaderboard":       "calories",
  "defaultArticleImage":      "assets/defaults/default_article.png",
  "defaultBadgeImage":        "assets/defaults/default_badge.png",
  "defaultFemaleImage":       "assets/defaults/default_female.png",
  "defaultMaleImage":         "assets/defaults/default_male.png",
  "defaultNotificationImage": "assets/defaults/default_notification.png",
  "defaultPlaylistImage":     "assets/defaults/default_playlist.png",
  "defaultSurveyImage":       "assets/defaults/default_survey.png",
  "defaultVideoImage":        "assets/defaults/default_video.png",
  "userManagementOrder":      "-created",
  "minimumInternetSpeed":     5,
  "requiredReadTime":         1,
  "similarMinimum":           50,
  "speedCheckLimit":          10,
  "splashScreen":             "folding-cube",
  "userStages":               {
    "1":  "On the Move!",
    "9":  "I Just Kept on Exercising!",
    "17": "Exercise Is Easy!",
    "25": "Exercise Is for Me!"
  },
  "weeks":                    16
}
