<?xml version="1.0" encoding="UTF-8" standalone="no"?>
<!DOCTYPE svg PUBLIC "-//W3C//DTD SVG 1.1//EN"
 "http://www.w3.org/Graphics/SVG/1.1/DTD/svg11.dtd">
<!-- Generated by graphviz version 2.40.1 (20161225.0304)
 -->
<!-- Title: dependencies Pages: 1 -->
<svg width="504pt" height="284pt"
 viewBox="0.00 0.00 504.00 284.00" xmlns="http://www.w3.org/2000/svg" xmlns:xlink="http://www.w3.org/1999/xlink">
<g id="graph0" class="graph" transform="scale(1 1) rotate(0) translate(4 280)">
<title>dependencies</title>
<polygon fill="#ffffff" stroke="transparent" points="-4,4 -4,-280 500,-280 500,4 -4,4"/>
<text text-anchor="start" x="227.0091" y="-42.4" font-family="sans-serif" font-weight="bold" font-size="14.00" fill="#000000">Legend</text>
<polygon fill="#ffffb3" stroke="transparent" points="14,-10 14,-30 34,-30 34,-10 14,-10"/>
<text text-anchor="start" x="37.629" y="-15.4" font-family="sans-serif" font-size="14.00" fill="#000000"> &#160;Declarations</text>
<polygon fill="#8dd3c7" stroke="transparent" points="127,-10 127,-30 147,-30 147,-10 127,-10"/>
<text text-anchor="start" x="150.7251" y="-15.4" font-family="sans-serif" font-size="14.00" fill="#000000"> &#160;Module</text>
<polygon fill="#80b1d3" stroke="transparent" points="213,-10 213,-30 233,-30 233,-10 213,-10"/>
<text text-anchor="start" x="236.7812" y="-15.4" font-family="sans-serif" font-size="14.00" fill="#000000"> &#160;Bootstrap</text>
<polygon fill="#fdb462" stroke="transparent" points="310,-10 310,-30 330,-30 330,-10 310,-10"/>
<text text-anchor="start" x="333.6732" y="-15.4" font-family="sans-serif" font-size="14.00" fill="#000000"> &#160;Providers</text>
<polygon fill="#fb8072" stroke="transparent" points="406,-10 406,-30 426,-30 426,-10 406,-10"/>
<text text-anchor="start" x="429.7258" y="-15.4" font-family="sans-serif" font-size="14.00" fill="#000000"> &#160;Exports</text>
<g id="clust1" class="cluster">
<title>cluster_DatetimeInputModule</title>
<polygon fill="none" stroke="#000000" stroke-dasharray="1,5" points="68,-70 68,-268 428,-268 428,-70 68,-70"/>
</g>
<g id="clust2" class="cluster">
<title>cluster_DatetimeInputModule_declarations</title>
<polygon fill="none" stroke="#000000" points="242,-78 242,-130 420,-130 420,-78 242,-78"/>
</g>
<g id="clust4" class="cluster">
<title>cluster_DatetimeInputModule_imports</title>
<polygon fill="none" stroke="#000000" points="76,-78 76,-130 234,-130 234,-78 76,-78"/>
</g>
<g id="clust5" class="cluster">
<title>cluster_DatetimeInputModule_exports</title>
<polygon fill="none" stroke="#000000" points="157,-208 157,-260 339,-260 339,-208 157,-208"/>
</g>
<!-- DatetimeInputComponent -->
<g id="node1" class="node">
<title>DatetimeInputComponent</title>
<polygon fill="#ffffb3" stroke="#000000" points="412.1965,-122 249.8035,-122 249.8035,-86 412.1965,-86 412.1965,-122"/>
<text text-anchor="middle" x="331" y="-99.8" font-family="Times,serif" font-size="14.00" fill="#000000">DatetimeInputComponent</text>
</g>
<!-- DatetimeInputModule -->
<g id="node2" class="node">
<title>DatetimeInputModule</title>
<polygon fill="#8dd3c7" stroke="#000000" points="318.4144,-187 315.4144,-191 294.4144,-191 291.4144,-187 177.5856,-187 177.5856,-151 318.4144,-151 318.4144,-187"/>
<text text-anchor="middle" x="248" y="-164.8" font-family="Times,serif" font-size="14.00" fill="#000000">DatetimeInputModule</text>
</g>
<!-- DatetimeInputComponent&#45;&gt;DatetimeInputModule -->
<g id="edge1" class="edge">
<title>DatetimeInputComponent&#45;&gt;DatetimeInputModule</title>
<path fill="none" stroke="#000000" d="M284.0544,-122.1061C284.0544,-122.1061 284.0544,-140.991 284.0544,-140.991"/>
<polygon fill="#000000" stroke="#000000" points="280.5544,-140.9909 284.0544,-150.991 287.5544,-140.991 280.5544,-140.9909"/>
</g>
<!-- DatetimeInputComponent  -->
<g id="node4" class="node">
<title>DatetimeInputComponent </title>
<polygon fill="#fb8072" stroke="#000000" points="330.6967,-252 165.3033,-252 165.3033,-216 330.6967,-216 330.6967,-252"/>
<text text-anchor="middle" x="248" y="-229.8" font-family="Times,serif" font-size="14.00" fill="#000000">DatetimeInputComponent </text>
</g>
<!-- DatetimeInputModule&#45;&gt;DatetimeInputComponent  -->
<g id="edge3" class="edge">
<title>DatetimeInputModule&#45;&gt;DatetimeInputComponent </title>
<path fill="none" stroke="#000000" stroke-dasharray="5,2" d="M248,-187.1061C248,-187.1061 248,-205.991 248,-205.991"/>
<polygon fill="#000000" stroke="#000000" points="244.5001,-205.9909 248,-215.991 251.5001,-205.991 244.5001,-205.9909"/>
</g>
<!-- QuestionLabelModule -->
<g id="node3" class="node">
<title>QuestionLabelModule</title>
<polygon fill="#8dd3c7" stroke="#000000" points="225.9692,-122 222.9692,-126 201.9692,-126 198.9692,-122 84.0308,-122 84.0308,-86 225.9692,-86 225.9692,-122"/>
<text text-anchor="middle" x="155" y="-99.8" font-family="Times,serif" font-size="14.00" fill="#000000">QuestionLabelModule</text>
</g>
<!-- QuestionLabelModule&#45;&gt;DatetimeInputModule -->
<g id="edge2" class="edge">
<title>QuestionLabelModule&#45;&gt;DatetimeInputModule</title>
<path fill="none" stroke="#000000" d="M201.8889,-122.1061C201.8889,-122.1061 201.8889,-140.991 201.8889,-140.991"/>
<polygon fill="#000000" stroke="#000000" points="198.3889,-140.9909 201.8889,-150.991 205.3889,-140.991 198.3889,-140.9909"/>
</g>
</g>
</svg>
