<?xml version="1.0" encoding="UTF-8" standalone="no"?>
<!DOCTYPE svg PUBLIC "-//W3C//DTD SVG 1.1//EN"
 "http://www.w3.org/Graphics/SVG/1.1/DTD/svg11.dtd">
<!-- Generated by graphviz version 2.40.1 (20161225.0304)
 -->
<!-- Title: dependencies Pages: 1 -->
<svg width="1161pt" height="211pt"
 viewBox="0.00 0.00 1161.00 211.00" xmlns="http://www.w3.org/2000/svg" xmlns:xlink="http://www.w3.org/1999/xlink">
<g id="graph0" class="graph" transform="scale(1 1) rotate(0) translate(4 207)">
<title>dependencies</title>
<polygon fill="#ffffff" stroke="transparent" points="-4,4 -4,-207 1157,-207 1157,4 -4,4"/>
<text text-anchor="start" x="555.5091" y="-42.4" font-family="sans-serif" font-weight="bold" font-size="14.00" fill="#000000">Legend</text>
<polygon fill="#ffffb3" stroke="transparent" points="342.5,-10 342.5,-30 362.5,-30 362.5,-10 342.5,-10"/>
<text text-anchor="start" x="366.129" y="-15.4" font-family="sans-serif" font-size="14.00" fill="#000000"> &#160;Declarations</text>
<polygon fill="#8dd3c7" stroke="transparent" points="455.5,-10 455.5,-30 475.5,-30 475.5,-10 455.5,-10"/>
<text text-anchor="start" x="479.2251" y="-15.4" font-family="sans-serif" font-size="14.00" fill="#000000"> &#160;Module</text>
<polygon fill="#80b1d3" stroke="transparent" points="541.5,-10 541.5,-30 561.5,-30 561.5,-10 541.5,-10"/>
<text text-anchor="start" x="565.2812" y="-15.4" font-family="sans-serif" font-size="14.00" fill="#000000"> &#160;Bootstrap</text>
<polygon fill="#fdb462" stroke="transparent" points="638.5,-10 638.5,-30 658.5,-30 658.5,-10 638.5,-10"/>
<text text-anchor="start" x="662.1732" y="-15.4" font-family="sans-serif" font-size="14.00" fill="#000000"> &#160;Providers</text>
<polygon fill="#fb8072" stroke="transparent" points="734.5,-10 734.5,-30 754.5,-30 754.5,-10 734.5,-10"/>
<text text-anchor="start" x="758.2258" y="-15.4" font-family="sans-serif" font-size="14.00" fill="#000000"> &#160;Exports</text>
<g id="clust1" class="cluster">
<title>cluster_HomePageModule</title>
<polygon fill="none" stroke="#000000" stroke-dasharray="1,5" points="8,-70 8,-195 1145,-195 1145,-70 8,-70"/>
</g>
<g id="clust2" class="cluster">
<title>cluster_HomePageModule_declarations</title>
<polygon fill="none" stroke="#000000" points="1043,-78 1043,-130 1137,-130 1137,-78 1043,-78"/>
</g>
<g id="clust4" class="cluster">
<title>cluster_HomePageModule_imports</title>
<polygon fill="none" stroke="#000000" points="16,-78 16,-130 1035,-130 1035,-78 16,-78"/>
</g>
<!-- HomePage -->
<g id="node1" class="node">
<title>HomePage</title>
<polygon fill="#ffffb3" stroke="#000000" points="1128.9248,-122 1051.0752,-122 1051.0752,-86 1128.9248,-86 1128.9248,-122"/>
<text text-anchor="middle" x="1090" y="-99.8" font-family="Times,serif" font-size="14.00" fill="#000000">HomePage</text>
</g>
<!-- HomePageModule -->
<g id="node2" class="node">
<title>HomePageModule</title>
<polygon fill="#8dd3c7" stroke="#000000" points="738.4734,-187 735.4734,-191 714.4734,-191 711.4734,-187 617.5266,-187 617.5266,-151 738.4734,-151 738.4734,-187"/>
<text text-anchor="middle" x="678" y="-164.8" font-family="Times,serif" font-size="14.00" fill="#000000">HomePageModule</text>
</g>
<!-- HomePage&#45;&gt;HomePageModule -->
<g id="edge1" class="edge">
<title>HomePage&#45;&gt;HomePageModule</title>
<path fill="none" stroke="#000000" d="M1090,-122.2843C1090,-143.3211 1090,-175 1090,-175 1090,-175 748.792,-175 748.792,-175"/>
<polygon fill="#000000" stroke="#000000" points="748.7921,-171.5001 738.792,-175 748.792,-178.5001 748.7921,-171.5001"/>
</g>
<!-- LoginAttemptsGraphModule -->
<g id="node3" class="node">
<title>LoginAttemptsGraphModule</title>
<polygon fill="#8dd3c7" stroke="#000000" points="1026.8033,-122 1023.8033,-126 1002.8033,-126 999.8033,-122 847.1967,-122 847.1967,-86 1026.8033,-86 1026.8033,-122"/>
<text text-anchor="middle" x="937" y="-99.8" font-family="Times,serif" font-size="14.00" fill="#000000">LoginAttemptsGraphModule</text>
</g>
<!-- LoginAttemptsGraphModule&#45;&gt;HomePageModule -->
<g id="edge2" class="edge">
<title>LoginAttemptsGraphModule&#45;&gt;HomePageModule</title>
<path fill="none" stroke="#000000" d="M937,-122.0225C937,-139.3734 937,-163 937,-163 937,-163 748.724,-163 748.724,-163"/>
<polygon fill="#000000" stroke="#000000" points="748.724,-159.5001 738.724,-163 748.724,-166.5001 748.724,-159.5001"/>
</g>
<!-- NewsfeedModule -->
<g id="node4" class="node">
<title>NewsfeedModule</title>
<polygon fill="#8dd3c7" stroke="#000000" points="829.513,-122 826.513,-126 805.513,-126 802.513,-122 714.487,-122 714.487,-86 829.513,-86 829.513,-122"/>
<text text-anchor="middle" x="772" y="-99.8" font-family="Times,serif" font-size="14.00" fill="#000000">NewsfeedModule</text>
</g>
<!-- NewsfeedModule&#45;&gt;HomePageModule -->
<g id="edge3" class="edge">
<title>NewsfeedModule&#45;&gt;HomePageModule</title>
<path fill="none" stroke="#000000" d="M726.3654,-122.1061C726.3654,-122.1061 726.3654,-140.991 726.3654,-140.991"/>
<polygon fill="#000000" stroke="#000000" points="722.8654,-140.9909 726.3654,-150.991 729.8654,-140.991 722.8654,-140.9909"/>
</g>
<!-- RecentArticleDescriptionListModule -->
<g id="node5" class="node">
<title>RecentArticleDescriptionListModule</title>
<polygon fill="#8dd3c7" stroke="#000000" points="696.3805,-122 693.3805,-126 672.3805,-126 669.3805,-122 471.6195,-122 471.6195,-86 696.3805,-86 696.3805,-122"/>
<text text-anchor="middle" x="584" y="-99.8" font-family="Times,serif" font-size="14.00" fill="#000000">RecentArticleDescriptionListModule</text>
</g>
<!-- RecentArticleDescriptionListModule&#45;&gt;HomePageModule -->
<g id="edge4" class="edge">
<title>RecentArticleDescriptionListModule&#45;&gt;HomePageModule</title>
<path fill="none" stroke="#000000" d="M656.8517,-122.1061C656.8517,-122.1061 656.8517,-140.991 656.8517,-140.991"/>
<polygon fill="#000000" stroke="#000000" points="653.3518,-140.9909 656.8517,-150.991 660.3518,-140.991 653.3518,-140.9909"/>
</g>
<!-- RecentPlaylistDescriptionListModule -->
<g id="node6" class="node">
<title>RecentPlaylistDescriptionListModule</title>
<polygon fill="#8dd3c7" stroke="#000000" points="453.5167,-122 450.5167,-126 429.5167,-126 426.5167,-122 226.4833,-122 226.4833,-86 453.5167,-86 453.5167,-122"/>
<text text-anchor="middle" x="340" y="-99.8" font-family="Times,serif" font-size="14.00" fill="#000000">RecentPlaylistDescriptionListModule</text>
</g>
<!-- RecentPlaylistDescriptionListModule&#45;&gt;HomePageModule -->
<g id="edge5" class="edge">
<title>RecentPlaylistDescriptionListModule&#45;&gt;HomePageModule</title>
<path fill="none" stroke="#000000" d="M340,-122.0225C340,-139.3734 340,-163 340,-163 340,-163 607.182,-163 607.182,-163"/>
<polygon fill="#000000" stroke="#000000" points="607.182,-166.5001 617.182,-163 607.182,-159.5001 607.182,-166.5001"/>
</g>
<!-- UserDurationProgressModule -->
<g id="node7" class="node">
<title>UserDurationProgressModule</title>
<polygon fill="#8dd3c7" stroke="#000000" points="207.9468,-122 204.9468,-126 183.9468,-126 180.9468,-122 24.0532,-122 24.0532,-86 207.9468,-86 207.9468,-122"/>
<text text-anchor="middle" x="116" y="-99.8" font-family="Times,serif" font-size="14.00" fill="#000000">UserDurationProgressModule</text>
</g>
<!-- UserDurationProgressModule&#45;&gt;HomePageModule -->
<g id="edge6" class="edge">
<title>UserDurationProgressModule&#45;&gt;HomePageModule</title>
<path fill="none" stroke="#000000" d="M116,-122.2843C116,-143.3211 116,-175 116,-175 116,-175 607.3222,-175 607.3222,-175"/>
<polygon fill="#000000" stroke="#000000" points="607.3222,-178.5001 617.3222,-175 607.3221,-171.5001 607.3222,-178.5001"/>
</g>
</g>
</svg>
