<?xml version="1.0" encoding="UTF-8" standalone="no"?>
<!DOCTYPE svg PUBLIC "-//W3C//DTD SVG 1.1//EN"
 "http://www.w3.org/Graphics/SVG/1.1/DTD/svg11.dtd">
<!-- Generated by graphviz version 2.40.1 (20161225.0304)
 -->
<!-- Title: dependencies Pages: 1 -->
<svg width="504pt" height="211pt"
 viewBox="0.00 0.00 504.00 211.00" xmlns="http://www.w3.org/2000/svg" xmlns:xlink="http://www.w3.org/1999/xlink">
<g id="graph0" class="graph" transform="scale(1 1) rotate(0) translate(4 207)">
<title>dependencies</title>
<polygon fill="#ffffff" stroke="transparent" points="-4,4 -4,-207 500,-207 500,4 -4,4"/>
<text text-anchor="start" x="227.0091" y="-42.4" font-family="sans-serif" font-weight="bold" font-size="14.00" fill="#000000">Legend</text>
<polygon fill="#ffffb3" stroke="transparent" points="14,-10 14,-30 34,-30 34,-10 14,-10"/>
<text text-anchor="start" x="37.629" y="-15.4" font-family="sans-serif" font-size="14.00" fill="#000000"> &#160;Declarations</text>
<polygon fill="#8dd3c7" stroke="transparent" points="127,-10 127,-30 147,-30 147,-10 127,-10"/>
<text text-anchor="start" x="150.7251" y="-15.4" font-family="sans-serif" font-size="14.00" fill="#000000"> &#160;Module</text>
<polygon fill="#80b1d3" stroke="transparent" points="213,-10 213,-30 233,-30 233,-10 213,-10"/>
<text text-anchor="start" x="236.7812" y="-15.4" font-family="sans-serif" font-size="14.00" fill="#000000"> &#160;Bootstrap</text>
<polygon fill="#fdb462" stroke="transparent" points="310,-10 310,-30 330,-30 330,-10 310,-10"/>
<text text-anchor="start" x="333.6732" y="-15.4" font-family="sans-serif" font-size="14.00" fill="#000000"> &#160;Providers</text>
<polygon fill="#fb8072" stroke="transparent" points="406,-10 406,-30 426,-30 426,-10 406,-10"/>
<text text-anchor="start" x="429.7258" y="-15.4" font-family="sans-serif" font-size="14.00" fill="#000000"> &#160;Exports</text>
<g id="clust1" class="cluster">
<title>cluster_VideoManagementPageModule</title>
<polygon fill="none" stroke="#000000" stroke-dasharray="1,5" points="86,-70 86,-195 410,-195 410,-70 86,-70"/>
</g>
<g id="clust2" class="cluster">
<title>cluster_VideoManagementPageModule_declarations</title>
<polygon fill="none" stroke="#000000" points="236,-78 236,-130 402,-130 402,-78 236,-78"/>
</g>
<g id="clust4" class="cluster">
<title>cluster_VideoManagementPageModule_imports</title>
<polygon fill="none" stroke="#000000" points="94,-78 94,-130 228,-130 228,-78 94,-78"/>
</g>
<!-- VideoManagementPage -->
<g id="node1" class="node">
<title>VideoManagementPage</title>
<polygon fill="#ffffb3" stroke="#000000" points="394.0086,-122 243.9914,-122 243.9914,-86 394.0086,-86 394.0086,-122"/>
<text text-anchor="middle" x="319" y="-99.8" font-family="Times,serif" font-size="14.00" fill="#000000">VideoManagementPage</text>
</g>
<!-- VideoManagementPageModule -->
<g id="node2" class="node">
<title>VideoManagementPageModule</title>
<polygon fill="#8dd3c7" stroke="#000000" points="345.0576,-187 342.0576,-191 321.0576,-191 318.0576,-187 150.9424,-187 150.9424,-151 345.0576,-151 345.0576,-187"/>
<text text-anchor="middle" x="248" y="-164.8" font-family="Times,serif" font-size="14.00" fill="#000000">VideoManagementPageModule</text>
</g>
<!-- VideoManagementPage&#45;&gt;VideoManagementPageModule -->
<g id="edge1" class="edge">
<title>VideoManagementPage&#45;&gt;VideoManagementPageModule</title>
<path fill="none" stroke="#000000" d="M294.3875,-122.1061C294.3875,-122.1061 294.3875,-140.991 294.3875,-140.991"/>
<polygon fill="#000000" stroke="#000000" points="290.8875,-140.9909 294.3875,-150.991 297.8875,-140.991 290.8875,-140.9909"/>
</g>
<!-- DataTableModule -->
<g id="node3" class="node">
<title>DataTableModule</title>
<polygon fill="#8dd3c7" stroke="#000000" points="219.8487,-122 216.8487,-126 195.8487,-126 192.8487,-122 102.1513,-122 102.1513,-86 219.8487,-86 219.8487,-122"/>
<text text-anchor="middle" x="161" y="-99.8" font-family="Times,serif" font-size="14.00" fill="#000000">DataTableModule</text>
</g>
<!-- DataTableModule&#45;&gt;VideoManagementPageModule -->
<g id="edge2" class="edge">
<title>DataTableModule&#45;&gt;VideoManagementPageModule</title>
<path fill="none" stroke="#000000" d="M185.4477,-122.1061C185.4477,-122.1061 185.4477,-140.991 185.4477,-140.991"/>
<polygon fill="#000000" stroke="#000000" points="181.9478,-140.9909 185.4477,-150.991 188.9478,-140.991 181.9478,-140.9909"/>
</g>
</g>
</svg>
