<?xml version="1.0" encoding="UTF-8" standalone="no"?>
<!DOCTYPE svg PUBLIC "-//W3C//DTD SVG 1.1//EN"
 "http://www.w3.org/Graphics/SVG/1.1/DTD/svg11.dtd">
<!-- Generated by graphviz version 2.40.1 (20161225.0304)
 -->
<!-- Title: dependencies Pages: 1 -->
<svg width="624pt" height="211pt"
 viewBox="0.00 0.00 624.00 211.00" xmlns="http://www.w3.org/2000/svg" xmlns:xlink="http://www.w3.org/1999/xlink">
<g id="graph0" class="graph" transform="scale(1 1) rotate(0) translate(4 207)">
<title>dependencies</title>
<polygon fill="#ffffff" stroke="transparent" points="-4,4 -4,-207 620,-207 620,4 -4,4"/>
<text text-anchor="start" x="287.0091" y="-42.4" font-family="sans-serif" font-weight="bold" font-size="14.00" fill="#000000">Legend</text>
<polygon fill="#ffffb3" stroke="transparent" points="74,-10 74,-30 94,-30 94,-10 74,-10"/>
<text text-anchor="start" x="97.629" y="-15.4" font-family="sans-serif" font-size="14.00" fill="#000000"> &#160;Declarations</text>
<polygon fill="#8dd3c7" stroke="transparent" points="187,-10 187,-30 207,-30 207,-10 187,-10"/>
<text text-anchor="start" x="210.7251" y="-15.4" font-family="sans-serif" font-size="14.00" fill="#000000"> &#160;Module</text>
<polygon fill="#80b1d3" stroke="transparent" points="273,-10 273,-30 293,-30 293,-10 273,-10"/>
<text text-anchor="start" x="296.7812" y="-15.4" font-family="sans-serif" font-size="14.00" fill="#000000"> &#160;Bootstrap</text>
<polygon fill="#fdb462" stroke="transparent" points="370,-10 370,-30 390,-30 390,-10 370,-10"/>
<text text-anchor="start" x="393.6732" y="-15.4" font-family="sans-serif" font-size="14.00" fill="#000000"> &#160;Providers</text>
<polygon fill="#fb8072" stroke="transparent" points="466,-10 466,-30 486,-30 486,-10 466,-10"/>
<text text-anchor="start" x="489.7258" y="-15.4" font-family="sans-serif" font-size="14.00" fill="#000000"> &#160;Exports</text>
<g id="clust1" class="cluster">
<title>cluster_EmailTemplateManagementPageModule</title>
<polygon fill="none" stroke="#000000" stroke-dasharray="1,5" points="8,-70 8,-195 608,-195 608,-70 8,-70"/>
</g>
<g id="clust2" class="cluster">
<title>cluster_EmailTemplateManagementPageModule_declarations</title>
<polygon fill="none" stroke="#000000" points="382,-78 382,-130 600,-130 600,-78 382,-78"/>
</g>
<g id="clust4" class="cluster">
<title>cluster_EmailTemplateManagementPageModule_imports</title>
<polygon fill="none" stroke="#000000" points="240,-78 240,-130 374,-130 374,-78 240,-78"/>
</g>
<g id="clust7" class="cluster">
<title>cluster_EmailTemplateManagementPageModule_providers</title>
<polygon fill="none" stroke="#000000" points="16,-78 16,-130 232,-130 232,-78 16,-78"/>
</g>
<!-- EmailTemplateManagementPage -->
<g id="node1" class="node">
<title>EmailTemplateManagementPage</title>
<polygon fill="#ffffb3" stroke="#000000" points="592.1036,-122 389.8964,-122 389.8964,-86 592.1036,-86 592.1036,-122"/>
<text text-anchor="middle" x="491" y="-99.8" font-family="Times,serif" font-size="14.00" fill="#000000">EmailTemplateManagementPage</text>
</g>
<!-- EmailTemplateManagementPageModule -->
<g id="node2" class="node">
<title>EmailTemplateManagementPageModule</title>
<polygon fill="#8dd3c7" stroke="#000000" points="430.153,-187 427.153,-191 406.153,-191 403.153,-187 183.847,-187 183.847,-151 430.153,-151 430.153,-187"/>
<text text-anchor="middle" x="307" y="-164.8" font-family="Times,serif" font-size="14.00" fill="#000000">EmailTemplateManagementPageModule</text>
</g>
<!-- EmailTemplateManagementPage&#45;&gt;EmailTemplateManagementPageModule -->
<g id="edge1" class="edge">
<title>EmailTemplateManagementPage&#45;&gt;EmailTemplateManagementPageModule</title>
<path fill="none" stroke="#000000" d="M409.8875,-122.1061C409.8875,-122.1061 409.8875,-140.991 409.8875,-140.991"/>
<polygon fill="#000000" stroke="#000000" points="406.3875,-140.9909 409.8875,-150.991 413.3875,-140.991 406.3875,-140.9909"/>
</g>
<!-- DataTableModule -->
<g id="node3" class="node">
<title>DataTableModule</title>
<polygon fill="#8dd3c7" stroke="#000000" points="365.8487,-122 362.8487,-126 341.8487,-126 338.8487,-122 248.1513,-122 248.1513,-86 365.8487,-86 365.8487,-122"/>
<text text-anchor="middle" x="307" y="-99.8" font-family="Times,serif" font-size="14.00" fill="#000000">DataTableModule</text>
</g>
<!-- DataTableModule&#45;&gt;EmailTemplateManagementPageModule -->
<g id="edge2" class="edge">
<title>DataTableModule&#45;&gt;EmailTemplateManagementPageModule</title>
<path fill="none" stroke="#000000" d="M307,-122.1061C307,-122.1061 307,-140.991 307,-140.991"/>
<polygon fill="#000000" stroke="#000000" points="303.5001,-140.9909 307,-150.991 310.5001,-140.991 303.5001,-140.9909"/>
</g>
<!-- EmailTemplateService -->
<g id="node4" class="node">
<title>EmailTemplateService</title>
<ellipse fill="#fdb462" stroke="#000000" cx="124" cy="-104" rx="99.5501" ry="18"/>
<text text-anchor="middle" x="124" y="-99.8" font-family="Times,serif" font-size="14.00" fill="#000000">EmailTemplateService</text>
</g>
<!-- EmailTemplateService&#45;&gt;EmailTemplateManagementPageModule -->
<g id="edge3" class="edge">
<title>EmailTemplateService&#45;&gt;EmailTemplateManagementPageModule</title>
<path fill="none" stroke="#000000" d="M203.7243,-115.0264C203.7243,-115.0264 203.7243,-140.7791 203.7243,-140.7791"/>
<polygon fill="#000000" stroke="#000000" points="200.2244,-140.779 203.7243,-150.7791 207.2244,-140.7791 200.2244,-140.779"/>
</g>
</g>
</svg>
