<?xml version="1.0" encoding="UTF-8" standalone="no"?>
<!DOCTYPE svg PUBLIC "-//W3C//DTD SVG 1.1//EN"
 "http://www.w3.org/Graphics/SVG/1.1/DTD/svg11.dtd">
<!-- Generated by graphviz version 2.40.1 (20161225.0304)
 -->
<!-- Title: dependencies Pages: 1 -->
<svg width="1171pt" height="284pt"
 viewBox="0.00 0.00 1171.00 284.00" xmlns="http://www.w3.org/2000/svg" xmlns:xlink="http://www.w3.org/1999/xlink">
<g id="graph0" class="graph" transform="scale(1 1) rotate(0) translate(4 280)">
<title>dependencies</title>
<polygon fill="#ffffff" stroke="transparent" points="-4,4 -4,-280 1167,-280 1167,4 -4,4"/>
<text text-anchor="start" x="560.5091" y="-42.4" font-family="sans-serif" font-weight="bold" font-size="14.00" fill="#000000">Legend</text>
<polygon fill="#ffffb3" stroke="transparent" points="347.5,-10 347.5,-30 367.5,-30 367.5,-10 347.5,-10"/>
<text text-anchor="start" x="371.129" y="-15.4" font-family="sans-serif" font-size="14.00" fill="#000000"> &#160;Declarations</text>
<polygon fill="#8dd3c7" stroke="transparent" points="460.5,-10 460.5,-30 480.5,-30 480.5,-10 460.5,-10"/>
<text text-anchor="start" x="484.2251" y="-15.4" font-family="sans-serif" font-size="14.00" fill="#000000"> &#160;Module</text>
<polygon fill="#80b1d3" stroke="transparent" points="546.5,-10 546.5,-30 566.5,-30 566.5,-10 546.5,-10"/>
<text text-anchor="start" x="570.2812" y="-15.4" font-family="sans-serif" font-size="14.00" fill="#000000"> &#160;Bootstrap</text>
<polygon fill="#fdb462" stroke="transparent" points="643.5,-10 643.5,-30 663.5,-30 663.5,-10 643.5,-10"/>
<text text-anchor="start" x="667.1732" y="-15.4" font-family="sans-serif" font-size="14.00" fill="#000000"> &#160;Providers</text>
<polygon fill="#fb8072" stroke="transparent" points="739.5,-10 739.5,-30 759.5,-30 759.5,-10 739.5,-10"/>
<text text-anchor="start" x="763.2258" y="-15.4" font-family="sans-serif" font-size="14.00" fill="#000000"> &#160;Exports</text>
<g id="clust1" class="cluster">
<title>cluster_LongListModule</title>
<polygon fill="none" stroke="#000000" stroke-dasharray="1,5" points="8,-70 8,-268 1155,-268 1155,-70 8,-70"/>
</g>
<g id="clust2" class="cluster">
<title>cluster_LongListModule_declarations</title>
<polygon fill="none" stroke="#000000" points="999,-78 999,-130 1147,-130 1147,-78 999,-78"/>
</g>
<g id="clust4" class="cluster">
<title>cluster_LongListModule_imports</title>
<polygon fill="none" stroke="#000000" points="170,-78 170,-130 991,-130 991,-78 170,-78"/>
</g>
<g id="clust5" class="cluster">
<title>cluster_LongListModule_exports</title>
<polygon fill="none" stroke="#000000" points="441,-208 441,-260 593,-260 593,-208 441,-208"/>
</g>
<g id="clust7" class="cluster">
<title>cluster_LongListModule_providers</title>
<polygon fill="none" stroke="#000000" points="16,-78 16,-130 162,-130 162,-78 16,-78"/>
</g>
<!-- LongListComponent -->
<g id="node1" class="node">
<title>LongListComponent</title>
<polygon fill="#ffffb3" stroke="#000000" points="1139.1638,-122 1006.8362,-122 1006.8362,-86 1139.1638,-86 1139.1638,-122"/>
<text text-anchor="middle" x="1073" y="-99.8" font-family="Times,serif" font-size="14.00" fill="#000000">LongListComponent</text>
</g>
<!-- LongListModule -->
<g id="node2" class="node">
<title>LongListModule</title>
<polygon fill="#8dd3c7" stroke="#000000" points="572.3809,-187 569.3809,-191 548.3809,-191 545.3809,-187 461.6191,-187 461.6191,-151 572.3809,-151 572.3809,-187"/>
<text text-anchor="middle" x="517" y="-164.8" font-family="Times,serif" font-size="14.00" fill="#000000">LongListModule</text>
</g>
<!-- LongListComponent&#45;&gt;LongListModule -->
<g id="edge1" class="edge">
<title>LongListComponent&#45;&gt;LongListModule</title>
<path fill="none" stroke="#000000" d="M1073,-122.2843C1073,-143.3211 1073,-175 1073,-175 1073,-175 582.6004,-175 582.6004,-175"/>
<polygon fill="#000000" stroke="#000000" points="582.6004,-171.5001 572.6004,-175 582.6003,-178.5001 582.6004,-171.5001"/>
</g>
<!-- LongListComponent  -->
<g id="node8" class="node">
<title>LongListComponent </title>
<polygon fill="#fb8072" stroke="#000000" points="585.1635,-252 448.8365,-252 448.8365,-216 585.1635,-216 585.1635,-252"/>
<text text-anchor="middle" x="517" y="-229.8" font-family="Times,serif" font-size="14.00" fill="#000000">LongListComponent </text>
</g>
<!-- LongListModule&#45;&gt;LongListComponent  -->
<g id="edge7" class="edge">
<title>LongListModule&#45;&gt;LongListComponent </title>
<path fill="none" stroke="#000000" stroke-dasharray="5,2" d="M517,-187.1061C517,-187.1061 517,-205.991 517,-205.991"/>
<polygon fill="#000000" stroke="#000000" points="513.5001,-205.9909 517,-215.991 520.5001,-205.991 513.5001,-205.9909"/>
</g>
<!-- AcceptRemoveFriendButtonGroupModule -->
<g id="node3" class="node">
<title>AcceptRemoveFriendButtonGroupModule</title>
<polygon fill="#8dd3c7" stroke="#000000" points="983.2808,-122 980.2808,-126 959.2808,-126 956.2808,-122 726.7192,-122 726.7192,-86 983.2808,-86 983.2808,-122"/>
<text text-anchor="middle" x="855" y="-99.8" font-family="Times,serif" font-size="14.00" fill="#000000">AcceptRemoveFriendButtonGroupModule</text>
</g>
<!-- AcceptRemoveFriendButtonGroupModule&#45;&gt;LongListModule -->
<g id="edge2" class="edge">
<title>AcceptRemoveFriendButtonGroupModule&#45;&gt;LongListModule</title>
<path fill="none" stroke="#000000" d="M855,-122.0225C855,-139.3734 855,-163 855,-163 855,-163 582.4353,-163 582.4353,-163"/>
<polygon fill="#000000" stroke="#000000" points="582.4354,-159.5001 572.4353,-163 582.4353,-166.5001 582.4354,-159.5001"/>
</g>
<!-- ListEndCapModule -->
<g id="node4" class="node">
<title>ListEndCapModule</title>
<polygon fill="#8dd3c7" stroke="#000000" points="709.4327,-122 706.4327,-126 685.4327,-126 682.4327,-122 582.5673,-122 582.5673,-86 709.4327,-86 709.4327,-122"/>
<text text-anchor="middle" x="646" y="-99.8" font-family="Times,serif" font-size="14.00" fill="#000000">ListEndCapModule</text>
</g>
<!-- ListEndCapModule&#45;&gt;LongListModule -->
<g id="edge3" class="edge">
<title>ListEndCapModule&#45;&gt;LongListModule</title>
<path fill="none" stroke="#000000" d="M582.7548,-104C574.34,-104 568.5491,-104 568.5491,-104 568.5491,-104 568.5491,-140.8939 568.5491,-140.8939"/>
<polygon fill="#000000" stroke="#000000" points="565.0492,-140.8938 568.5491,-150.8939 572.0492,-140.8939 565.0492,-140.8938"/>
</g>
<!-- RangeModule -->
<g id="node5" class="node">
<title>RangeModule</title>
<polygon fill="#8dd3c7" stroke="#000000" points="564.8161,-122 561.8161,-126 540.8161,-126 537.8161,-122 469.1839,-122 469.1839,-86 564.8161,-86 564.8161,-122"/>
<text text-anchor="middle" x="517" y="-99.8" font-family="Times,serif" font-size="14.00" fill="#000000">RangeModule</text>
</g>
<!-- RangeModule&#45;&gt;LongListModule -->
<g id="edge4" class="edge">
<title>RangeModule&#45;&gt;LongListModule</title>
<path fill="none" stroke="#000000" d="M517,-122.1061C517,-122.1061 517,-140.991 517,-140.991"/>
<polygon fill="#000000" stroke="#000000" points="513.5001,-140.9909 517,-150.991 520.5001,-140.991 513.5001,-140.9909"/>
</g>
<!-- SafeHtmlModule -->
<g id="node6" class="node">
<title>SafeHtmlModule</title>
<polygon fill="#8dd3c7" stroke="#000000" points="451.7008,-122 448.7008,-126 427.7008,-126 424.7008,-122 338.2992,-122 338.2992,-86 451.7008,-86 451.7008,-122"/>
<text text-anchor="middle" x="395" y="-99.8" font-family="Times,serif" font-size="14.00" fill="#000000">SafeHtmlModule</text>
</g>
<!-- SafeHtmlModule&#45;&gt;LongListModule -->
<g id="edge5" class="edge">
<title>SafeHtmlModule&#45;&gt;LongListModule</title>
<path fill="none" stroke="#000000" d="M451.8673,-104C459.8781,-104 465.4509,-104 465.4509,-104 465.4509,-104 465.4509,-140.8939 465.4509,-140.8939"/>
<polygon fill="#000000" stroke="#000000" points="461.951,-140.8938 465.4509,-150.8939 468.951,-140.8939 461.951,-140.8938"/>
</g>
<!-- SkeletonBlockModule -->
<g id="node7" class="node">
<title>SkeletonBlockModule</title>
<polygon fill="#8dd3c7" stroke="#000000" points="319.9846,-122 316.9846,-126 295.9846,-126 292.9846,-122 178.0154,-122 178.0154,-86 319.9846,-86 319.9846,-122"/>
<text text-anchor="middle" x="249" y="-99.8" font-family="Times,serif" font-size="14.00" fill="#000000">SkeletonBlockModule</text>
</g>
<!-- SkeletonBlockModule&#45;&gt;LongListModule -->
<g id="edge6" class="edge">
<title>SkeletonBlockModule&#45;&gt;LongListModule</title>
<path fill="none" stroke="#000000" d="M249,-122.0225C249,-139.3734 249,-163 249,-163 249,-163 451.4702,-163 451.4702,-163"/>
<polygon fill="#000000" stroke="#000000" points="451.4703,-166.5001 461.4702,-163 451.4702,-159.5001 451.4703,-166.5001"/>
</g>
<!-- FriendService -->
<g id="node9" class="node">
<title>FriendService</title>
<ellipse fill="#fdb462" stroke="#000000" cx="89" cy="-104" rx="65.4053" ry="18"/>
<text text-anchor="middle" x="89" y="-99.8" font-family="Times,serif" font-size="14.00" fill="#000000">FriendService</text>
</g>
<!-- FriendService&#45;&gt;LongListModule -->
<g id="edge8" class="edge">
<title>FriendService&#45;&gt;LongListModule</title>
<path fill="none" stroke="#000000" d="M89,-122.2843C89,-143.3211 89,-175 89,-175 89,-175 451.4853,-175 451.4853,-175"/>
<polygon fill="#000000" stroke="#000000" points="451.4853,-178.5001 461.4853,-175 451.4852,-171.5001 451.4853,-178.5001"/>
</g>
</g>
</svg>
