<?xml version="1.0" encoding="UTF-8" standalone="no"?>
<!DOCTYPE svg PUBLIC "-//W3C//DTD SVG 1.1//EN"
 "http://www.w3.org/Graphics/SVG/1.1/DTD/svg11.dtd">
<!-- Generated by graphviz version 2.40.1 (20161225.0304)
 -->
<!-- Title: dependencies Pages: 1 -->
<svg width="504pt" height="284pt"
 viewBox="0.00 0.00 504.00 284.00" xmlns="http://www.w3.org/2000/svg" xmlns:xlink="http://www.w3.org/1999/xlink">
<g id="graph0" class="graph" transform="scale(1 1) rotate(0) translate(4 280)">
<title>dependencies</title>
<polygon fill="#ffffff" stroke="transparent" points="-4,4 -4,-280 500,-280 500,4 -4,4"/>
<text text-anchor="start" x="227.0091" y="-42.4" font-family="sans-serif" font-weight="bold" font-size="14.00" fill="#000000">Legend</text>
<polygon fill="#ffffb3" stroke="transparent" points="14,-10 14,-30 34,-30 34,-10 14,-10"/>
<text text-anchor="start" x="37.629" y="-15.4" font-family="sans-serif" font-size="14.00" fill="#000000"> &#160;Declarations</text>
<polygon fill="#8dd3c7" stroke="transparent" points="127,-10 127,-30 147,-30 147,-10 127,-10"/>
<text text-anchor="start" x="150.7251" y="-15.4" font-family="sans-serif" font-size="14.00" fill="#000000"> &#160;Module</text>
<polygon fill="#80b1d3" stroke="transparent" points="213,-10 213,-30 233,-30 233,-10 213,-10"/>
<text text-anchor="start" x="236.7812" y="-15.4" font-family="sans-serif" font-size="14.00" fill="#000000"> &#160;Bootstrap</text>
<polygon fill="#fdb462" stroke="transparent" points="310,-10 310,-30 330,-30 330,-10 310,-10"/>
<text text-anchor="start" x="333.6732" y="-15.4" font-family="sans-serif" font-size="14.00" fill="#000000"> &#160;Providers</text>
<polygon fill="#fb8072" stroke="transparent" points="406,-10 406,-30 426,-30 426,-10 406,-10"/>
<text text-anchor="start" x="429.7258" y="-15.4" font-family="sans-serif" font-size="14.00" fill="#000000"> &#160;Exports</text>
<g id="clust1" class="cluster">
<title>cluster_FriendSelectModule</title>
<polygon fill="none" stroke="#000000" stroke-dasharray="1,5" points="58,-70 58,-268 438,-268 438,-70 58,-70"/>
</g>
<g id="clust2" class="cluster">
<title>cluster_FriendSelectModule_declarations</title>
<polygon fill="none" stroke="#000000" points="262,-78 262,-130 430,-130 430,-78 262,-78"/>
</g>
<g id="clust5" class="cluster">
<title>cluster_FriendSelectModule_exports</title>
<polygon fill="none" stroke="#000000" points="166,-208 166,-260 338,-260 338,-208 166,-208"/>
</g>
<g id="clust7" class="cluster">
<title>cluster_FriendSelectModule_providers</title>
<polygon fill="none" stroke="#000000" points="66,-78 66,-130 254,-130 254,-78 66,-78"/>
</g>
<!-- FriendSelectComponent -->
<g id="node1" class="node">
<title>FriendSelectComponent</title>
<polygon fill="#ffffb3" stroke="#000000" points="422.0884,-122 269.9116,-122 269.9116,-86 422.0884,-86 422.0884,-122"/>
<text text-anchor="middle" x="346" y="-99.8" font-family="Times,serif" font-size="14.00" fill="#000000">FriendSelectComponent</text>
</g>
<!-- FriendSelectModule -->
<g id="node2" class="node">
<title>FriendSelectModule</title>
<polygon fill="#8dd3c7" stroke="#000000" points="317.3062,-187 314.3062,-191 293.3062,-191 290.3062,-187 186.6938,-187 186.6938,-151 317.3062,-151 317.3062,-187"/>
<text text-anchor="middle" x="252" y="-164.8" font-family="Times,serif" font-size="14.00" fill="#000000">FriendSelectModule</text>
</g>
<!-- FriendSelectComponent&#45;&gt;FriendSelectModule -->
<g id="edge1" class="edge">
<title>FriendSelectComponent&#45;&gt;FriendSelectModule</title>
<path fill="none" stroke="#000000" d="M293.5544,-122.1061C293.5544,-122.1061 293.5544,-140.991 293.5544,-140.991"/>
<polygon fill="#000000" stroke="#000000" points="290.0544,-140.9909 293.5544,-150.991 297.0544,-140.991 290.0544,-140.9909"/>
</g>
<!-- FriendSelectComponent  -->
<g id="node3" class="node">
<title>FriendSelectComponent </title>
<polygon fill="#fb8072" stroke="#000000" points="329.5889,-252 174.4111,-252 174.4111,-216 329.5889,-216 329.5889,-252"/>
<text text-anchor="middle" x="252" y="-229.8" font-family="Times,serif" font-size="14.00" fill="#000000">FriendSelectComponent </text>
</g>
<!-- FriendSelectModule&#45;&gt;FriendSelectComponent  -->
<g id="edge2" class="edge">
<title>FriendSelectModule&#45;&gt;FriendSelectComponent </title>
<path fill="none" stroke="#000000" stroke-dasharray="5,2" d="M252,-187.1061C252,-187.1061 252,-205.991 252,-205.991"/>
<polygon fill="#000000" stroke="#000000" points="248.5001,-205.9909 252,-215.991 255.5001,-205.991 248.5001,-205.9909"/>
</g>
<!-- UserSelectProvider -->
<g id="node4" class="node">
<title>UserSelectProvider</title>
<ellipse fill="#fdb462" stroke="#000000" cx="160" cy="-104" rx="86.229" ry="18"/>
<text text-anchor="middle" x="160" y="-99.8" font-family="Times,serif" font-size="14.00" fill="#000000">UserSelectProvider</text>
</g>
<!-- UserSelectProvider&#45;&gt;FriendSelectModule -->
<g id="edge3" class="edge">
<title>UserSelectProvider&#45;&gt;FriendSelectModule</title>
<path fill="none" stroke="#000000" d="M216.4808,-117.7848C216.4808,-117.7848 216.4808,-140.5475 216.4808,-140.5475"/>
<polygon fill="#000000" stroke="#000000" points="212.9809,-140.5474 216.4808,-150.5475 219.9809,-140.5475 212.9809,-140.5474"/>
</g>
</g>
</svg>
