<?xml version="1.0" encoding="UTF-8" standalone="no"?>
<!DOCTYPE svg PUBLIC "-//W3C//DTD SVG 1.1//EN"
 "http://www.w3.org/Graphics/SVG/1.1/DTD/svg11.dtd">
<!-- Generated by graphviz version 2.40.1 (20161225.0304)
 -->
<!-- Title: dependencies Pages: 1 -->
<svg width="760pt" height="211pt"
 viewBox="0.00 0.00 760.00 211.00" xmlns="http://www.w3.org/2000/svg" xmlns:xlink="http://www.w3.org/1999/xlink">
<g id="graph0" class="graph" transform="scale(1 1) rotate(0) translate(4 207)">
<title>dependencies</title>
<polygon fill="#ffffff" stroke="transparent" points="-4,4 -4,-207 756,-207 756,4 -4,4"/>
<text text-anchor="start" x="355.0091" y="-42.4" font-family="sans-serif" font-weight="bold" font-size="14.00" fill="#000000">Legend</text>
<polygon fill="#ffffb3" stroke="transparent" points="142,-10 142,-30 162,-30 162,-10 142,-10"/>
<text text-anchor="start" x="165.629" y="-15.4" font-family="sans-serif" font-size="14.00" fill="#000000"> &#160;Declarations</text>
<polygon fill="#8dd3c7" stroke="transparent" points="255,-10 255,-30 275,-30 275,-10 255,-10"/>
<text text-anchor="start" x="278.7251" y="-15.4" font-family="sans-serif" font-size="14.00" fill="#000000"> &#160;Module</text>
<polygon fill="#80b1d3" stroke="transparent" points="341,-10 341,-30 361,-30 361,-10 341,-10"/>
<text text-anchor="start" x="364.7812" y="-15.4" font-family="sans-serif" font-size="14.00" fill="#000000"> &#160;Bootstrap</text>
<polygon fill="#fdb462" stroke="transparent" points="438,-10 438,-30 458,-30 458,-10 438,-10"/>
<text text-anchor="start" x="461.6732" y="-15.4" font-family="sans-serif" font-size="14.00" fill="#000000"> &#160;Providers</text>
<polygon fill="#fb8072" stroke="transparent" points="534,-10 534,-30 554,-30 554,-10 534,-10"/>
<text text-anchor="start" x="557.7258" y="-15.4" font-family="sans-serif" font-size="14.00" fill="#000000"> &#160;Exports</text>
<g id="clust1" class="cluster">
<title>cluster_ArticleUserTypeManagementModule</title>
<polygon fill="none" stroke="#000000" stroke-dasharray="1,5" points="8,-70 8,-195 744,-195 744,-70 8,-70"/>
</g>
<g id="clust2" class="cluster">
<title>cluster_ArticleUserTypeManagementModule_declarations</title>
<polygon fill="none" stroke="#000000" points="510,-78 510,-130 736,-130 736,-78 510,-78"/>
</g>
<g id="clust4" class="cluster">
<title>cluster_ArticleUserTypeManagementModule_imports</title>
<polygon fill="none" stroke="#000000" points="250,-78 250,-130 502,-130 502,-78 250,-78"/>
</g>
<g id="clust7" class="cluster">
<title>cluster_ArticleUserTypeManagementModule_providers</title>
<polygon fill="none" stroke="#000000" points="16,-78 16,-130 242,-130 242,-78 16,-78"/>
</g>
<!-- ArticleUserTypeManagementPage -->
<g id="node1" class="node">
<title>ArticleUserTypeManagementPage</title>
<polygon fill="#ffffb3" stroke="#000000" points="728.3581,-122 517.6419,-122 517.6419,-86 728.3581,-86 728.3581,-122"/>
<text text-anchor="middle" x="623" y="-99.8" font-family="Times,serif" font-size="14.00" fill="#000000">ArticleUserTypeManagementPage</text>
</g>
<!-- ArticleUserTypeManagementModule -->
<g id="node2" class="node">
<title>ArticleUserTypeManagementModule</title>
<polygon fill="#8dd3c7" stroke="#000000" points="484.196,-187 481.196,-191 460.196,-191 457.196,-187 257.804,-187 257.804,-151 484.196,-151 484.196,-187"/>
<text text-anchor="middle" x="371" y="-164.8" font-family="Times,serif" font-size="14.00" fill="#000000">ArticleUserTypeManagementModule</text>
</g>
<!-- ArticleUserTypeManagementPage&#45;&gt;ArticleUserTypeManagementModule -->
<g id="edge1" class="edge">
<title>ArticleUserTypeManagementPage&#45;&gt;ArticleUserTypeManagementModule</title>
<path fill="none" stroke="#000000" d="M623,-122.1061C623,-141.3391 623,-169 623,-169 623,-169 494.4677,-169 494.4677,-169"/>
<polygon fill="#000000" stroke="#000000" points="494.4677,-165.5001 484.4677,-169 494.4676,-172.5001 494.4677,-165.5001"/>
</g>
<!-- DataTableModule -->
<g id="node3" class="node">
<title>DataTableModule</title>
<polygon fill="#8dd3c7" stroke="#000000" points="493.8487,-122 490.8487,-126 469.8487,-126 466.8487,-122 376.1513,-122 376.1513,-86 493.8487,-86 493.8487,-122"/>
<text text-anchor="middle" x="435" y="-99.8" font-family="Times,serif" font-size="14.00" fill="#000000">DataTableModule</text>
</g>
<!-- DataTableModule&#45;&gt;ArticleUserTypeManagementModule -->
<g id="edge2" class="edge">
<title>DataTableModule&#45;&gt;ArticleUserTypeManagementModule</title>
<path fill="none" stroke="#000000" d="M430.2118,-122.1061C430.2118,-122.1061 430.2118,-140.991 430.2118,-140.991"/>
<polygon fill="#000000" stroke="#000000" points="426.7119,-140.9909 430.2118,-150.991 433.7119,-140.991 426.7119,-140.9909"/>
</g>
<!-- HeaderModule -->
<g id="node4" class="node">
<title>HeaderModule</title>
<polygon fill="#8dd3c7" stroke="#000000" points="357.9608,-122 354.9608,-126 333.9608,-126 330.9608,-122 258.0392,-122 258.0392,-86 357.9608,-86 357.9608,-122"/>
<text text-anchor="middle" x="308" y="-99.8" font-family="Times,serif" font-size="14.00" fill="#000000">HeaderModule</text>
</g>
<!-- HeaderModule&#45;&gt;ArticleUserTypeManagementModule -->
<g id="edge3" class="edge">
<title>HeaderModule&#45;&gt;ArticleUserTypeManagementModule</title>
<path fill="none" stroke="#000000" d="M308,-122.1061C308,-122.1061 308,-140.991 308,-140.991"/>
<polygon fill="#000000" stroke="#000000" points="304.5001,-140.9909 308,-150.991 311.5001,-140.991 304.5001,-140.9909"/>
</g>
<!-- ArticleUserTypeService -->
<g id="node5" class="node">
<title>ArticleUserTypeService</title>
<ellipse fill="#fdb462" stroke="#000000" cx="129" cy="-104" rx="104.7482" ry="18"/>
<text text-anchor="middle" x="129" y="-99.8" font-family="Times,serif" font-size="14.00" fill="#000000">ArticleUserTypeService</text>
</g>
<!-- ArticleUserTypeService&#45;&gt;ArticleUserTypeManagementModule -->
<g id="edge4" class="edge">
<title>ArticleUserTypeService&#45;&gt;ArticleUserTypeManagementModule</title>
<path fill="none" stroke="#000000" d="M129,-122.1061C129,-141.3391 129,-169 129,-169 129,-169 247.794,-169 247.794,-169"/>
<polygon fill="#000000" stroke="#000000" points="247.7941,-172.5001 257.794,-169 247.794,-165.5001 247.7941,-172.5001"/>
</g>
</g>
</svg>
