<?xml version="1.0" encoding="UTF-8" standalone="no"?>
<!DOCTYPE svg PUBLIC "-//W3C//DTD SVG 1.1//EN"
 "http://www.w3.org/Graphics/SVG/1.1/DTD/svg11.dtd">
<!-- Generated by graphviz version 2.40.1 (20161225.0304)
 -->
<!-- Title: dependencies Pages: 1 -->
<svg width="504pt" height="284pt"
 viewBox="0.00 0.00 504.00 284.00" xmlns="http://www.w3.org/2000/svg" xmlns:xlink="http://www.w3.org/1999/xlink">
<g id="graph0" class="graph" transform="scale(1 1) rotate(0) translate(4 280)">
<title>dependencies</title>
<polygon fill="#ffffff" stroke="transparent" points="-4,4 -4,-280 500,-280 500,4 -4,4"/>
<text text-anchor="start" x="227.0091" y="-42.4" font-family="sans-serif" font-weight="bold" font-size="14.00" fill="#000000">Legend</text>
<polygon fill="#ffffb3" stroke="transparent" points="14,-10 14,-30 34,-30 34,-10 14,-10"/>
<text text-anchor="start" x="37.629" y="-15.4" font-family="sans-serif" font-size="14.00" fill="#000000"> &#160;Declarations</text>
<polygon fill="#8dd3c7" stroke="transparent" points="127,-10 127,-30 147,-30 147,-10 127,-10"/>
<text text-anchor="start" x="150.7251" y="-15.4" font-family="sans-serif" font-size="14.00" fill="#000000"> &#160;Module</text>
<polygon fill="#80b1d3" stroke="transparent" points="213,-10 213,-30 233,-30 233,-10 213,-10"/>
<text text-anchor="start" x="236.7812" y="-15.4" font-family="sans-serif" font-size="14.00" fill="#000000"> &#160;Bootstrap</text>
<polygon fill="#fdb462" stroke="transparent" points="310,-10 310,-30 330,-30 330,-10 310,-10"/>
<text text-anchor="start" x="333.6732" y="-15.4" font-family="sans-serif" font-size="14.00" fill="#000000"> &#160;Providers</text>
<polygon fill="#fb8072" stroke="transparent" points="406,-10 406,-30 426,-30 426,-10 406,-10"/>
<text text-anchor="start" x="429.7258" y="-15.4" font-family="sans-serif" font-size="14.00" fill="#000000"> &#160;Exports</text>
<g id="clust1" class="cluster">
<title>cluster_IntegerInputModule</title>
<polygon fill="none" stroke="#000000" stroke-dasharray="1,5" points="74,-70 74,-268 422,-268 422,-70 74,-70"/>
</g>
<g id="clust2" class="cluster">
<title>cluster_IntegerInputModule_declarations</title>
<polygon fill="none" stroke="#000000" points="248,-78 248,-130 414,-130 414,-78 248,-78"/>
</g>
<g id="clust4" class="cluster">
<title>cluster_IntegerInputModule_imports</title>
<polygon fill="none" stroke="#000000" points="82,-78 82,-130 240,-130 240,-78 82,-78"/>
</g>
<g id="clust5" class="cluster">
<title>cluster_IntegerInputModule_exports</title>
<polygon fill="none" stroke="#000000" points="163,-208 163,-260 333,-260 333,-208 163,-208"/>
</g>
<!-- IntegerInputComponent -->
<g id="node1" class="node">
<title>IntegerInputComponent</title>
<polygon fill="#ffffb3" stroke="#000000" points="406.0253,-122 255.9747,-122 255.9747,-86 406.0253,-86 406.0253,-122"/>
<text text-anchor="middle" x="331" y="-99.8" font-family="Times,serif" font-size="14.00" fill="#000000">IntegerInputComponent</text>
</g>
<!-- IntegerInputModule -->
<g id="node2" class="node">
<title>IntegerInputModule</title>
<polygon fill="#8dd3c7" stroke="#000000" points="312.2423,-187 309.2423,-191 288.2423,-191 285.2423,-187 183.7577,-187 183.7577,-151 312.2423,-151 312.2423,-187"/>
<text text-anchor="middle" x="248" y="-164.8" font-family="Times,serif" font-size="14.00" fill="#000000">IntegerInputModule</text>
</g>
<!-- IntegerInputComponent&#45;&gt;IntegerInputModule -->
<g id="edge1" class="edge">
<title>IntegerInputComponent&#45;&gt;IntegerInputModule</title>
<path fill="none" stroke="#000000" d="M284.0544,-122.1061C284.0544,-122.1061 284.0544,-140.991 284.0544,-140.991"/>
<polygon fill="#000000" stroke="#000000" points="280.5544,-140.9909 284.0544,-150.991 287.5544,-140.991 280.5544,-140.9909"/>
</g>
<!-- IntegerInputComponent  -->
<g id="node4" class="node">
<title>IntegerInputComponent </title>
<polygon fill="#fb8072" stroke="#000000" points="325.0246,-252 170.9754,-252 170.9754,-216 325.0246,-216 325.0246,-252"/>
<text text-anchor="middle" x="248" y="-229.8" font-family="Times,serif" font-size="14.00" fill="#000000">IntegerInputComponent </text>
</g>
<!-- IntegerInputModule&#45;&gt;IntegerInputComponent  -->
<g id="edge3" class="edge">
<title>IntegerInputModule&#45;&gt;IntegerInputComponent </title>
<path fill="none" stroke="#000000" stroke-dasharray="5,2" d="M248,-187.1061C248,-187.1061 248,-205.991 248,-205.991"/>
<polygon fill="#000000" stroke="#000000" points="244.5001,-205.9909 248,-215.991 251.5001,-205.991 244.5001,-205.9909"/>
</g>
<!-- QuestionLabelModule -->
<g id="node3" class="node">
<title>QuestionLabelModule</title>
<polygon fill="#8dd3c7" stroke="#000000" points="231.9692,-122 228.9692,-126 207.9692,-126 204.9692,-122 90.0308,-122 90.0308,-86 231.9692,-86 231.9692,-122"/>
<text text-anchor="middle" x="161" y="-99.8" font-family="Times,serif" font-size="14.00" fill="#000000">QuestionLabelModule</text>
</g>
<!-- QuestionLabelModule&#45;&gt;IntegerInputModule -->
<g id="edge2" class="edge">
<title>QuestionLabelModule&#45;&gt;IntegerInputModule</title>
<path fill="none" stroke="#000000" d="M207.8068,-122.1061C207.8068,-122.1061 207.8068,-140.991 207.8068,-140.991"/>
<polygon fill="#000000" stroke="#000000" points="204.3069,-140.9909 207.8068,-150.991 211.3069,-140.991 204.3069,-140.9909"/>
</g>
</g>
</svg>
