<?xml version="1.0" encoding="UTF-8" standalone="no"?>
<!DOCTYPE svg PUBLIC "-//W3C//DTD SVG 1.1//EN"
 "http://www.w3.org/Graphics/SVG/1.1/DTD/svg11.dtd">
<!-- Generated by graphviz version 2.40.1 (20161225.0304)
 -->
<!-- Title: dependencies Pages: 1 -->
<svg width="504pt" height="284pt"
 viewBox="0.00 0.00 504.00 284.00" xmlns="http://www.w3.org/2000/svg" xmlns:xlink="http://www.w3.org/1999/xlink">
<g id="graph0" class="graph" transform="scale(1 1) rotate(0) translate(4 280)">
<title>dependencies</title>
<polygon fill="#ffffff" stroke="transparent" points="-4,4 -4,-280 500,-280 500,4 -4,4"/>
<text text-anchor="start" x="227.0091" y="-42.4" font-family="sans-serif" font-weight="bold" font-size="14.00" fill="#000000">Legend</text>
<polygon fill="#ffffb3" stroke="transparent" points="14,-10 14,-30 34,-30 34,-10 14,-10"/>
<text text-anchor="start" x="37.629" y="-15.4" font-family="sans-serif" font-size="14.00" fill="#000000"> &#160;Declarations</text>
<polygon fill="#8dd3c7" stroke="transparent" points="127,-10 127,-30 147,-30 147,-10 127,-10"/>
<text text-anchor="start" x="150.7251" y="-15.4" font-family="sans-serif" font-size="14.00" fill="#000000"> &#160;Module</text>
<polygon fill="#80b1d3" stroke="transparent" points="213,-10 213,-30 233,-30 233,-10 213,-10"/>
<text text-anchor="start" x="236.7812" y="-15.4" font-family="sans-serif" font-size="14.00" fill="#000000"> &#160;Bootstrap</text>
<polygon fill="#fdb462" stroke="transparent" points="310,-10 310,-30 330,-30 330,-10 310,-10"/>
<text text-anchor="start" x="333.6732" y="-15.4" font-family="sans-serif" font-size="14.00" fill="#000000"> &#160;Providers</text>
<polygon fill="#fb8072" stroke="transparent" points="406,-10 406,-30 426,-30 426,-10 406,-10"/>
<text text-anchor="start" x="429.7258" y="-15.4" font-family="sans-serif" font-size="14.00" fill="#000000"> &#160;Exports</text>
<g id="clust1" class="cluster">
<title>cluster_BugReportModule</title>
<polygon fill="none" stroke="#000000" stroke-dasharray="1,5" points="67,-70 67,-268 429,-268 429,-70 67,-70"/>
</g>
<g id="clust2" class="cluster">
<title>cluster_BugReportModule_declarations</title>
<polygon fill="none" stroke="#000000" points="263,-78 263,-130 421,-130 421,-78 263,-78"/>
</g>
<g id="clust5" class="cluster">
<title>cluster_BugReportModule_exports</title>
<polygon fill="none" stroke="#000000" points="171,-208 171,-260 333,-260 333,-208 171,-208"/>
</g>
<g id="clust7" class="cluster">
<title>cluster_BugReportModule_providers</title>
<polygon fill="none" stroke="#000000" points="75,-78 75,-130 255,-130 255,-78 75,-78"/>
</g>
<!-- BugReportComponent -->
<g id="node1" class="node">
<title>BugReportComponent</title>
<polygon fill="#ffffb3" stroke="#000000" points="413.2716,-122 270.7284,-122 270.7284,-86 413.2716,-86 413.2716,-122"/>
<text text-anchor="middle" x="342" y="-99.8" font-family="Times,serif" font-size="14.00" fill="#000000">BugReportComponent</text>
</g>
<!-- BugReportModule -->
<g id="node2" class="node">
<title>BugReportModule</title>
<polygon fill="#8dd3c7" stroke="#000000" points="312.4888,-187 309.4888,-191 288.4888,-191 285.4888,-187 191.5112,-187 191.5112,-151 312.4888,-151 312.4888,-187"/>
<text text-anchor="middle" x="252" y="-164.8" font-family="Times,serif" font-size="14.00" fill="#000000">BugReportModule</text>
</g>
<!-- BugReportComponent&#45;&gt;BugReportModule -->
<g id="edge1" class="edge">
<title>BugReportComponent&#45;&gt;BugReportModule</title>
<path fill="none" stroke="#000000" d="M291.5544,-122.1061C291.5544,-122.1061 291.5544,-140.991 291.5544,-140.991"/>
<polygon fill="#000000" stroke="#000000" points="288.0544,-140.9909 291.5544,-150.991 295.0544,-140.991 288.0544,-140.9909"/>
</g>
<!-- BugReportComponent  -->
<g id="node3" class="node">
<title>BugReportComponent </title>
<polygon fill="#fb8072" stroke="#000000" points="325.2717,-252 178.7283,-252 178.7283,-216 325.2717,-216 325.2717,-252"/>
<text text-anchor="middle" x="252" y="-229.8" font-family="Times,serif" font-size="14.00" fill="#000000">BugReportComponent </text>
</g>
<!-- BugReportModule&#45;&gt;BugReportComponent  -->
<g id="edge2" class="edge">
<title>BugReportModule&#45;&gt;BugReportComponent </title>
<path fill="none" stroke="#000000" stroke-dasharray="5,2" d="M252,-187.1061C252,-187.1061 252,-205.991 252,-205.991"/>
<polygon fill="#000000" stroke="#000000" points="248.5001,-205.9909 252,-215.991 255.5001,-205.991 248.5001,-205.9909"/>
</g>
<!-- BugReportService -->
<g id="node4" class="node">
<title>BugReportService</title>
<ellipse fill="#fdb462" stroke="#000000" cx="165" cy="-104" rx="82.243" ry="18"/>
<text text-anchor="middle" x="165" y="-99.8" font-family="Times,serif" font-size="14.00" fill="#000000">BugReportService</text>
</g>
<!-- BugReportService&#45;&gt;BugReportModule -->
<g id="edge3" class="edge">
<title>BugReportService&#45;&gt;BugReportModule</title>
<path fill="none" stroke="#000000" d="M219.4385,-117.7848C219.4385,-117.7848 219.4385,-140.5475 219.4385,-140.5475"/>
<polygon fill="#000000" stroke="#000000" points="215.9386,-140.5474 219.4385,-150.5475 222.9386,-140.5475 215.9386,-140.5474"/>
</g>
</g>
</svg>
