<?xml version="1.0" encoding="UTF-8" standalone="no"?>
<!DOCTYPE svg PUBLIC "-//W3C//DTD SVG 1.1//EN"
 "http://www.w3.org/Graphics/SVG/1.1/DTD/svg11.dtd">
<!-- Generated by graphviz version 2.40.1 (20161225.0304)
 -->
<!-- Title: dependencies Pages: 1 -->
<svg width="732pt" height="211pt"
 viewBox="0.00 0.00 732.00 211.00" xmlns="http://www.w3.org/2000/svg" xmlns:xlink="http://www.w3.org/1999/xlink">
<g id="graph0" class="graph" transform="scale(1 1) rotate(0) translate(4 207)">
<title>dependencies</title>
<polygon fill="#ffffff" stroke="transparent" points="-4,4 -4,-207 728,-207 728,4 -4,4"/>
<text text-anchor="start" x="341.0091" y="-42.4" font-family="sans-serif" font-weight="bold" font-size="14.00" fill="#000000">Legend</text>
<polygon fill="#ffffb3" stroke="transparent" points="128,-10 128,-30 148,-30 148,-10 128,-10"/>
<text text-anchor="start" x="151.629" y="-15.4" font-family="sans-serif" font-size="14.00" fill="#000000"> &#160;Declarations</text>
<polygon fill="#8dd3c7" stroke="transparent" points="241,-10 241,-30 261,-30 261,-10 241,-10"/>
<text text-anchor="start" x="264.7251" y="-15.4" font-family="sans-serif" font-size="14.00" fill="#000000"> &#160;Module</text>
<polygon fill="#80b1d3" stroke="transparent" points="327,-10 327,-30 347,-30 347,-10 327,-10"/>
<text text-anchor="start" x="350.7812" y="-15.4" font-family="sans-serif" font-size="14.00" fill="#000000"> &#160;Bootstrap</text>
<polygon fill="#fdb462" stroke="transparent" points="424,-10 424,-30 444,-30 444,-10 424,-10"/>
<text text-anchor="start" x="447.6732" y="-15.4" font-family="sans-serif" font-size="14.00" fill="#000000"> &#160;Providers</text>
<polygon fill="#fb8072" stroke="transparent" points="520,-10 520,-30 540,-30 540,-10 520,-10"/>
<text text-anchor="start" x="543.7258" y="-15.4" font-family="sans-serif" font-size="14.00" fill="#000000"> &#160;Exports</text>
<g id="clust1" class="cluster">
<title>cluster_VideoAnalyticManagementPageModule</title>
<polygon fill="none" stroke="#000000" stroke-dasharray="1,5" points="8,-70 8,-195 716,-195 716,-70 8,-70"/>
</g>
<g id="clust2" class="cluster">
<title>cluster_VideoAnalyticManagementPageModule_declarations</title>
<polygon fill="none" stroke="#000000" points="494,-78 494,-130 708,-130 708,-78 494,-78"/>
</g>
<g id="clust4" class="cluster">
<title>cluster_VideoAnalyticManagementPageModule_imports</title>
<polygon fill="none" stroke="#000000" points="234,-78 234,-130 486,-130 486,-78 234,-78"/>
</g>
<g id="clust7" class="cluster">
<title>cluster_VideoAnalyticManagementPageModule_providers</title>
<polygon fill="none" stroke="#000000" points="16,-78 16,-130 226,-130 226,-78 16,-78"/>
</g>
<!-- VideoAnalyticManagementPage -->
<g id="node1" class="node">
<title>VideoAnalyticManagementPage</title>
<polygon fill="#ffffb3" stroke="#000000" points="700.2156,-122 501.7844,-122 501.7844,-86 700.2156,-86 700.2156,-122"/>
<text text-anchor="middle" x="601" y="-99.8" font-family="Times,serif" font-size="14.00" fill="#000000">VideoAnalyticManagementPage</text>
</g>
<!-- VideoAnalyticManagementPageModule -->
<g id="node2" class="node">
<title>VideoAnalyticManagementPageModule</title>
<polygon fill="#8dd3c7" stroke="#000000" points="476.2653,-187 473.2653,-191 452.2653,-191 449.2653,-187 233.7347,-187 233.7347,-151 476.2653,-151 476.2653,-187"/>
<text text-anchor="middle" x="355" y="-164.8" font-family="Times,serif" font-size="14.00" fill="#000000">VideoAnalyticManagementPageModule</text>
</g>
<!-- VideoAnalyticManagementPage&#45;&gt;VideoAnalyticManagementPageModule -->
<g id="edge1" class="edge">
<title>VideoAnalyticManagementPage&#45;&gt;VideoAnalyticManagementPageModule</title>
<path fill="none" stroke="#000000" d="M601,-122.1061C601,-141.3391 601,-169 601,-169 601,-169 486.1983,-169 486.1983,-169"/>
<polygon fill="#000000" stroke="#000000" points="486.1983,-165.5001 476.1983,-169 486.1983,-172.5001 486.1983,-165.5001"/>
</g>
<!-- DataTableModule -->
<g id="node3" class="node">
<title>DataTableModule</title>
<polygon fill="#8dd3c7" stroke="#000000" points="477.8487,-122 474.8487,-126 453.8487,-126 450.8487,-122 360.1513,-122 360.1513,-86 477.8487,-86 477.8487,-122"/>
<text text-anchor="middle" x="419" y="-99.8" font-family="Times,serif" font-size="14.00" fill="#000000">DataTableModule</text>
</g>
<!-- DataTableModule&#45;&gt;VideoAnalyticManagementPageModule -->
<g id="edge2" class="edge">
<title>DataTableModule&#45;&gt;VideoAnalyticManagementPageModule</title>
<path fill="none" stroke="#000000" d="M418.1042,-122.1061C418.1042,-122.1061 418.1042,-140.991 418.1042,-140.991"/>
<polygon fill="#000000" stroke="#000000" points="414.6042,-140.9909 418.1042,-150.991 421.6042,-140.991 414.6042,-140.9909"/>
</g>
<!-- HeaderModule -->
<g id="node4" class="node">
<title>HeaderModule</title>
<polygon fill="#8dd3c7" stroke="#000000" points="341.9608,-122 338.9608,-126 317.9608,-126 314.9608,-122 242.0392,-122 242.0392,-86 341.9608,-86 341.9608,-122"/>
<text text-anchor="middle" x="292" y="-99.8" font-family="Times,serif" font-size="14.00" fill="#000000">HeaderModule</text>
</g>
<!-- HeaderModule&#45;&gt;VideoAnalyticManagementPageModule -->
<g id="edge3" class="edge">
<title>HeaderModule&#45;&gt;VideoAnalyticManagementPageModule</title>
<path fill="none" stroke="#000000" d="M292,-122.1061C292,-122.1061 292,-140.991 292,-140.991"/>
<polygon fill="#000000" stroke="#000000" points="288.5001,-140.9909 292,-150.991 295.5001,-140.991 288.5001,-140.9909"/>
</g>
<!-- AnalyticVideoService -->
<g id="node5" class="node">
<title>AnalyticVideoService</title>
<ellipse fill="#fdb462" stroke="#000000" cx="121" cy="-104" rx="96.6868" ry="18"/>
<text text-anchor="middle" x="121" y="-99.8" font-family="Times,serif" font-size="14.00" fill="#000000">AnalyticVideoService</text>
</g>
<!-- AnalyticVideoService&#45;&gt;VideoAnalyticManagementPageModule -->
<g id="edge4" class="edge">
<title>AnalyticVideoService&#45;&gt;VideoAnalyticManagementPageModule</title>
<path fill="none" stroke="#000000" d="M218.1056,-104C229.9333,-104 237.9435,-104 237.9435,-104 237.9435,-104 237.9435,-140.8939 237.9435,-140.8939"/>
<polygon fill="#000000" stroke="#000000" points="234.4436,-140.8938 237.9435,-150.8939 241.4436,-140.8939 234.4436,-140.8938"/>
</g>
</g>
</svg>
