<?xml version="1.0" encoding="UTF-8" standalone="no"?>
<!DOCTYPE svg PUBLIC "-//W3C//DTD SVG 1.1//EN"
 "http://www.w3.org/Graphics/SVG/1.1/DTD/svg11.dtd">
<!-- Generated by graphviz version 2.40.1 (20161225.0304)
 -->
<!-- Title: dependencies Pages: 1 -->
<svg width="610pt" height="284pt"
 viewBox="0.00 0.00 610.00 284.00" xmlns="http://www.w3.org/2000/svg" xmlns:xlink="http://www.w3.org/1999/xlink">
<g id="graph0" class="graph" transform="scale(1 1) rotate(0) translate(4 280)">
<title>dependencies</title>
<polygon fill="#ffffff" stroke="transparent" points="-4,4 -4,-280 606,-280 606,4 -4,4"/>
<text text-anchor="start" x="280.0091" y="-42.4" font-family="sans-serif" font-weight="bold" font-size="14.00" fill="#000000">Legend</text>
<polygon fill="#ffffb3" stroke="transparent" points="67,-10 67,-30 87,-30 87,-10 67,-10"/>
<text text-anchor="start" x="90.629" y="-15.4" font-family="sans-serif" font-size="14.00" fill="#000000"> &#160;Declarations</text>
<polygon fill="#8dd3c7" stroke="transparent" points="180,-10 180,-30 200,-30 200,-10 180,-10"/>
<text text-anchor="start" x="203.7251" y="-15.4" font-family="sans-serif" font-size="14.00" fill="#000000"> &#160;Module</text>
<polygon fill="#80b1d3" stroke="transparent" points="266,-10 266,-30 286,-30 286,-10 266,-10"/>
<text text-anchor="start" x="289.7812" y="-15.4" font-family="sans-serif" font-size="14.00" fill="#000000"> &#160;Bootstrap</text>
<polygon fill="#fdb462" stroke="transparent" points="363,-10 363,-30 383,-30 383,-10 363,-10"/>
<text text-anchor="start" x="386.6732" y="-15.4" font-family="sans-serif" font-size="14.00" fill="#000000"> &#160;Providers</text>
<polygon fill="#fb8072" stroke="transparent" points="459,-10 459,-30 479,-30 479,-10 459,-10"/>
<text text-anchor="start" x="482.7258" y="-15.4" font-family="sans-serif" font-size="14.00" fill="#000000"> &#160;Exports</text>
<g id="clust1" class="cluster">
<title>cluster_EmailConfirmUserManagementModule</title>
<polygon fill="none" stroke="#000000" stroke-dasharray="1,5" points="8,-70 8,-268 594,-268 594,-70 8,-70"/>
</g>
<g id="clust2" class="cluster">
<title>cluster_EmailConfirmUserManagementModule_declarations</title>
<polygon fill="none" stroke="#000000" points="308,-78 308,-130 586,-130 586,-78 308,-78"/>
</g>
<g id="clust4" class="cluster">
<title>cluster_EmailConfirmUserManagementModule_imports</title>
<polygon fill="none" stroke="#000000" points="166,-78 166,-130 300,-130 300,-78 166,-78"/>
</g>
<g id="clust5" class="cluster">
<title>cluster_EmailConfirmUserManagementModule_exports</title>
<polygon fill="none" stroke="#000000" points="92,-208 92,-260 374,-260 374,-208 92,-208"/>
</g>
<g id="clust7" class="cluster">
<title>cluster_EmailConfirmUserManagementModule_providers</title>
<polygon fill="none" stroke="#000000" points="16,-78 16,-130 158,-130 158,-78 16,-78"/>
</g>
<!-- EmailConfirmUserManagementComponent -->
<g id="node1" class="node">
<title>EmailConfirmUserManagementComponent</title>
<polygon fill="#ffffb3" stroke="#000000" points="577.7211,-122 316.2789,-122 316.2789,-86 577.7211,-86 577.7211,-122"/>
<text text-anchor="middle" x="447" y="-99.8" font-family="Times,serif" font-size="14.00" fill="#000000">EmailConfirmUserManagementComponent</text>
</g>
<!-- EmailConfirmUserManagementModule -->
<g id="node2" class="node">
<title>EmailConfirmUserManagementModule</title>
<polygon fill="#8dd3c7" stroke="#000000" points="352.9384,-187 349.9384,-191 328.9384,-191 325.9384,-187 113.0616,-187 113.0616,-151 352.9384,-151 352.9384,-187"/>
<text text-anchor="middle" x="233" y="-164.8" font-family="Times,serif" font-size="14.00" fill="#000000">EmailConfirmUserManagementModule</text>
</g>
<!-- EmailConfirmUserManagementComponent&#45;&gt;EmailConfirmUserManagementModule -->
<g id="edge1" class="edge">
<title>EmailConfirmUserManagementComponent&#45;&gt;EmailConfirmUserManagementModule</title>
<path fill="none" stroke="#000000" d="M334.5544,-122.1061C334.5544,-122.1061 334.5544,-140.991 334.5544,-140.991"/>
<polygon fill="#000000" stroke="#000000" points="331.0544,-140.9909 334.5544,-150.991 338.0544,-140.991 331.0544,-140.9909"/>
</g>
<!-- EmailConfirmUserManagementComponent  -->
<g id="node4" class="node">
<title>EmailConfirmUserManagementComponent </title>
<polygon fill="#fb8072" stroke="#000000" points="365.7211,-252 100.2789,-252 100.2789,-216 365.7211,-216 365.7211,-252"/>
<text text-anchor="middle" x="233" y="-229.8" font-family="Times,serif" font-size="14.00" fill="#000000">EmailConfirmUserManagementComponent </text>
</g>
<!-- EmailConfirmUserManagementModule&#45;&gt;EmailConfirmUserManagementComponent  -->
<g id="edge3" class="edge">
<title>EmailConfirmUserManagementModule&#45;&gt;EmailConfirmUserManagementComponent </title>
<path fill="none" stroke="#000000" stroke-dasharray="5,2" d="M233,-187.1061C233,-187.1061 233,-205.991 233,-205.991"/>
<polygon fill="#000000" stroke="#000000" points="229.5001,-205.9909 233,-215.991 236.5001,-205.991 229.5001,-205.9909"/>
</g>
<!-- DataTableModule -->
<g id="node3" class="node">
<title>DataTableModule</title>
<polygon fill="#8dd3c7" stroke="#000000" points="291.8487,-122 288.8487,-126 267.8487,-126 264.8487,-122 174.1513,-122 174.1513,-86 291.8487,-86 291.8487,-122"/>
<text text-anchor="middle" x="233" y="-99.8" font-family="Times,serif" font-size="14.00" fill="#000000">DataTableModule</text>
</g>
<!-- DataTableModule&#45;&gt;EmailConfirmUserManagementModule -->
<g id="edge2" class="edge">
<title>DataTableModule&#45;&gt;EmailConfirmUserManagementModule</title>
<path fill="none" stroke="#000000" d="M233,-122.1061C233,-122.1061 233,-140.991 233,-140.991"/>
<polygon fill="#000000" stroke="#000000" points="229.5001,-140.9909 233,-150.991 236.5001,-140.991 229.5001,-140.9909"/>
</g>
<!-- EmailService -->
<g id="node5" class="node">
<title>EmailService</title>
<ellipse fill="#fdb462" stroke="#000000" cx="87" cy="-104" rx="63.1151" ry="18"/>
<text text-anchor="middle" x="87" y="-99.8" font-family="Times,serif" font-size="14.00" fill="#000000">EmailService</text>
</g>
<!-- EmailService&#45;&gt;EmailConfirmUserManagementModule -->
<g id="edge4" class="edge">
<title>EmailService&#45;&gt;EmailConfirmUserManagementModule</title>
<path fill="none" stroke="#000000" d="M131.5442,-116.8419C131.5442,-116.8419 131.5442,-140.5231 131.5442,-140.5231"/>
<polygon fill="#000000" stroke="#000000" points="128.0443,-140.523 131.5442,-150.5231 135.0443,-140.5231 128.0443,-140.523"/>
</g>
</g>
</svg>
