<?xml version="1.0" encoding="UTF-8" standalone="no"?>
<!DOCTYPE svg PUBLIC "-//W3C//DTD SVG 1.1//EN"
 "http://www.w3.org/Graphics/SVG/1.1/DTD/svg11.dtd">
<!-- Generated by graphviz version 2.40.1 (20161225.0304)
 -->
<!-- Title: dependencies Pages: 1 -->
<svg width="504pt" height="284pt"
 viewBox="0.00 0.00 504.00 284.00" xmlns="http://www.w3.org/2000/svg" xmlns:xlink="http://www.w3.org/1999/xlink">
<g id="graph0" class="graph" transform="scale(1 1) rotate(0) translate(4 280)">
<title>dependencies</title>
<polygon fill="#ffffff" stroke="transparent" points="-4,4 -4,-280 500,-280 500,4 -4,4"/>
<text text-anchor="start" x="227.0091" y="-42.4" font-family="sans-serif" font-weight="bold" font-size="14.00" fill="#000000">Legend</text>
<polygon fill="#ffffb3" stroke="transparent" points="14,-10 14,-30 34,-30 34,-10 14,-10"/>
<text text-anchor="start" x="37.629" y="-15.4" font-family="sans-serif" font-size="14.00" fill="#000000"> &#160;Declarations</text>
<polygon fill="#8dd3c7" stroke="transparent" points="127,-10 127,-30 147,-30 147,-10 127,-10"/>
<text text-anchor="start" x="150.7251" y="-15.4" font-family="sans-serif" font-size="14.00" fill="#000000"> &#160;Module</text>
<polygon fill="#80b1d3" stroke="transparent" points="213,-10 213,-30 233,-30 233,-10 213,-10"/>
<text text-anchor="start" x="236.7812" y="-15.4" font-family="sans-serif" font-size="14.00" fill="#000000"> &#160;Bootstrap</text>
<polygon fill="#fdb462" stroke="transparent" points="310,-10 310,-30 330,-30 330,-10 310,-10"/>
<text text-anchor="start" x="333.6732" y="-15.4" font-family="sans-serif" font-size="14.00" fill="#000000"> &#160;Providers</text>
<polygon fill="#fb8072" stroke="transparent" points="406,-10 406,-30 426,-30 426,-10 406,-10"/>
<text text-anchor="start" x="429.7258" y="-15.4" font-family="sans-serif" font-size="14.00" fill="#000000"> &#160;Exports</text>
<g id="clust1" class="cluster">
<title>cluster_SurveyModule</title>
<polygon fill="none" stroke="#000000" stroke-dasharray="1,5" points="88,-70 88,-268 408,-268 408,-70 88,-70"/>
</g>
<g id="clust3" class="cluster">
<title>cluster_SurveyModule_imports</title>
<polygon fill="none" stroke="#000000" points="254,-78 254,-130 400,-130 400,-78 254,-78"/>
</g>
<g id="clust4" class="cluster">
<title>cluster_SurveyModule_exports</title>
<polygon fill="none" stroke="#000000" points="163,-208 163,-260 333,-260 333,-208 163,-208"/>
</g>
<g id="clust6" class="cluster">
<title>cluster_SurveyModule_providers</title>
<polygon fill="none" stroke="#000000" points="96,-78 96,-130 246,-130 246,-78 96,-78"/>
</g>
<!-- SurveyFormModule -->
<g id="node1" class="node">
<title>SurveyFormModule</title>
<polygon fill="#8dd3c7" stroke="#000000" points="391.5422,-122 388.5422,-126 367.5422,-126 364.5422,-122 262.4578,-122 262.4578,-86 391.5422,-86 391.5422,-122"/>
<text text-anchor="middle" x="327" y="-99.8" font-family="Times,serif" font-size="14.00" fill="#000000">SurveyFormModule</text>
</g>
<!-- SurveyModule -->
<g id="node2" class="node">
<title>SurveyModule</title>
<polygon fill="#8dd3c7" stroke="#000000" points="297.7078,-187 294.7078,-191 273.7078,-191 270.7078,-187 198.2922,-187 198.2922,-151 297.7078,-151 297.7078,-187"/>
<text text-anchor="middle" x="248" y="-164.8" font-family="Times,serif" font-size="14.00" fill="#000000">SurveyModule</text>
</g>
<!-- SurveyFormModule&#45;&gt;SurveyModule -->
<g id="edge1" class="edge">
<title>SurveyFormModule&#45;&gt;SurveyModule</title>
<path fill="none" stroke="#000000" d="M279.9166,-122.1061C279.9166,-122.1061 279.9166,-140.991 279.9166,-140.991"/>
<polygon fill="#000000" stroke="#000000" points="276.4166,-140.9909 279.9166,-150.991 283.4166,-140.991 276.4166,-140.9909"/>
</g>
<!-- SurveyFormComponent  -->
<g id="node3" class="node">
<title>SurveyFormComponent </title>
<polygon fill="#fb8072" stroke="#000000" points="325.3241,-252 170.6759,-252 170.6759,-216 325.3241,-216 325.3241,-252"/>
<text text-anchor="middle" x="248" y="-229.8" font-family="Times,serif" font-size="14.00" fill="#000000">SurveyFormComponent </text>
</g>
<!-- SurveyModule&#45;&gt;SurveyFormComponent  -->
<g id="edge2" class="edge">
<title>SurveyModule&#45;&gt;SurveyFormComponent </title>
<path fill="none" stroke="#000000" stroke-dasharray="5,2" d="M248,-187.1061C248,-187.1061 248,-205.991 248,-205.991"/>
<polygon fill="#000000" stroke="#000000" points="244.5001,-205.9909 248,-215.991 251.5001,-205.991 244.5001,-205.9909"/>
</g>
<!-- SurveyService -->
<g id="node4" class="node">
<title>SurveyService</title>
<ellipse fill="#fdb462" stroke="#000000" cx="171" cy="-104" rx="67.1946" ry="18"/>
<text text-anchor="middle" x="171" y="-99.8" font-family="Times,serif" font-size="14.00" fill="#000000">SurveyService</text>
</g>
<!-- SurveyService&#45;&gt;SurveyModule -->
<g id="edge3" class="edge">
<title>SurveyService&#45;&gt;SurveyModule</title>
<path fill="none" stroke="#000000" d="M218.3717,-116.8419C218.3717,-116.8419 218.3717,-140.5231 218.3717,-140.5231"/>
<polygon fill="#000000" stroke="#000000" points="214.8718,-140.523 218.3717,-150.5231 221.8718,-140.5231 214.8718,-140.523"/>
</g>
</g>
</svg>
