<?xml version="1.0" encoding="UTF-8" standalone="no"?>
<!DOCTYPE svg PUBLIC "-//W3C//DTD SVG 1.1//EN"
 "http://www.w3.org/Graphics/SVG/1.1/DTD/svg11.dtd">
<!-- Generated by graphviz version 2.40.1 (20161225.0304)
 -->
<!-- Title: dependencies Pages: 1 -->
<svg width="566pt" height="284pt"
 viewBox="0.00 0.00 566.00 284.00" xmlns="http://www.w3.org/2000/svg" xmlns:xlink="http://www.w3.org/1999/xlink">
<g id="graph0" class="graph" transform="scale(1 1) rotate(0) translate(4 280)">
<title>dependencies</title>
<polygon fill="#ffffff" stroke="transparent" points="-4,4 -4,-280 562,-280 562,4 -4,4"/>
<text text-anchor="start" x="258.0091" y="-42.4" font-family="sans-serif" font-weight="bold" font-size="14.00" fill="#000000">Legend</text>
<polygon fill="#ffffb3" stroke="transparent" points="45,-10 45,-30 65,-30 65,-10 45,-10"/>
<text text-anchor="start" x="68.629" y="-15.4" font-family="sans-serif" font-size="14.00" fill="#000000"> &#160;Declarations</text>
<polygon fill="#8dd3c7" stroke="transparent" points="158,-10 158,-30 178,-30 178,-10 158,-10"/>
<text text-anchor="start" x="181.7251" y="-15.4" font-family="sans-serif" font-size="14.00" fill="#000000"> &#160;Module</text>
<polygon fill="#80b1d3" stroke="transparent" points="244,-10 244,-30 264,-30 264,-10 244,-10"/>
<text text-anchor="start" x="267.7812" y="-15.4" font-family="sans-serif" font-size="14.00" fill="#000000"> &#160;Bootstrap</text>
<polygon fill="#fdb462" stroke="transparent" points="341,-10 341,-30 361,-30 361,-10 341,-10"/>
<text text-anchor="start" x="364.6732" y="-15.4" font-family="sans-serif" font-size="14.00" fill="#000000"> &#160;Providers</text>
<polygon fill="#fb8072" stroke="transparent" points="437,-10 437,-30 457,-30 457,-10 437,-10"/>
<text text-anchor="start" x="460.7258" y="-15.4" font-family="sans-serif" font-size="14.00" fill="#000000"> &#160;Exports</text>
<g id="clust1" class="cluster">
<title>cluster_FriendRequestListModule</title>
<polygon fill="none" stroke="#000000" stroke-dasharray="1,5" points="8,-70 8,-268 550,-268 550,-70 8,-70"/>
</g>
<g id="clust2" class="cluster">
<title>cluster_FriendRequestListModule_declarations</title>
<polygon fill="none" stroke="#000000" points="342,-78 342,-130 542,-130 542,-78 342,-78"/>
</g>
<g id="clust4" class="cluster">
<title>cluster_FriendRequestListModule_imports</title>
<polygon fill="none" stroke="#000000" points="170,-78 170,-130 334,-130 334,-78 170,-78"/>
</g>
<g id="clust5" class="cluster">
<title>cluster_FriendRequestListModule_exports</title>
<polygon fill="none" stroke="#000000" points="150,-208 150,-260 354,-260 354,-208 150,-208"/>
</g>
<g id="clust7" class="cluster">
<title>cluster_FriendRequestListModule_providers</title>
<polygon fill="none" stroke="#000000" points="16,-78 16,-130 162,-130 162,-78 16,-78"/>
</g>
<!-- FriendRequestListComponent -->
<g id="node1" class="node">
<title>FriendRequestListComponent</title>
<polygon fill="#ffffb3" stroke="#000000" points="534.2604,-122 349.7396,-122 349.7396,-86 534.2604,-86 534.2604,-122"/>
<text text-anchor="middle" x="442" y="-99.8" font-family="Times,serif" font-size="14.00" fill="#000000">FriendRequestListComponent</text>
</g>
<!-- FriendRequestListModule -->
<g id="node2" class="node">
<title>FriendRequestListModule</title>
<polygon fill="#8dd3c7" stroke="#000000" points="333.4776,-187 330.4776,-191 309.4776,-191 306.4776,-187 170.5224,-187 170.5224,-151 333.4776,-151 333.4776,-187"/>
<text text-anchor="middle" x="252" y="-164.8" font-family="Times,serif" font-size="14.00" fill="#000000">FriendRequestListModule</text>
</g>
<!-- FriendRequestListComponent&#45;&gt;FriendRequestListModule -->
<g id="edge1" class="edge">
<title>FriendRequestListComponent&#45;&gt;FriendRequestListModule</title>
<path fill="none" stroke="#000000" d="M349.6963,-104C337.7671,-104 329.6017,-104 329.6017,-104 329.6017,-104 329.6017,-140.8939 329.6017,-140.8939"/>
<polygon fill="#000000" stroke="#000000" points="326.1018,-140.8938 329.6017,-150.8939 333.1018,-140.8939 326.1018,-140.8938"/>
</g>
<!-- FriendRequestListComponent  -->
<g id="node4" class="node">
<title>FriendRequestListComponent </title>
<polygon fill="#fb8072" stroke="#000000" points="346.2604,-252 157.7396,-252 157.7396,-216 346.2604,-216 346.2604,-252"/>
<text text-anchor="middle" x="252" y="-229.8" font-family="Times,serif" font-size="14.00" fill="#000000">FriendRequestListComponent </text>
</g>
<!-- FriendRequestListModule&#45;&gt;FriendRequestListComponent  -->
<g id="edge3" class="edge">
<title>FriendRequestListModule&#45;&gt;FriendRequestListComponent </title>
<path fill="none" stroke="#000000" stroke-dasharray="5,2" d="M252,-187.1061C252,-187.1061 252,-205.991 252,-205.991"/>
<polygon fill="#000000" stroke="#000000" points="248.5001,-205.9909 252,-215.991 255.5001,-205.991 248.5001,-205.9909"/>
</g>
<!-- FriendLongListModule -->
<g id="node3" class="node">
<title>FriendLongListModule</title>
<polygon fill="#8dd3c7" stroke="#000000" points="325.9298,-122 322.9298,-126 301.9298,-126 298.9298,-122 178.0702,-122 178.0702,-86 325.9298,-86 325.9298,-122"/>
<text text-anchor="middle" x="252" y="-99.8" font-family="Times,serif" font-size="14.00" fill="#000000">FriendLongListModule</text>
</g>
<!-- FriendLongListModule&#45;&gt;FriendRequestListModule -->
<g id="edge2" class="edge">
<title>FriendLongListModule&#45;&gt;FriendRequestListModule</title>
<path fill="none" stroke="#000000" d="M252,-122.1061C252,-122.1061 252,-140.991 252,-140.991"/>
<polygon fill="#000000" stroke="#000000" points="248.5001,-140.9909 252,-150.991 255.5001,-140.991 248.5001,-140.9909"/>
</g>
<!-- FriendService -->
<g id="node5" class="node">
<title>FriendService</title>
<ellipse fill="#fdb462" stroke="#000000" cx="89" cy="-104" rx="65.4053" ry="18"/>
<text text-anchor="middle" x="89" y="-99.8" font-family="Times,serif" font-size="14.00" fill="#000000">FriendService</text>
</g>
<!-- FriendService&#45;&gt;FriendRequestListModule -->
<g id="edge4" class="edge">
<title>FriendService&#45;&gt;FriendRequestListModule</title>
<path fill="none" stroke="#000000" d="M154.5916,-104C166.0586,-104 174.3983,-104 174.3983,-104 174.3983,-104 174.3983,-140.8939 174.3983,-140.8939"/>
<polygon fill="#000000" stroke="#000000" points="170.8984,-140.8938 174.3983,-150.8939 177.8984,-140.8939 170.8984,-140.8938"/>
</g>
</g>
</svg>
