<?xml version="1.0" encoding="UTF-8" standalone="no"?>
<!DOCTYPE svg PUBLIC "-//W3C//DTD SVG 1.1//EN"
 "http://www.w3.org/Graphics/SVG/1.1/DTD/svg11.dtd">
<!-- Generated by graphviz version 2.40.1 (20161225.0304)
 -->
<!-- Title: dependencies Pages: 1 -->
<svg width="799pt" height="284pt"
 viewBox="0.00 0.00 799.00 284.00" xmlns="http://www.w3.org/2000/svg" xmlns:xlink="http://www.w3.org/1999/xlink">
<g id="graph0" class="graph" transform="scale(1 1) rotate(0) translate(4 280)">
<title>dependencies</title>
<polygon fill="#ffffff" stroke="transparent" points="-4,4 -4,-280 795,-280 795,4 -4,4"/>
<text text-anchor="start" x="374.5091" y="-42.4" font-family="sans-serif" font-weight="bold" font-size="14.00" fill="#000000">Legend</text>
<polygon fill="#ffffb3" stroke="transparent" points="161.5,-10 161.5,-30 181.5,-30 181.5,-10 161.5,-10"/>
<text text-anchor="start" x="185.129" y="-15.4" font-family="sans-serif" font-size="14.00" fill="#000000"> &#160;Declarations</text>
<polygon fill="#8dd3c7" stroke="transparent" points="274.5,-10 274.5,-30 294.5,-30 294.5,-10 274.5,-10"/>
<text text-anchor="start" x="298.2251" y="-15.4" font-family="sans-serif" font-size="14.00" fill="#000000"> &#160;Module</text>
<polygon fill="#80b1d3" stroke="transparent" points="360.5,-10 360.5,-30 380.5,-30 380.5,-10 360.5,-10"/>
<text text-anchor="start" x="384.2812" y="-15.4" font-family="sans-serif" font-size="14.00" fill="#000000"> &#160;Bootstrap</text>
<polygon fill="#fdb462" stroke="transparent" points="457.5,-10 457.5,-30 477.5,-30 477.5,-10 457.5,-10"/>
<text text-anchor="start" x="481.1732" y="-15.4" font-family="sans-serif" font-size="14.00" fill="#000000"> &#160;Providers</text>
<polygon fill="#fb8072" stroke="transparent" points="553.5,-10 553.5,-30 573.5,-30 573.5,-10 553.5,-10"/>
<text text-anchor="start" x="577.2258" y="-15.4" font-family="sans-serif" font-size="14.00" fill="#000000"> &#160;Exports</text>
<g id="clust1" class="cluster">
<title>cluster_UserTypeAssignBadgeModule</title>
<polygon fill="none" stroke="#000000" stroke-dasharray="1,5" points="8,-70 8,-268 783,-268 783,-70 8,-70"/>
</g>
<g id="clust2" class="cluster">
<title>cluster_UserTypeAssignBadgeModule_declarations</title>
<polygon fill="none" stroke="#000000" points="547,-78 547,-130 775,-130 775,-78 547,-78"/>
</g>
<g id="clust4" class="cluster">
<title>cluster_UserTypeAssignBadgeModule_imports</title>
<polygon fill="none" stroke="#000000" points="393,-78 393,-130 539,-130 539,-78 393,-78"/>
</g>
<g id="clust5" class="cluster">
<title>cluster_UserTypeAssignBadgeModule_exports</title>
<polygon fill="none" stroke="#000000" points="274,-208 274,-260 504,-260 504,-208 274,-208"/>
</g>
<g id="clust7" class="cluster">
<title>cluster_UserTypeAssignBadgeModule_providers</title>
<polygon fill="none" stroke="#000000" points="16,-78 16,-130 385,-130 385,-78 16,-78"/>
</g>
<!-- UserTypeAssignBadgeComponent -->
<g id="node1" class="node">
<title>UserTypeAssignBadgeComponent</title>
<polygon fill="#ffffb3" stroke="#000000" points="766.6783,-122 555.3217,-122 555.3217,-86 766.6783,-86 766.6783,-122"/>
<text text-anchor="middle" x="661" y="-99.8" font-family="Times,serif" font-size="14.00" fill="#000000">UserTypeAssignBadgeComponent</text>
</g>
<!-- UserTypeAssignBadgeModule -->
<g id="node2" class="node">
<title>UserTypeAssignBadgeModule</title>
<polygon fill="#8dd3c7" stroke="#000000" points="483.896,-187 480.896,-191 459.896,-191 456.896,-187 294.104,-187 294.104,-151 483.896,-151 483.896,-187"/>
<text text-anchor="middle" x="389" y="-164.8" font-family="Times,serif" font-size="14.00" fill="#000000">UserTypeAssignBadgeModule</text>
</g>
<!-- UserTypeAssignBadgeComponent&#45;&gt;UserTypeAssignBadgeModule -->
<g id="edge1" class="edge">
<title>UserTypeAssignBadgeComponent&#45;&gt;UserTypeAssignBadgeModule</title>
<path fill="none" stroke="#000000" d="M661,-122.1061C661,-141.3391 661,-169 661,-169 661,-169 493.7506,-169 493.7506,-169"/>
<polygon fill="#000000" stroke="#000000" points="493.7506,-165.5001 483.7506,-169 493.7505,-172.5001 493.7506,-165.5001"/>
</g>
<!-- UserTypeAssignBadgeComponent  -->
<g id="node4" class="node">
<title>UserTypeAssignBadgeComponent </title>
<polygon fill="#fb8072" stroke="#000000" points="496.1784,-252 281.8216,-252 281.8216,-216 496.1784,-216 496.1784,-252"/>
<text text-anchor="middle" x="389" y="-229.8" font-family="Times,serif" font-size="14.00" fill="#000000">UserTypeAssignBadgeComponent </text>
</g>
<!-- UserTypeAssignBadgeModule&#45;&gt;UserTypeAssignBadgeComponent  -->
<g id="edge3" class="edge">
<title>UserTypeAssignBadgeModule&#45;&gt;UserTypeAssignBadgeComponent </title>
<path fill="none" stroke="#000000" stroke-dasharray="5,2" d="M389,-187.1061C389,-187.1061 389,-205.991 389,-205.991"/>
<polygon fill="#000000" stroke="#000000" points="385.5001,-205.9909 389,-215.991 392.5001,-205.991 385.5001,-205.9909"/>
</g>
<!-- BadgeSelectModule -->
<g id="node3" class="node">
<title>BadgeSelectModule</title>
<polygon fill="#8dd3c7" stroke="#000000" points="530.5241,-122 527.5241,-126 506.5241,-126 503.5241,-122 401.4759,-122 401.4759,-86 530.5241,-86 530.5241,-122"/>
<text text-anchor="middle" x="466" y="-99.8" font-family="Times,serif" font-size="14.00" fill="#000000">BadgeSelectModule</text>
</g>
<!-- BadgeSelectModule&#45;&gt;UserTypeAssignBadgeModule -->
<g id="edge2" class="edge">
<title>BadgeSelectModule&#45;&gt;UserTypeAssignBadgeModule</title>
<path fill="none" stroke="#000000" d="M442.4681,-122.1061C442.4681,-122.1061 442.4681,-140.991 442.4681,-140.991"/>
<polygon fill="#000000" stroke="#000000" points="438.9682,-140.9909 442.4681,-150.991 445.9682,-140.991 438.9682,-140.9909"/>
</g>
<!-- BadgeService -->
<g id="node5" class="node">
<title>BadgeService</title>
<ellipse fill="#fdb462" stroke="#000000" cx="312" cy="-104" rx="64.8254" ry="18"/>
<text text-anchor="middle" x="312" y="-99.8" font-family="Times,serif" font-size="14.00" fill="#000000">BadgeService</text>
</g>
<!-- BadgeService&#45;&gt;UserTypeAssignBadgeModule -->
<g id="edge4" class="edge">
<title>BadgeService&#45;&gt;UserTypeAssignBadgeModule</title>
<path fill="none" stroke="#000000" d="M335.4823,-121.078C335.4823,-121.078 335.4823,-140.8993 335.4823,-140.8993"/>
<polygon fill="#000000" stroke="#000000" points="331.9824,-140.8992 335.4823,-150.8993 338.9824,-140.8993 331.9824,-140.8992"/>
</g>
<!-- BadgeUserTypeService -->
<g id="node6" class="node">
<title>BadgeUserTypeService</title>
<ellipse fill="#fdb462" stroke="#000000" cx="127" cy="-104" rx="102.9686" ry="18"/>
<text text-anchor="middle" x="127" y="-99.8" font-family="Times,serif" font-size="14.00" fill="#000000">BadgeUserTypeService</text>
</g>
<!-- BadgeUserTypeService&#45;&gt;UserTypeAssignBadgeModule -->
<g id="edge5" class="edge">
<title>BadgeUserTypeService&#45;&gt;UserTypeAssignBadgeModule</title>
<path fill="none" stroke="#000000" d="M127,-122.1061C127,-141.3391 127,-169 127,-169 127,-169 284.0416,-169 284.0416,-169"/>
<polygon fill="#000000" stroke="#000000" points="284.0416,-172.5001 294.0416,-169 284.0415,-165.5001 284.0416,-172.5001"/>
</g>
</g>
</svg>
