<?xml version="1.0" encoding="UTF-8" standalone="no"?>
<!DOCTYPE svg PUBLIC "-//W3C//DTD SVG 1.1//EN"
 "http://www.w3.org/Graphics/SVG/1.1/DTD/svg11.dtd">
<!-- Generated by graphviz version 2.40.1 (20161225.0304)
 -->
<!-- Title: dependencies Pages: 1 -->
<svg width="504pt" height="211pt"
 viewBox="0.00 0.00 504.00 211.00" xmlns="http://www.w3.org/2000/svg" xmlns:xlink="http://www.w3.org/1999/xlink">
<g id="graph0" class="graph" transform="scale(1 1) rotate(0) translate(4 207)">
<title>dependencies</title>
<polygon fill="#ffffff" stroke="transparent" points="-4,4 -4,-207 500,-207 500,4 -4,4"/>
<text text-anchor="start" x="227.0091" y="-42.4" font-family="sans-serif" font-weight="bold" font-size="14.00" fill="#000000">Legend</text>
<polygon fill="#ffffb3" stroke="transparent" points="14,-10 14,-30 34,-30 34,-10 14,-10"/>
<text text-anchor="start" x="37.629" y="-15.4" font-family="sans-serif" font-size="14.00" fill="#000000"> &#160;Declarations</text>
<polygon fill="#8dd3c7" stroke="transparent" points="127,-10 127,-30 147,-30 147,-10 127,-10"/>
<text text-anchor="start" x="150.7251" y="-15.4" font-family="sans-serif" font-size="14.00" fill="#000000"> &#160;Module</text>
<polygon fill="#80b1d3" stroke="transparent" points="213,-10 213,-30 233,-30 233,-10 213,-10"/>
<text text-anchor="start" x="236.7812" y="-15.4" font-family="sans-serif" font-size="14.00" fill="#000000"> &#160;Bootstrap</text>
<polygon fill="#fdb462" stroke="transparent" points="310,-10 310,-30 330,-30 330,-10 310,-10"/>
<text text-anchor="start" x="333.6732" y="-15.4" font-family="sans-serif" font-size="14.00" fill="#000000"> &#160;Providers</text>
<polygon fill="#fb8072" stroke="transparent" points="406,-10 406,-30 426,-30 426,-10 406,-10"/>
<text text-anchor="start" x="429.7258" y="-15.4" font-family="sans-serif" font-size="14.00" fill="#000000"> &#160;Exports</text>
<g id="clust1" class="cluster">
<title>cluster_TagEditPageModule</title>
<polygon fill="none" stroke="#000000" stroke-dasharray="1,5" points="65,-70 65,-195 431,-195 431,-70 65,-70"/>
</g>
<g id="clust2" class="cluster">
<title>cluster_TagEditPageModule_declarations</title>
<polygon fill="none" stroke="#000000" points="319,-78 319,-130 423,-130 423,-78 319,-78"/>
</g>
<g id="clust4" class="cluster">
<title>cluster_TagEditPageModule_imports</title>
<polygon fill="none" stroke="#000000" points="73,-78 73,-130 311,-130 311,-78 73,-78"/>
</g>
<!-- TagEditPage -->
<g id="node1" class="node">
<title>TagEditPage</title>
<polygon fill="#ffffb3" stroke="#000000" points="415.3134,-122 326.6866,-122 326.6866,-86 415.3134,-86 415.3134,-122"/>
<text text-anchor="middle" x="371" y="-99.8" font-family="Times,serif" font-size="14.00" fill="#000000">TagEditPage</text>
</g>
<!-- TagEditPageModule -->
<g id="node2" class="node">
<title>TagEditPageModule</title>
<polygon fill="#8dd3c7" stroke="#000000" points="318.8627,-187 315.8627,-191 294.8627,-191 291.8627,-187 187.1373,-187 187.1373,-151 318.8627,-151 318.8627,-187"/>
<text text-anchor="middle" x="253" y="-164.8" font-family="Times,serif" font-size="14.00" fill="#000000">TagEditPageModule</text>
</g>
<!-- TagEditPage&#45;&gt;TagEditPageModule -->
<g id="edge1" class="edge">
<title>TagEditPage&#45;&gt;TagEditPageModule</title>
<path fill="none" stroke="#000000" d="M326.7317,-104C317.7321,-104 310.9559,-104 310.9559,-104 310.9559,-104 310.9559,-140.8939 310.9559,-140.8939"/>
<polygon fill="#000000" stroke="#000000" points="307.4559,-140.8938 310.9559,-150.8939 314.4559,-140.8939 307.4559,-140.8938"/>
</g>
<!-- HeaderModule -->
<g id="node3" class="node">
<title>HeaderModule</title>
<polygon fill="#8dd3c7" stroke="#000000" points="302.9608,-122 299.9608,-126 278.9608,-126 275.9608,-122 203.0392,-122 203.0392,-86 302.9608,-86 302.9608,-122"/>
<text text-anchor="middle" x="253" y="-99.8" font-family="Times,serif" font-size="14.00" fill="#000000">HeaderModule</text>
</g>
<!-- HeaderModule&#45;&gt;TagEditPageModule -->
<g id="edge2" class="edge">
<title>HeaderModule&#45;&gt;TagEditPageModule</title>
<path fill="none" stroke="#000000" d="M253,-122.1061C253,-122.1061 253,-140.991 253,-140.991"/>
<polygon fill="#000000" stroke="#000000" points="249.5001,-140.9909 253,-150.991 256.5001,-140.991 249.5001,-140.9909"/>
</g>
<!-- TagEditModule -->
<g id="node4" class="node">
<title>TagEditModule</title>
<polygon fill="#8dd3c7" stroke="#000000" points="185.1514,-122 182.1514,-126 161.1514,-126 158.1514,-122 80.8486,-122 80.8486,-86 185.1514,-86 185.1514,-122"/>
<text text-anchor="middle" x="133" y="-99.8" font-family="Times,serif" font-size="14.00" fill="#000000">TagEditModule</text>
</g>
<!-- TagEditModule&#45;&gt;TagEditPageModule -->
<g id="edge3" class="edge">
<title>TagEditModule&#45;&gt;TagEditPageModule</title>
<path fill="none" stroke="#000000" d="M185.3498,-104C191.1664,-104 195.0442,-104 195.0442,-104 195.0442,-104 195.0442,-140.8939 195.0442,-140.8939"/>
<polygon fill="#000000" stroke="#000000" points="191.5442,-140.8938 195.0442,-150.8939 198.5442,-140.8939 191.5442,-140.8938"/>
</g>
</g>
</svg>
