<?xml version="1.0" encoding="UTF-8" standalone="no"?>
<!DOCTYPE svg PUBLIC "-//W3C//DTD SVG 1.1//EN"
 "http://www.w3.org/Graphics/SVG/1.1/DTD/svg11.dtd">
<!-- Generated by graphviz version 2.40.1 (20161225.0304)
 -->
<!-- Title: dependencies Pages: 1 -->
<svg width="504pt" height="284pt"
 viewBox="0.00 0.00 504.00 284.00" xmlns="http://www.w3.org/2000/svg" xmlns:xlink="http://www.w3.org/1999/xlink">
<g id="graph0" class="graph" transform="scale(1 1) rotate(0) translate(4 280)">
<title>dependencies</title>
<polygon fill="#ffffff" stroke="transparent" points="-4,4 -4,-280 500,-280 500,4 -4,4"/>
<text text-anchor="start" x="227.0091" y="-42.4" font-family="sans-serif" font-weight="bold" font-size="14.00" fill="#000000">Legend</text>
<polygon fill="#ffffb3" stroke="transparent" points="14,-10 14,-30 34,-30 34,-10 14,-10"/>
<text text-anchor="start" x="37.629" y="-15.4" font-family="sans-serif" font-size="14.00" fill="#000000"> &#160;Declarations</text>
<polygon fill="#8dd3c7" stroke="transparent" points="127,-10 127,-30 147,-30 147,-10 127,-10"/>
<text text-anchor="start" x="150.7251" y="-15.4" font-family="sans-serif" font-size="14.00" fill="#000000"> &#160;Module</text>
<polygon fill="#80b1d3" stroke="transparent" points="213,-10 213,-30 233,-30 233,-10 213,-10"/>
<text text-anchor="start" x="236.7812" y="-15.4" font-family="sans-serif" font-size="14.00" fill="#000000"> &#160;Bootstrap</text>
<polygon fill="#fdb462" stroke="transparent" points="310,-10 310,-30 330,-30 330,-10 310,-10"/>
<text text-anchor="start" x="333.6732" y="-15.4" font-family="sans-serif" font-size="14.00" fill="#000000"> &#160;Providers</text>
<polygon fill="#fb8072" stroke="transparent" points="406,-10 406,-30 426,-30 426,-10 406,-10"/>
<text text-anchor="start" x="429.7258" y="-15.4" font-family="sans-serif" font-size="14.00" fill="#000000"> &#160;Exports</text>
<g id="clust1" class="cluster">
<title>cluster_CheckInCreateModule</title>
<polygon fill="none" stroke="#000000" stroke-dasharray="1,5" points="64,-70 64,-268 432,-268 432,-70 64,-70"/>
</g>
<g id="clust2" class="cluster">
<title>cluster_CheckInCreateModule_declarations</title>
<polygon fill="none" stroke="#000000" points="242,-78 242,-130 424,-130 424,-78 242,-78"/>
</g>
<g id="clust5" class="cluster">
<title>cluster_CheckInCreateModule_exports</title>
<polygon fill="none" stroke="#000000" points="156,-208 156,-260 340,-260 340,-208 156,-208"/>
</g>
<g id="clust7" class="cluster">
<title>cluster_CheckInCreateModule_providers</title>
<polygon fill="none" stroke="#000000" points="72,-78 72,-130 234,-130 234,-78 72,-78"/>
</g>
<!-- CheckInCreateComponent -->
<g id="node1" class="node">
<title>CheckInCreateComponent</title>
<polygon fill="#ffffb3" stroke="#000000" points="415.7907,-122 250.2093,-122 250.2093,-86 415.7907,-86 415.7907,-122"/>
<text text-anchor="middle" x="333" y="-99.8" font-family="Times,serif" font-size="14.00" fill="#000000">CheckInCreateComponent</text>
</g>
<!-- CheckInCreateModule -->
<g id="node2" class="node">
<title>CheckInCreateModule</title>
<polygon fill="#8dd3c7" stroke="#000000" points="319.5086,-187 316.5086,-191 295.5086,-191 292.5086,-187 176.4914,-187 176.4914,-151 319.5086,-151 319.5086,-187"/>
<text text-anchor="middle" x="248" y="-164.8" font-family="Times,serif" font-size="14.00" fill="#000000">CheckInCreateModule</text>
</g>
<!-- CheckInCreateComponent&#45;&gt;CheckInCreateModule -->
<g id="edge1" class="edge">
<title>CheckInCreateComponent&#45;&gt;CheckInCreateModule</title>
<path fill="none" stroke="#000000" d="M285.0544,-122.1061C285.0544,-122.1061 285.0544,-140.991 285.0544,-140.991"/>
<polygon fill="#000000" stroke="#000000" points="281.5544,-140.9909 285.0544,-150.991 288.5544,-140.991 281.5544,-140.9909"/>
</g>
<!-- CheckInCreateComponent  -->
<g id="node3" class="node">
<title>CheckInCreateComponent </title>
<polygon fill="#fb8072" stroke="#000000" points="332.2905,-252 163.7095,-252 163.7095,-216 332.2905,-216 332.2905,-252"/>
<text text-anchor="middle" x="248" y="-229.8" font-family="Times,serif" font-size="14.00" fill="#000000">CheckInCreateComponent </text>
</g>
<!-- CheckInCreateModule&#45;&gt;CheckInCreateComponent  -->
<g id="edge2" class="edge">
<title>CheckInCreateModule&#45;&gt;CheckInCreateComponent </title>
<path fill="none" stroke="#000000" stroke-dasharray="5,2" d="M248,-187.1061C248,-187.1061 248,-205.991 248,-205.991"/>
<polygon fill="#000000" stroke="#000000" points="244.5001,-205.9909 248,-215.991 251.5001,-205.991 244.5001,-205.9909"/>
</g>
<!-- CheckInService -->
<g id="node4" class="node">
<title>CheckInService</title>
<ellipse fill="#fdb462" stroke="#000000" cx="153" cy="-104" rx="72.9121" ry="18"/>
<text text-anchor="middle" x="153" y="-99.8" font-family="Times,serif" font-size="14.00" fill="#000000">CheckInService</text>
</g>
<!-- CheckInService&#45;&gt;CheckInCreateModule -->
<g id="edge3" class="edge">
<title>CheckInService&#45;&gt;CheckInCreateModule</title>
<path fill="none" stroke="#000000" d="M200.9759,-117.7848C200.9759,-117.7848 200.9759,-140.5475 200.9759,-140.5475"/>
<polygon fill="#000000" stroke="#000000" points="197.476,-140.5474 200.9759,-150.5475 204.476,-140.5475 197.476,-140.5474"/>
</g>
</g>
</svg>
