<?xml version="1.0" encoding="UTF-8" standalone="no"?>
<!DOCTYPE svg PUBLIC "-//W3C//DTD SVG 1.1//EN"
 "http://www.w3.org/Graphics/SVG/1.1/DTD/svg11.dtd">
<!-- Generated by graphviz version 2.40.1 (20161225.0304)
 -->
<!-- Title: dependencies Pages: 1 -->
<svg width="504pt" height="211pt"
 viewBox="0.00 0.00 504.00 211.00" xmlns="http://www.w3.org/2000/svg" xmlns:xlink="http://www.w3.org/1999/xlink">
<g id="graph0" class="graph" transform="scale(1 1) rotate(0) translate(4 207)">
<title>dependencies</title>
<polygon fill="#ffffff" stroke="transparent" points="-4,4 -4,-207 500,-207 500,4 -4,4"/>
<text text-anchor="start" x="227.0091" y="-42.4" font-family="sans-serif" font-weight="bold" font-size="14.00" fill="#000000">Legend</text>
<polygon fill="#ffffb3" stroke="transparent" points="14,-10 14,-30 34,-30 34,-10 14,-10"/>
<text text-anchor="start" x="37.629" y="-15.4" font-family="sans-serif" font-size="14.00" fill="#000000"> &#160;Declarations</text>
<polygon fill="#8dd3c7" stroke="transparent" points="127,-10 127,-30 147,-30 147,-10 127,-10"/>
<text text-anchor="start" x="150.7251" y="-15.4" font-family="sans-serif" font-size="14.00" fill="#000000"> &#160;Module</text>
<polygon fill="#80b1d3" stroke="transparent" points="213,-10 213,-30 233,-30 233,-10 213,-10"/>
<text text-anchor="start" x="236.7812" y="-15.4" font-family="sans-serif" font-size="14.00" fill="#000000"> &#160;Bootstrap</text>
<polygon fill="#fdb462" stroke="transparent" points="310,-10 310,-30 330,-30 330,-10 310,-10"/>
<text text-anchor="start" x="333.6732" y="-15.4" font-family="sans-serif" font-size="14.00" fill="#000000"> &#160;Providers</text>
<polygon fill="#fb8072" stroke="transparent" points="406,-10 406,-30 426,-30 426,-10 406,-10"/>
<text text-anchor="start" x="429.7258" y="-15.4" font-family="sans-serif" font-size="14.00" fill="#000000"> &#160;Exports</text>
<g id="clust1" class="cluster">
<title>cluster_VideoListPageModule</title>
<polygon fill="none" stroke="#000000" stroke-dasharray="1,5" points="53,-70 53,-195 443,-195 443,-70 53,-70"/>
</g>
<g id="clust2" class="cluster">
<title>cluster_VideoListPageModule_declarations</title>
<polygon fill="none" stroke="#000000" points="319,-78 319,-130 435,-130 435,-78 319,-78"/>
</g>
<g id="clust4" class="cluster">
<title>cluster_VideoListPageModule_imports</title>
<polygon fill="none" stroke="#000000" points="61,-78 61,-130 311,-130 311,-78 61,-78"/>
</g>
<!-- VideoListPage -->
<g id="node1" class="node">
<title>VideoListPage</title>
<polygon fill="#ffffb3" stroke="#000000" points="426.7022,-122 327.2978,-122 327.2978,-86 426.7022,-86 426.7022,-122"/>
<text text-anchor="middle" x="377" y="-99.8" font-family="Times,serif" font-size="14.00" fill="#000000">VideoListPage</text>
</g>
<!-- VideoListPageModule -->
<g id="node2" class="node">
<title>VideoListPageModule</title>
<polygon fill="#8dd3c7" stroke="#000000" points="324.252,-187 321.252,-191 300.252,-191 297.252,-187 181.748,-187 181.748,-151 324.252,-151 324.252,-187"/>
<text text-anchor="middle" x="253" y="-164.8" font-family="Times,serif" font-size="14.00" fill="#000000">VideoListPageModule</text>
</g>
<!-- VideoListPage&#45;&gt;VideoListPageModule -->
<g id="edge1" class="edge">
<title>VideoListPage&#45;&gt;VideoListPageModule</title>
<path fill="none" stroke="#000000" d="M327.1071,-104C319.259,-104 313.6782,-104 313.6782,-104 313.6782,-104 313.6782,-140.8939 313.6782,-140.8939"/>
<polygon fill="#000000" stroke="#000000" points="310.1782,-140.8938 313.6782,-150.8939 317.1782,-140.8939 310.1782,-140.8938"/>
</g>
<!-- HeaderModule -->
<g id="node3" class="node">
<title>HeaderModule</title>
<polygon fill="#8dd3c7" stroke="#000000" points="302.9608,-122 299.9608,-126 278.9608,-126 275.9608,-122 203.0392,-122 203.0392,-86 302.9608,-86 302.9608,-122"/>
<text text-anchor="middle" x="253" y="-99.8" font-family="Times,serif" font-size="14.00" fill="#000000">HeaderModule</text>
</g>
<!-- HeaderModule&#45;&gt;VideoListPageModule -->
<g id="edge2" class="edge">
<title>HeaderModule&#45;&gt;VideoListPageModule</title>
<path fill="none" stroke="#000000" d="M253,-122.1061C253,-122.1061 253,-140.991 253,-140.991"/>
<polygon fill="#000000" stroke="#000000" points="249.5001,-140.9909 253,-150.991 256.5001,-140.991 249.5001,-140.9909"/>
</g>
<!-- VideoListModule -->
<g id="node4" class="node">
<title>VideoListModule</title>
<polygon fill="#8dd3c7" stroke="#000000" points="184.5409,-122 181.5409,-126 160.5409,-126 157.5409,-122 69.4591,-122 69.4591,-86 184.5409,-86 184.5409,-122"/>
<text text-anchor="middle" x="127" y="-99.8" font-family="Times,serif" font-size="14.00" fill="#000000">VideoListModule</text>
</g>
<!-- VideoListModule&#45;&gt;VideoListPageModule -->
<g id="edge3" class="edge">
<title>VideoListModule&#45;&gt;VideoListPageModule</title>
<path fill="none" stroke="#000000" d="M184.5934,-104C190.2202,-104 193.8948,-104 193.8948,-104 193.8948,-104 193.8948,-140.8939 193.8948,-140.8939"/>
<polygon fill="#000000" stroke="#000000" points="190.3949,-140.8938 193.8948,-150.8939 197.3949,-140.8939 190.3949,-140.8938"/>
</g>
</g>
</svg>
