<?xml version="1.0" encoding="UTF-8" standalone="no"?>
<!DOCTYPE svg PUBLIC "-//W3C//DTD SVG 1.1//EN"
 "http://www.w3.org/Graphics/SVG/1.1/DTD/svg11.dtd">
<!-- Generated by graphviz version 2.40.1 (20161225.0304)
 -->
<!-- Title: dependencies Pages: 1 -->
<svg width="530pt" height="284pt"
 viewBox="0.00 0.00 530.00 284.00" xmlns="http://www.w3.org/2000/svg" xmlns:xlink="http://www.w3.org/1999/xlink">
<g id="graph0" class="graph" transform="scale(1 1) rotate(0) translate(4 280)">
<title>dependencies</title>
<polygon fill="#ffffff" stroke="transparent" points="-4,4 -4,-280 526,-280 526,4 -4,4"/>
<text text-anchor="start" x="240.0091" y="-42.4" font-family="sans-serif" font-weight="bold" font-size="14.00" fill="#000000">Legend</text>
<polygon fill="#ffffb3" stroke="transparent" points="27,-10 27,-30 47,-30 47,-10 27,-10"/>
<text text-anchor="start" x="50.629" y="-15.4" font-family="sans-serif" font-size="14.00" fill="#000000"> &#160;Declarations</text>
<polygon fill="#8dd3c7" stroke="transparent" points="140,-10 140,-30 160,-30 160,-10 140,-10"/>
<text text-anchor="start" x="163.7251" y="-15.4" font-family="sans-serif" font-size="14.00" fill="#000000"> &#160;Module</text>
<polygon fill="#80b1d3" stroke="transparent" points="226,-10 226,-30 246,-30 246,-10 226,-10"/>
<text text-anchor="start" x="249.7812" y="-15.4" font-family="sans-serif" font-size="14.00" fill="#000000"> &#160;Bootstrap</text>
<polygon fill="#fdb462" stroke="transparent" points="323,-10 323,-30 343,-30 343,-10 323,-10"/>
<text text-anchor="start" x="346.6732" y="-15.4" font-family="sans-serif" font-size="14.00" fill="#000000"> &#160;Providers</text>
<polygon fill="#fb8072" stroke="transparent" points="419,-10 419,-30 439,-30 439,-10 419,-10"/>
<text text-anchor="start" x="442.7258" y="-15.4" font-family="sans-serif" font-size="14.00" fill="#000000"> &#160;Exports</text>
<g id="clust1" class="cluster">
<title>cluster_ArticleTagSelectModule</title>
<polygon fill="none" stroke="#000000" stroke-dasharray="1,5" points="8,-70 8,-268 514,-268 514,-70 8,-70"/>
</g>
<g id="clust2" class="cluster">
<title>cluster_ArticleTagSelectModule_declarations</title>
<polygon fill="none" stroke="#000000" points="314,-78 314,-130 506,-130 506,-78 314,-78"/>
</g>
<g id="clust4" class="cluster">
<title>cluster_ArticleTagSelectModule_imports</title>
<polygon fill="none" stroke="#000000" points="174,-78 174,-130 306,-130 306,-78 174,-78"/>
</g>
<g id="clust5" class="cluster">
<title>cluster_ArticleTagSelectModule_exports</title>
<polygon fill="none" stroke="#000000" points="142,-208 142,-260 338,-260 338,-208 142,-208"/>
</g>
<g id="clust7" class="cluster">
<title>cluster_ArticleTagSelectModule_providers</title>
<polygon fill="none" stroke="#000000" points="16,-78 16,-130 166,-130 166,-78 16,-78"/>
</g>
<!-- ArticleTagSelectComponent -->
<g id="node1" class="node">
<title>ArticleTagSelectComponent</title>
<polygon fill="#ffffb3" stroke="#000000" points="498.1755,-122 321.8245,-122 321.8245,-86 498.1755,-86 498.1755,-122"/>
<text text-anchor="middle" x="410" y="-99.8" font-family="Times,serif" font-size="14.00" fill="#000000">ArticleTagSelectComponent</text>
</g>
<!-- ArticleTagSelectModule -->
<g id="node2" class="node">
<title>ArticleTagSelectModule</title>
<polygon fill="#8dd3c7" stroke="#000000" points="317.3933,-187 314.3933,-191 293.3933,-191 290.3933,-187 162.6067,-187 162.6067,-151 317.3933,-151 317.3933,-187"/>
<text text-anchor="middle" x="240" y="-164.8" font-family="Times,serif" font-size="14.00" fill="#000000">ArticleTagSelectModule</text>
</g>
<!-- ArticleTagSelectComponent&#45;&gt;ArticleTagSelectModule -->
<g id="edge1" class="edge">
<title>ArticleTagSelectComponent&#45;&gt;ArticleTagSelectModule</title>
<path fill="none" stroke="#000000" d="M325.875,-122.1061C325.875,-141.3391 325.875,-169 325.875,-169 325.875,-169 325.0202,-169 325.0202,-169"/>
<polygon fill="#000000" stroke="#000000" points="327.3271,-165.5001 317.327,-169 327.327,-172.5001 327.3271,-165.5001"/>
</g>
<!-- ArticleTagSelectComponent  -->
<g id="node4" class="node">
<title>ArticleTagSelectComponent </title>
<polygon fill="#fb8072" stroke="#000000" points="329.6757,-252 150.3243,-252 150.3243,-216 329.6757,-216 329.6757,-252"/>
<text text-anchor="middle" x="240" y="-229.8" font-family="Times,serif" font-size="14.00" fill="#000000">ArticleTagSelectComponent </text>
</g>
<!-- ArticleTagSelectModule&#45;&gt;ArticleTagSelectComponent  -->
<g id="edge3" class="edge">
<title>ArticleTagSelectModule&#45;&gt;ArticleTagSelectComponent </title>
<path fill="none" stroke="#000000" stroke-dasharray="5,2" d="M240,-187.1061C240,-187.1061 240,-205.991 240,-205.991"/>
<polygon fill="#000000" stroke="#000000" points="236.5001,-205.9909 240,-215.991 243.5001,-205.991 236.5001,-205.9909"/>
</g>
<!-- TagSelectModule -->
<g id="node3" class="node">
<title>TagSelectModule</title>
<polygon fill="#8dd3c7" stroke="#000000" points="297.5256,-122 294.5256,-126 273.5256,-126 270.5256,-122 182.4744,-122 182.4744,-86 297.5256,-86 297.5256,-122"/>
<text text-anchor="middle" x="240" y="-99.8" font-family="Times,serif" font-size="14.00" fill="#000000">TagSelectModule</text>
</g>
<!-- TagSelectModule&#45;&gt;ArticleTagSelectModule -->
<g id="edge2" class="edge">
<title>TagSelectModule&#45;&gt;ArticleTagSelectModule</title>
<path fill="none" stroke="#000000" d="M240,-122.1061C240,-122.1061 240,-140.991 240,-140.991"/>
<polygon fill="#000000" stroke="#000000" points="236.5001,-140.9909 240,-150.991 243.5001,-140.991 236.5001,-140.9909"/>
</g>
<!-- ArticleService -->
<g id="node5" class="node">
<title>ArticleService</title>
<ellipse fill="#fdb462" stroke="#000000" cx="91" cy="-104" rx="66.6055" ry="18"/>
<text text-anchor="middle" x="91" y="-99.8" font-family="Times,serif" font-size="14.00" fill="#000000">ArticleService</text>
</g>
<!-- ArticleService&#45;&gt;ArticleTagSelectModule -->
<g id="edge4" class="edge">
<title>ArticleService&#45;&gt;ArticleTagSelectModule</title>
<path fill="none" stroke="#000000" d="M153.9824,-110.4701C153.9824,-126.9111 153.9824,-169 153.9824,-169 153.9824,-169 154.8386,-169 154.8386,-169"/>
<polygon fill="#000000" stroke="#000000" points="152.5446,-172.5001 162.5446,-169 152.5445,-165.5001 152.5446,-172.5001"/>
</g>
</g>
</svg>
