<?xml version="1.0" encoding="UTF-8" standalone="no"?>
<!DOCTYPE svg PUBLIC "-//W3C//DTD SVG 1.1//EN"
 "http://www.w3.org/Graphics/SVG/1.1/DTD/svg11.dtd">
<!-- Generated by graphviz version 2.40.1 (20161225.0304)
 -->
<!-- Title: dependencies Pages: 1 -->
<svg width="504pt" height="284pt"
 viewBox="0.00 0.00 504.00 284.00" xmlns="http://www.w3.org/2000/svg" xmlns:xlink="http://www.w3.org/1999/xlink">
<g id="graph0" class="graph" transform="scale(1 1) rotate(0) translate(4 280)">
<title>dependencies</title>
<polygon fill="#ffffff" stroke="transparent" points="-4,4 -4,-280 500,-280 500,4 -4,4"/>
<text text-anchor="start" x="227.0091" y="-42.4" font-family="sans-serif" font-weight="bold" font-size="14.00" fill="#000000">Legend</text>
<polygon fill="#ffffb3" stroke="transparent" points="14,-10 14,-30 34,-30 34,-10 14,-10"/>
<text text-anchor="start" x="37.629" y="-15.4" font-family="sans-serif" font-size="14.00" fill="#000000"> &#160;Declarations</text>
<polygon fill="#8dd3c7" stroke="transparent" points="127,-10 127,-30 147,-30 147,-10 127,-10"/>
<text text-anchor="start" x="150.7251" y="-15.4" font-family="sans-serif" font-size="14.00" fill="#000000"> &#160;Module</text>
<polygon fill="#80b1d3" stroke="transparent" points="213,-10 213,-30 233,-30 233,-10 213,-10"/>
<text text-anchor="start" x="236.7812" y="-15.4" font-family="sans-serif" font-size="14.00" fill="#000000"> &#160;Bootstrap</text>
<polygon fill="#fdb462" stroke="transparent" points="310,-10 310,-30 330,-30 330,-10 310,-10"/>
<text text-anchor="start" x="333.6732" y="-15.4" font-family="sans-serif" font-size="14.00" fill="#000000"> &#160;Providers</text>
<polygon fill="#fb8072" stroke="transparent" points="406,-10 406,-30 426,-30 426,-10 406,-10"/>
<text text-anchor="start" x="429.7258" y="-15.4" font-family="sans-serif" font-size="14.00" fill="#000000"> &#160;Exports</text>
<g id="clust1" class="cluster">
<title>cluster_RecentArticleDescriptionListModule</title>
<polygon fill="none" stroke="#000000" stroke-dasharray="1,5" points="30,-70 30,-268 466,-268 466,-70 30,-70"/>
</g>
<g id="clust2" class="cluster">
<title>cluster_RecentArticleDescriptionListModule_declarations</title>
<polygon fill="none" stroke="#000000" points="196,-78 196,-130 458,-130 458,-78 196,-78"/>
</g>
<g id="clust5" class="cluster">
<title>cluster_RecentArticleDescriptionListModule_exports</title>
<polygon fill="none" stroke="#000000" points="115,-208 115,-260 381,-260 381,-208 115,-208"/>
</g>
<g id="clust7" class="cluster">
<title>cluster_RecentArticleDescriptionListModule_providers</title>
<polygon fill="none" stroke="#000000" points="38,-78 38,-130 188,-130 188,-78 38,-78"/>
</g>
<!-- RecentArticleDescriptionListComponent -->
<g id="node1" class="node">
<title>RecentArticleDescriptionListComponent</title>
<polygon fill="#ffffb3" stroke="#000000" points="450.1629,-122 203.8371,-122 203.8371,-86 450.1629,-86 450.1629,-122"/>
<text text-anchor="middle" x="327" y="-99.8" font-family="Times,serif" font-size="14.00" fill="#000000">RecentArticleDescriptionListComponent</text>
</g>
<!-- RecentArticleDescriptionListModule -->
<g id="node2" class="node">
<title>RecentArticleDescriptionListModule</title>
<polygon fill="#8dd3c7" stroke="#000000" points="360.3805,-187 357.3805,-191 336.3805,-191 333.3805,-187 135.6195,-187 135.6195,-151 360.3805,-151 360.3805,-187"/>
<text text-anchor="middle" x="248" y="-164.8" font-family="Times,serif" font-size="14.00" fill="#000000">RecentArticleDescriptionListModule</text>
</g>
<!-- RecentArticleDescriptionListComponent&#45;&gt;RecentArticleDescriptionListModule -->
<g id="edge1" class="edge">
<title>RecentArticleDescriptionListComponent&#45;&gt;RecentArticleDescriptionListModule</title>
<path fill="none" stroke="#000000" d="M282.0544,-122.1061C282.0544,-122.1061 282.0544,-140.991 282.0544,-140.991"/>
<polygon fill="#000000" stroke="#000000" points="278.5544,-140.9909 282.0544,-150.991 285.5544,-140.991 278.5544,-140.9909"/>
</g>
<!-- RecentArticleDescriptionListComponent  -->
<g id="node3" class="node">
<title>RecentArticleDescriptionListComponent </title>
<polygon fill="#fb8072" stroke="#000000" points="372.663,-252 123.337,-252 123.337,-216 372.663,-216 372.663,-252"/>
<text text-anchor="middle" x="248" y="-229.8" font-family="Times,serif" font-size="14.00" fill="#000000">RecentArticleDescriptionListComponent </text>
</g>
<!-- RecentArticleDescriptionListModule&#45;&gt;RecentArticleDescriptionListComponent  -->
<g id="edge2" class="edge">
<title>RecentArticleDescriptionListModule&#45;&gt;RecentArticleDescriptionListComponent </title>
<path fill="none" stroke="#000000" stroke-dasharray="5,2" d="M248,-187.1061C248,-187.1061 248,-205.991 248,-205.991"/>
<polygon fill="#000000" stroke="#000000" points="244.5001,-205.9909 248,-215.991 251.5001,-205.991 244.5001,-205.9909"/>
</g>
<!-- ArticleService -->
<g id="node4" class="node">
<title>ArticleService</title>
<ellipse fill="#fdb462" stroke="#000000" cx="113" cy="-104" rx="66.6055" ry="18"/>
<text text-anchor="middle" x="113" y="-99.8" font-family="Times,serif" font-size="14.00" fill="#000000">ArticleService</text>
</g>
<!-- ArticleService&#45;&gt;RecentArticleDescriptionListModule -->
<g id="edge3" class="edge">
<title>ArticleService&#45;&gt;RecentArticleDescriptionListModule</title>
<path fill="none" stroke="#000000" d="M157.8062,-117.468C157.8062,-117.468 157.8062,-140.8642 157.8062,-140.8642"/>
<polygon fill="#000000" stroke="#000000" points="154.3063,-140.8641 157.8062,-150.8642 161.3063,-140.8642 154.3063,-140.8641"/>
</g>
</g>
</svg>
