<?xml version="1.0" encoding="UTF-8" standalone="no"?>
<!DOCTYPE svg PUBLIC "-//W3C//DTD SVG 1.1//EN"
 "http://www.w3.org/Graphics/SVG/1.1/DTD/svg11.dtd">
<!-- Generated by graphviz version 2.40.1 (20161225.0304)
 -->
<!-- Title: dependencies Pages: 1 -->
<svg width="522pt" height="284pt"
 viewBox="0.00 0.00 522.00 284.00" xmlns="http://www.w3.org/2000/svg" xmlns:xlink="http://www.w3.org/1999/xlink">
<g id="graph0" class="graph" transform="scale(1 1) rotate(0) translate(4 280)">
<title>dependencies</title>
<polygon fill="#ffffff" stroke="transparent" points="-4,4 -4,-280 518,-280 518,4 -4,4"/>
<text text-anchor="start" x="236.0091" y="-42.4" font-family="sans-serif" font-weight="bold" font-size="14.00" fill="#000000">Legend</text>
<polygon fill="#ffffb3" stroke="transparent" points="23,-10 23,-30 43,-30 43,-10 23,-10"/>
<text text-anchor="start" x="46.629" y="-15.4" font-family="sans-serif" font-size="14.00" fill="#000000"> &#160;Declarations</text>
<polygon fill="#8dd3c7" stroke="transparent" points="136,-10 136,-30 156,-30 156,-10 136,-10"/>
<text text-anchor="start" x="159.7251" y="-15.4" font-family="sans-serif" font-size="14.00" fill="#000000"> &#160;Module</text>
<polygon fill="#80b1d3" stroke="transparent" points="222,-10 222,-30 242,-30 242,-10 222,-10"/>
<text text-anchor="start" x="245.7812" y="-15.4" font-family="sans-serif" font-size="14.00" fill="#000000"> &#160;Bootstrap</text>
<polygon fill="#fdb462" stroke="transparent" points="319,-10 319,-30 339,-30 339,-10 319,-10"/>
<text text-anchor="start" x="342.6732" y="-15.4" font-family="sans-serif" font-size="14.00" fill="#000000"> &#160;Providers</text>
<polygon fill="#fb8072" stroke="transparent" points="415,-10 415,-30 435,-30 435,-10 415,-10"/>
<text text-anchor="start" x="438.7258" y="-15.4" font-family="sans-serif" font-size="14.00" fill="#000000"> &#160;Exports</text>
<g id="clust1" class="cluster">
<title>cluster_SessionCreateModule</title>
<polygon fill="none" stroke="#000000" stroke-dasharray="1,5" points="8,-70 8,-268 506,-268 506,-70 8,-70"/>
</g>
<g id="clust2" class="cluster">
<title>cluster_SessionCreateModule_declarations</title>
<polygon fill="none" stroke="#000000" points="322,-78 322,-130 498,-130 498,-78 322,-78"/>
</g>
<g id="clust5" class="cluster">
<title>cluster_SessionCreateModule_exports</title>
<polygon fill="none" stroke="#000000" points="153,-208 153,-260 333,-260 333,-208 153,-208"/>
</g>
<g id="clust7" class="cluster">
<title>cluster_SessionCreateModule_providers</title>
<polygon fill="none" stroke="#000000" points="16,-78 16,-130 314,-130 314,-78 16,-78"/>
</g>
<!-- SessionCreateComponent -->
<g id="node1" class="node">
<title>SessionCreateComponent</title>
<polygon fill="#ffffb3" stroke="#000000" points="490.1414,-122 329.8586,-122 329.8586,-86 490.1414,-86 490.1414,-122"/>
<text text-anchor="middle" x="410" y="-99.8" font-family="Times,serif" font-size="14.00" fill="#000000">SessionCreateComponent</text>
</g>
<!-- SessionCreateModule -->
<g id="node2" class="node">
<title>SessionCreateModule</title>
<polygon fill="#8dd3c7" stroke="#000000" points="312.3585,-187 309.3585,-191 288.3585,-191 285.3585,-187 173.6415,-187 173.6415,-151 312.3585,-151 312.3585,-187"/>
<text text-anchor="middle" x="243" y="-164.8" font-family="Times,serif" font-size="14.00" fill="#000000">SessionCreateModule</text>
</g>
<!-- SessionCreateComponent&#45;&gt;SessionCreateModule -->
<g id="edge1" class="edge">
<title>SessionCreateComponent&#45;&gt;SessionCreateModule</title>
<path fill="none" stroke="#000000" d="M410,-122.1061C410,-141.3391 410,-169 410,-169 410,-169 322.3722,-169 322.3722,-169"/>
<polygon fill="#000000" stroke="#000000" points="322.3723,-165.5001 312.3722,-169 322.3722,-172.5001 322.3723,-165.5001"/>
</g>
<!-- SessionCreateComponent  -->
<g id="node3" class="node">
<title>SessionCreateComponent </title>
<polygon fill="#fb8072" stroke="#000000" points="325.1411,-252 160.8589,-252 160.8589,-216 325.1411,-216 325.1411,-252"/>
<text text-anchor="middle" x="243" y="-229.8" font-family="Times,serif" font-size="14.00" fill="#000000">SessionCreateComponent </text>
</g>
<!-- SessionCreateModule&#45;&gt;SessionCreateComponent  -->
<g id="edge2" class="edge">
<title>SessionCreateModule&#45;&gt;SessionCreateComponent </title>
<path fill="none" stroke="#000000" stroke-dasharray="5,2" d="M243,-187.1061C243,-187.1061 243,-205.991 243,-205.991"/>
<polygon fill="#000000" stroke="#000000" points="239.5001,-205.9909 243,-215.991 246.5001,-205.991 239.5001,-205.9909"/>
</g>
<!-- EventService -->
<g id="node4" class="node">
<title>EventService</title>
<ellipse fill="#fdb462" stroke="#000000" cx="243" cy="-104" rx="62.5373" ry="18"/>
<text text-anchor="middle" x="243" y="-99.8" font-family="Times,serif" font-size="14.00" fill="#000000">EventService</text>
</g>
<!-- EventService&#45;&gt;SessionCreateModule -->
<g id="edge3" class="edge">
<title>EventService&#45;&gt;SessionCreateModule</title>
<path fill="none" stroke="#000000" d="M243,-122.1061C243,-122.1061 243,-140.991 243,-140.991"/>
<polygon fill="#000000" stroke="#000000" points="239.5001,-140.9909 243,-150.991 246.5001,-140.991 239.5001,-140.9909"/>
</g>
<!-- SessionService -->
<g id="node5" class="node">
<title>SessionService</title>
<ellipse fill="#fdb462" stroke="#000000" cx="93" cy="-104" rx="69.4974" ry="18"/>
<text text-anchor="middle" x="93" y="-99.8" font-family="Times,serif" font-size="14.00" fill="#000000">SessionService</text>
</g>
<!-- SessionService&#45;&gt;SessionCreateModule -->
<g id="edge4" class="edge">
<title>SessionService&#45;&gt;SessionCreateModule</title>
<path fill="none" stroke="#000000" d="M92.2154,-122.1061C92.2154,-141.3391 92.2154,-169 92.2154,-169 92.2154,-169 163.3455,-169 163.3455,-169"/>
<polygon fill="#000000" stroke="#000000" points="163.3456,-172.5001 173.3455,-169 163.3455,-165.5001 163.3456,-172.5001"/>
</g>
</g>
</svg>
