<?xml version="1.0" encoding="UTF-8" standalone="no"?>
<!DOCTYPE svg PUBLIC "-//W3C//DTD SVG 1.1//EN"
 "http://www.w3.org/Graphics/SVG/1.1/DTD/svg11.dtd">
<!-- Generated by graphviz version 2.40.1 (20161225.0304)
 -->
<!-- Title: dependencies Pages: 1 -->
<svg width="504pt" height="211pt"
 viewBox="0.00 0.00 504.00 211.00" xmlns="http://www.w3.org/2000/svg" xmlns:xlink="http://www.w3.org/1999/xlink">
<g id="graph0" class="graph" transform="scale(1 1) rotate(0) translate(4 207)">
<title>dependencies</title>
<polygon fill="#ffffff" stroke="transparent" points="-4,4 -4,-207 500,-207 500,4 -4,4"/>
<text text-anchor="start" x="227.0091" y="-42.4" font-family="sans-serif" font-weight="bold" font-size="14.00" fill="#000000">Legend</text>
<polygon fill="#ffffb3" stroke="transparent" points="14,-10 14,-30 34,-30 34,-10 14,-10"/>
<text text-anchor="start" x="37.629" y="-15.4" font-family="sans-serif" font-size="14.00" fill="#000000"> &#160;Declarations</text>
<polygon fill="#8dd3c7" stroke="transparent" points="127,-10 127,-30 147,-30 147,-10 127,-10"/>
<text text-anchor="start" x="150.7251" y="-15.4" font-family="sans-serif" font-size="14.00" fill="#000000"> &#160;Module</text>
<polygon fill="#80b1d3" stroke="transparent" points="213,-10 213,-30 233,-30 233,-10 213,-10"/>
<text text-anchor="start" x="236.7812" y="-15.4" font-family="sans-serif" font-size="14.00" fill="#000000"> &#160;Bootstrap</text>
<polygon fill="#fdb462" stroke="transparent" points="310,-10 310,-30 330,-30 330,-10 310,-10"/>
<text text-anchor="start" x="333.6732" y="-15.4" font-family="sans-serif" font-size="14.00" fill="#000000"> &#160;Providers</text>
<polygon fill="#fb8072" stroke="transparent" points="406,-10 406,-30 426,-30 426,-10 406,-10"/>
<text text-anchor="start" x="429.7258" y="-15.4" font-family="sans-serif" font-size="14.00" fill="#000000"> &#160;Exports</text>
<g id="clust1" class="cluster">
<title>cluster_UserTypeCreateModule</title>
<polygon fill="none" stroke="#000000" stroke-dasharray="1,5" points="44,-70 44,-195 452,-195 452,-70 44,-70"/>
</g>
<g id="clust2" class="cluster">
<title>cluster_UserTypeCreateModule_declarations</title>
<polygon fill="none" stroke="#000000" points="294,-78 294,-130 444,-130 444,-78 294,-78"/>
</g>
<g id="clust4" class="cluster">
<title>cluster_UserTypeCreateModule_imports</title>
<polygon fill="none" stroke="#000000" points="52,-78 52,-130 286,-130 286,-78 52,-78"/>
</g>
<!-- UserTypeCreatePage -->
<g id="node1" class="node">
<title>UserTypeCreatePage</title>
<polygon fill="#ffffb3" stroke="#000000" points="436.437,-122 301.563,-122 301.563,-86 436.437,-86 436.437,-122"/>
<text text-anchor="middle" x="369" y="-99.8" font-family="Times,serif" font-size="14.00" fill="#000000">UserTypeCreatePage</text>
</g>
<!-- UserTypeCreateModule -->
<g id="node2" class="node">
<title>UserTypeCreateModule</title>
<polygon fill="#8dd3c7" stroke="#000000" points="303.7753,-187 300.7753,-191 279.7753,-191 276.7753,-187 152.2247,-187 152.2247,-151 303.7753,-151 303.7753,-187"/>
<text text-anchor="middle" x="228" y="-164.8" font-family="Times,serif" font-size="14.00" fill="#000000">UserTypeCreateModule</text>
</g>
<!-- UserTypeCreatePage&#45;&gt;UserTypeCreateModule -->
<g id="edge1" class="edge">
<title>UserTypeCreatePage&#45;&gt;UserTypeCreateModule</title>
<path fill="none" stroke="#000000" d="M301.4487,-104C294.404,-104 289.756,-104 289.756,-104 289.756,-104 289.756,-140.8939 289.756,-140.8939"/>
<polygon fill="#000000" stroke="#000000" points="286.256,-140.8938 289.756,-150.8939 293.256,-140.8939 286.256,-140.8938"/>
</g>
<!-- HeaderModule -->
<g id="node3" class="node">
<title>HeaderModule</title>
<polygon fill="#8dd3c7" stroke="#000000" points="277.9608,-122 274.9608,-126 253.9608,-126 250.9608,-122 178.0392,-122 178.0392,-86 277.9608,-86 277.9608,-122"/>
<text text-anchor="middle" x="228" y="-99.8" font-family="Times,serif" font-size="14.00" fill="#000000">HeaderModule</text>
</g>
<!-- HeaderModule&#45;&gt;UserTypeCreateModule -->
<g id="edge2" class="edge">
<title>HeaderModule&#45;&gt;UserTypeCreateModule</title>
<path fill="none" stroke="#000000" d="M228,-122.1061C228,-122.1061 228,-140.991 228,-140.991"/>
<polygon fill="#000000" stroke="#000000" points="224.5001,-140.9909 228,-150.991 231.5001,-140.991 224.5001,-140.9909"/>
</g>
<!-- UploadModule -->
<g id="node4" class="node">
<title>UploadModule</title>
<polygon fill="#8dd3c7" stroke="#000000" points="160.2619,-122 157.2619,-126 136.2619,-126 133.2619,-122 59.7381,-122 59.7381,-86 160.2619,-86 160.2619,-122"/>
<text text-anchor="middle" x="110" y="-99.8" font-family="Times,serif" font-size="14.00" fill="#000000">UploadModule</text>
</g>
<!-- UploadModule&#45;&gt;UserTypeCreateModule -->
<g id="edge3" class="edge">
<title>UploadModule&#45;&gt;UserTypeCreateModule</title>
<path fill="none" stroke="#000000" d="M156.3716,-122.1061C156.3716,-122.1061 156.3716,-140.991 156.3716,-140.991"/>
<polygon fill="#000000" stroke="#000000" points="152.8717,-140.9909 156.3716,-150.991 159.8717,-140.991 152.8717,-140.9909"/>
</g>
</g>
</svg>
