<?xml version="1.0" encoding="UTF-8" standalone="no"?>
<!DOCTYPE svg PUBLIC "-//W3C//DTD SVG 1.1//EN"
 "http://www.w3.org/Graphics/SVG/1.1/DTD/svg11.dtd">
<!-- Generated by graphviz version 2.40.1 (20161225.0304)
 -->
<!-- Title: dependencies Pages: 1 -->
<svg width="504pt" height="284pt"
 viewBox="0.00 0.00 504.00 284.00" xmlns="http://www.w3.org/2000/svg" xmlns:xlink="http://www.w3.org/1999/xlink">
<g id="graph0" class="graph" transform="scale(1 1) rotate(0) translate(4 280)">
<title>dependencies</title>
<polygon fill="#ffffff" stroke="transparent" points="-4,4 -4,-280 500,-280 500,4 -4,4"/>
<text text-anchor="start" x="227.0091" y="-42.4" font-family="sans-serif" font-weight="bold" font-size="14.00" fill="#000000">Legend</text>
<polygon fill="#ffffb3" stroke="transparent" points="14,-10 14,-30 34,-30 34,-10 14,-10"/>
<text text-anchor="start" x="37.629" y="-15.4" font-family="sans-serif" font-size="14.00" fill="#000000"> &#160;Declarations</text>
<polygon fill="#8dd3c7" stroke="transparent" points="127,-10 127,-30 147,-30 147,-10 127,-10"/>
<text text-anchor="start" x="150.7251" y="-15.4" font-family="sans-serif" font-size="14.00" fill="#000000"> &#160;Module</text>
<polygon fill="#80b1d3" stroke="transparent" points="213,-10 213,-30 233,-30 233,-10 213,-10"/>
<text text-anchor="start" x="236.7812" y="-15.4" font-family="sans-serif" font-size="14.00" fill="#000000"> &#160;Bootstrap</text>
<polygon fill="#fdb462" stroke="transparent" points="310,-10 310,-30 330,-30 330,-10 310,-10"/>
<text text-anchor="start" x="333.6732" y="-15.4" font-family="sans-serif" font-size="14.00" fill="#000000"> &#160;Providers</text>
<polygon fill="#fb8072" stroke="transparent" points="406,-10 406,-30 426,-30 426,-10 406,-10"/>
<text text-anchor="start" x="429.7258" y="-15.4" font-family="sans-serif" font-size="14.00" fill="#000000"> &#160;Exports</text>
<g id="clust1" class="cluster">
<title>cluster_MasonryGridModule</title>
<polygon fill="none" stroke="#000000" stroke-dasharray="1,5" points="46,-70 46,-268 450,-268 450,-70 46,-70"/>
</g>
<g id="clust2" class="cluster">
<title>cluster_MasonryGridModule_declarations</title>
<polygon fill="none" stroke="#000000" points="270,-78 270,-130 442,-130 442,-78 270,-78"/>
</g>
<g id="clust4" class="cluster">
<title>cluster_MasonryGridModule_imports</title>
<polygon fill="none" stroke="#000000" points="54,-78 54,-130 262,-130 262,-78 54,-78"/>
</g>
<g id="clust5" class="cluster">
<title>cluster_MasonryGridModule_exports</title>
<polygon fill="none" stroke="#000000" points="168,-208 168,-260 344,-260 344,-208 168,-208"/>
</g>
<!-- MasonryGridComponent -->
<g id="node1" class="node">
<title>MasonryGridComponent</title>
<polygon fill="#ffffb3" stroke="#000000" points="434.2548,-122 277.7452,-122 277.7452,-86 434.2548,-86 434.2548,-122"/>
<text text-anchor="middle" x="356" y="-99.8" font-family="Times,serif" font-size="14.00" fill="#000000">MasonryGridComponent</text>
</g>
<!-- MasonryGridModule -->
<g id="node2" class="node">
<title>MasonryGridModule</title>
<polygon fill="#8dd3c7" stroke="#000000" points="323.472,-187 320.472,-191 299.472,-191 296.472,-187 188.528,-187 188.528,-151 323.472,-151 323.472,-187"/>
<text text-anchor="middle" x="256" y="-164.8" font-family="Times,serif" font-size="14.00" fill="#000000">MasonryGridModule</text>
</g>
<!-- MasonryGridComponent&#45;&gt;MasonryGridModule -->
<g id="edge1" class="edge">
<title>MasonryGridComponent&#45;&gt;MasonryGridModule</title>
<path fill="none" stroke="#000000" d="M300.5544,-122.1061C300.5544,-122.1061 300.5544,-140.991 300.5544,-140.991"/>
<polygon fill="#000000" stroke="#000000" points="297.0544,-140.9909 300.5544,-150.991 304.0544,-140.991 297.0544,-140.9909"/>
</g>
<!-- MasonryGridComponent  -->
<g id="node4" class="node">
<title>MasonryGridComponent </title>
<polygon fill="#fb8072" stroke="#000000" points="336.2548,-252 175.7452,-252 175.7452,-216 336.2548,-216 336.2548,-252"/>
<text text-anchor="middle" x="256" y="-229.8" font-family="Times,serif" font-size="14.00" fill="#000000">MasonryGridComponent </text>
</g>
<!-- MasonryGridModule&#45;&gt;MasonryGridComponent  -->
<g id="edge3" class="edge">
<title>MasonryGridModule&#45;&gt;MasonryGridComponent </title>
<path fill="none" stroke="#000000" stroke-dasharray="5,2" d="M256,-187.1061C256,-187.1061 256,-205.991 256,-205.991"/>
<polygon fill="#000000" stroke="#000000" points="252.5001,-205.9909 256,-215.991 259.5001,-205.991 252.5001,-205.9909"/>
</g>
<!-- MasonrySkeletonBlockModule -->
<g id="node3" class="node">
<title>MasonrySkeletonBlockModule</title>
<polygon fill="#8dd3c7" stroke="#000000" points="253.7492,-122 250.7492,-126 229.7492,-126 226.7492,-122 62.2508,-122 62.2508,-86 253.7492,-86 253.7492,-122"/>
<text text-anchor="middle" x="158" y="-99.8" font-family="Times,serif" font-size="14.00" fill="#000000">MasonrySkeletonBlockModule</text>
</g>
<!-- MasonrySkeletonBlockModule&#45;&gt;MasonryGridModule -->
<g id="edge2" class="edge">
<title>MasonrySkeletonBlockModule&#45;&gt;MasonryGridModule</title>
<path fill="none" stroke="#000000" d="M221.1943,-122.1061C221.1943,-122.1061 221.1943,-140.991 221.1943,-140.991"/>
<polygon fill="#000000" stroke="#000000" points="217.6943,-140.9909 221.1943,-150.991 224.6943,-140.991 217.6943,-140.9909"/>
</g>
</g>
</svg>
