<?xml version="1.0" encoding="UTF-8" standalone="no"?>
<!DOCTYPE svg PUBLIC "-//W3C//DTD SVG 1.1//EN"
 "http://www.w3.org/Graphics/SVG/1.1/DTD/svg11.dtd">
<!-- Generated by graphviz version 2.40.1 (20161225.0304)
 -->
<!-- Title: dependencies Pages: 1 -->
<svg width="1230pt" height="211pt"
 viewBox="0.00 0.00 1230.00 211.00" xmlns="http://www.w3.org/2000/svg" xmlns:xlink="http://www.w3.org/1999/xlink">
<g id="graph0" class="graph" transform="scale(1 1) rotate(0) translate(4 207)">
<title>dependencies</title>
<polygon fill="#ffffff" stroke="transparent" points="-4,4 -4,-207 1226,-207 1226,4 -4,4"/>
<text text-anchor="start" x="590.0091" y="-42.4" font-family="sans-serif" font-weight="bold" font-size="14.00" fill="#000000">Legend</text>
<polygon fill="#ffffb3" stroke="transparent" points="377,-10 377,-30 397,-30 397,-10 377,-10"/>
<text text-anchor="start" x="400.629" y="-15.4" font-family="sans-serif" font-size="14.00" fill="#000000"> &#160;Declarations</text>
<polygon fill="#8dd3c7" stroke="transparent" points="490,-10 490,-30 510,-30 510,-10 490,-10"/>
<text text-anchor="start" x="513.7251" y="-15.4" font-family="sans-serif" font-size="14.00" fill="#000000"> &#160;Module</text>
<polygon fill="#80b1d3" stroke="transparent" points="576,-10 576,-30 596,-30 596,-10 576,-10"/>
<text text-anchor="start" x="599.7812" y="-15.4" font-family="sans-serif" font-size="14.00" fill="#000000"> &#160;Bootstrap</text>
<polygon fill="#fdb462" stroke="transparent" points="673,-10 673,-30 693,-30 693,-10 673,-10"/>
<text text-anchor="start" x="696.6732" y="-15.4" font-family="sans-serif" font-size="14.00" fill="#000000"> &#160;Providers</text>
<polygon fill="#fb8072" stroke="transparent" points="769,-10 769,-30 789,-30 789,-10 769,-10"/>
<text text-anchor="start" x="792.7258" y="-15.4" font-family="sans-serif" font-size="14.00" fill="#000000"> &#160;Exports</text>
<g id="clust1" class="cluster">
<title>cluster_ResistancePostWorkoutModule</title>
<polygon fill="none" stroke="#000000" stroke-dasharray="1,5" points="8,-70 8,-195 1214,-195 1214,-70 8,-70"/>
</g>
<g id="clust2" class="cluster">
<title>cluster_ResistancePostWorkoutModule_declarations</title>
<polygon fill="none" stroke="#000000" points="1014,-78 1014,-130 1206,-130 1206,-78 1014,-78"/>
</g>
<g id="clust4" class="cluster">
<title>cluster_ResistancePostWorkoutModule_imports</title>
<polygon fill="none" stroke="#000000" points="272,-78 272,-130 1006,-130 1006,-78 272,-78"/>
</g>
<g id="clust7" class="cluster">
<title>cluster_ResistancePostWorkoutModule_providers</title>
<polygon fill="none" stroke="#000000" points="16,-78 16,-130 264,-130 264,-78 16,-78"/>
</g>
<!-- ResistancePostWorkoutPage -->
<g id="node1" class="node">
<title>ResistancePostWorkoutPage</title>
<polygon fill="#ffffb3" stroke="#000000" points="1198.4608,-122 1021.5392,-122 1021.5392,-86 1198.4608,-86 1198.4608,-122"/>
<text text-anchor="middle" x="1110" y="-99.8" font-family="Times,serif" font-size="14.00" fill="#000000">ResistancePostWorkoutPage</text>
</g>
<!-- ResistancePostWorkoutModule -->
<g id="node2" class="node">
<title>ResistancePostWorkoutModule</title>
<polygon fill="#8dd3c7" stroke="#000000" points="843.799,-187 840.799,-191 819.799,-191 816.799,-187 650.201,-187 650.201,-151 843.799,-151 843.799,-187"/>
<text text-anchor="middle" x="747" y="-164.8" font-family="Times,serif" font-size="14.00" fill="#000000">ResistancePostWorkoutModule</text>
</g>
<!-- ResistancePostWorkoutPage&#45;&gt;ResistancePostWorkoutModule -->
<g id="edge1" class="edge">
<title>ResistancePostWorkoutPage&#45;&gt;ResistancePostWorkoutModule</title>
<path fill="none" stroke="#000000" d="M1110,-122.2843C1110,-143.3211 1110,-175 1110,-175 1110,-175 853.8005,-175 853.8005,-175"/>
<polygon fill="#000000" stroke="#000000" points="853.8005,-171.5001 843.8005,-175 853.8005,-178.5001 853.8005,-171.5001"/>
</g>
<!-- InputTypesModule -->
<g id="node3" class="node">
<title>InputTypesModule</title>
<polygon fill="#8dd3c7" stroke="#000000" points="997.8132,-122 994.8132,-126 973.8132,-126 970.8132,-122 874.1868,-122 874.1868,-86 997.8132,-86 997.8132,-122"/>
<text text-anchor="middle" x="936" y="-99.8" font-family="Times,serif" font-size="14.00" fill="#000000">InputTypesModule</text>
</g>
<!-- InputTypesModule&#45;&gt;ResistancePostWorkoutModule -->
<g id="edge2" class="edge">
<title>InputTypesModule&#45;&gt;ResistancePostWorkoutModule</title>
<path fill="none" stroke="#000000" d="M936,-122.0225C936,-139.3734 936,-163 936,-163 936,-163 853.7147,-163 853.7147,-163"/>
<polygon fill="#000000" stroke="#000000" points="853.7147,-159.5001 843.7147,-163 853.7146,-166.5001 853.7147,-159.5001"/>
</g>
<!-- PostWorkoutOverallSessionModule -->
<g id="node4" class="node">
<title>PostWorkoutOverallSessionModule</title>
<polygon fill="#8dd3c7" stroke="#000000" points="856.1881,-122 853.1881,-126 832.1881,-126 829.1881,-122 637.8119,-122 637.8119,-86 856.1881,-86 856.1881,-122"/>
<text text-anchor="middle" x="747" y="-99.8" font-family="Times,serif" font-size="14.00" fill="#000000">PostWorkoutOverallSessionModule</text>
</g>
<!-- PostWorkoutOverallSessionModule&#45;&gt;ResistancePostWorkoutModule -->
<g id="edge3" class="edge">
<title>PostWorkoutOverallSessionModule&#45;&gt;ResistancePostWorkoutModule</title>
<path fill="none" stroke="#000000" d="M747,-122.1061C747,-122.1061 747,-140.991 747,-140.991"/>
<polygon fill="#000000" stroke="#000000" points="743.5001,-140.9909 747,-150.991 750.5001,-140.991 743.5001,-140.9909"/>
</g>
<!-- ResistancePostWorkoutFeedbackExerciseOptionsModule -->
<g id="node5" class="node">
<title>ResistancePostWorkoutFeedbackExerciseOptionsModule</title>
<polygon fill="#8dd3c7" stroke="#000000" points="619.9647,-122 616.9647,-126 595.9647,-126 592.9647,-122 280.0353,-122 280.0353,-86 619.9647,-86 619.9647,-122"/>
<text text-anchor="middle" x="450" y="-99.8" font-family="Times,serif" font-size="14.00" fill="#000000">ResistancePostWorkoutFeedbackExerciseOptionsModule</text>
</g>
<!-- ResistancePostWorkoutFeedbackExerciseOptionsModule&#45;&gt;ResistancePostWorkoutModule -->
<g id="edge4" class="edge">
<title>ResistancePostWorkoutFeedbackExerciseOptionsModule&#45;&gt;ResistancePostWorkoutModule</title>
<path fill="none" stroke="#000000" d="M450,-122.0225C450,-139.3734 450,-163 450,-163 450,-163 640.1621,-163 640.1621,-163"/>
<polygon fill="#000000" stroke="#000000" points="640.1621,-166.5001 650.1621,-163 640.162,-159.5001 640.1621,-166.5001"/>
</g>
<!-- PostworkoutSurveyService -->
<g id="node6" class="node">
<title>PostworkoutSurveyService</title>
<ellipse fill="#fdb462" stroke="#000000" cx="140" cy="-104" rx="116.3339" ry="18"/>
<text text-anchor="middle" x="140" y="-99.8" font-family="Times,serif" font-size="14.00" fill="#000000">PostworkoutSurveyService</text>
</g>
<!-- PostworkoutSurveyService&#45;&gt;ResistancePostWorkoutModule -->
<g id="edge5" class="edge">
<title>PostworkoutSurveyService&#45;&gt;ResistancePostWorkoutModule</title>
<path fill="none" stroke="#000000" d="M140,-122.2843C140,-143.3211 140,-175 140,-175 140,-175 640.1479,-175 640.1479,-175"/>
<polygon fill="#000000" stroke="#000000" points="640.1479,-178.5001 650.1479,-175 640.1478,-171.5001 640.1479,-178.5001"/>
</g>
</g>
</svg>
