<?xml version="1.0" encoding="UTF-8" standalone="no"?>
<!DOCTYPE svg PUBLIC "-//W3C//DTD SVG 1.1//EN"
 "http://www.w3.org/Graphics/SVG/1.1/DTD/svg11.dtd">
<!-- Generated by graphviz version 2.40.1 (20161225.0304)
 -->
<!-- Title: dependencies Pages: 1 -->
<svg width="504pt" height="284pt"
 viewBox="0.00 0.00 504.00 284.00" xmlns="http://www.w3.org/2000/svg" xmlns:xlink="http://www.w3.org/1999/xlink">
<g id="graph0" class="graph" transform="scale(1 1) rotate(0) translate(4 280)">
<title>dependencies</title>
<polygon fill="#ffffff" stroke="transparent" points="-4,4 -4,-280 500,-280 500,4 -4,4"/>
<text text-anchor="start" x="227.0091" y="-42.4" font-family="sans-serif" font-weight="bold" font-size="14.00" fill="#000000">Legend</text>
<polygon fill="#ffffb3" stroke="transparent" points="14,-10 14,-30 34,-30 34,-10 14,-10"/>
<text text-anchor="start" x="37.629" y="-15.4" font-family="sans-serif" font-size="14.00" fill="#000000"> &#160;Declarations</text>
<polygon fill="#8dd3c7" stroke="transparent" points="127,-10 127,-30 147,-30 147,-10 127,-10"/>
<text text-anchor="start" x="150.7251" y="-15.4" font-family="sans-serif" font-size="14.00" fill="#000000"> &#160;Module</text>
<polygon fill="#80b1d3" stroke="transparent" points="213,-10 213,-30 233,-30 233,-10 213,-10"/>
<text text-anchor="start" x="236.7812" y="-15.4" font-family="sans-serif" font-size="14.00" fill="#000000"> &#160;Bootstrap</text>
<polygon fill="#fdb462" stroke="transparent" points="310,-10 310,-30 330,-30 330,-10 310,-10"/>
<text text-anchor="start" x="333.6732" y="-15.4" font-family="sans-serif" font-size="14.00" fill="#000000"> &#160;Providers</text>
<polygon fill="#fb8072" stroke="transparent" points="406,-10 406,-30 426,-30 426,-10 406,-10"/>
<text text-anchor="start" x="429.7258" y="-15.4" font-family="sans-serif" font-size="14.00" fill="#000000"> &#160;Exports</text>
<g id="clust1" class="cluster">
<title>cluster_UserTypeSelectModule</title>
<polygon fill="none" stroke="#000000" stroke-dasharray="1,5" points="29,-70 29,-268 467,-268 467,-70 29,-70"/>
</g>
<g id="clust2" class="cluster">
<title>cluster_UserTypeSelectModule_declarations</title>
<polygon fill="none" stroke="#000000" points="273,-78 273,-130 459,-130 459,-78 273,-78"/>
</g>
<g id="clust5" class="cluster">
<title>cluster_UserTypeSelectModule_exports</title>
<polygon fill="none" stroke="#000000" points="162,-208 162,-260 352,-260 352,-208 162,-208"/>
</g>
<g id="clust7" class="cluster">
<title>cluster_UserTypeSelectModule_providers</title>
<polygon fill="none" stroke="#000000" points="37,-78 37,-130 265,-130 265,-78 37,-78"/>
</g>
<!-- UserTypeSelectComponent -->
<g id="node1" class="node">
<title>UserTypeSelectComponent</title>
<polygon fill="#ffffb3" stroke="#000000" points="451.2338,-122 280.7662,-122 280.7662,-86 451.2338,-86 451.2338,-122"/>
<text text-anchor="middle" x="366" y="-99.8" font-family="Times,serif" font-size="14.00" fill="#000000">UserTypeSelectComponent</text>
</g>
<!-- UserTypeSelectModule -->
<g id="node2" class="node">
<title>UserTypeSelectModule</title>
<polygon fill="#8dd3c7" stroke="#000000" points="331.451,-187 328.451,-191 307.451,-191 304.451,-187 182.549,-187 182.549,-151 331.451,-151 331.451,-187"/>
<text text-anchor="middle" x="257" y="-164.8" font-family="Times,serif" font-size="14.00" fill="#000000">UserTypeSelectModule</text>
</g>
<!-- UserTypeSelectComponent&#45;&gt;UserTypeSelectModule -->
<g id="edge1" class="edge">
<title>UserTypeSelectComponent&#45;&gt;UserTypeSelectModule</title>
<path fill="none" stroke="#000000" d="M306.0544,-122.1061C306.0544,-122.1061 306.0544,-140.991 306.0544,-140.991"/>
<polygon fill="#000000" stroke="#000000" points="302.5544,-140.9909 306.0544,-150.991 309.5544,-140.991 302.5544,-140.9909"/>
</g>
<!-- UserTypeSelectComponent  -->
<g id="node3" class="node">
<title>UserTypeSelectComponent </title>
<polygon fill="#fb8072" stroke="#000000" points="344.2338,-252 169.7662,-252 169.7662,-216 344.2338,-216 344.2338,-252"/>
<text text-anchor="middle" x="257" y="-229.8" font-family="Times,serif" font-size="14.00" fill="#000000">UserTypeSelectComponent </text>
</g>
<!-- UserTypeSelectModule&#45;&gt;UserTypeSelectComponent  -->
<g id="edge2" class="edge">
<title>UserTypeSelectModule&#45;&gt;UserTypeSelectComponent </title>
<path fill="none" stroke="#000000" stroke-dasharray="5,2" d="M257,-187.1061C257,-187.1061 257,-205.991 257,-205.991"/>
<polygon fill="#000000" stroke="#000000" points="253.5001,-205.9909 257,-215.991 260.5001,-205.991 253.5001,-205.9909"/>
</g>
<!-- UserTypeSelectProvider -->
<g id="node4" class="node">
<title>UserTypeSelectProvider</title>
<ellipse fill="#fdb462" stroke="#000000" cx="151" cy="-104" rx="105.915" ry="18"/>
<text text-anchor="middle" x="151" y="-99.8" font-family="Times,serif" font-size="14.00" fill="#000000">UserTypeSelectProvider</text>
</g>
<!-- UserTypeSelectProvider&#45;&gt;UserTypeSelectModule -->
<g id="edge3" class="edge">
<title>UserTypeSelectProvider&#45;&gt;UserTypeSelectModule</title>
<path fill="none" stroke="#000000" d="M219.741,-117.7848C219.741,-117.7848 219.741,-140.5475 219.741,-140.5475"/>
<polygon fill="#000000" stroke="#000000" points="216.2411,-140.5474 219.741,-150.5475 223.2411,-140.5475 216.2411,-140.5474"/>
</g>
</g>
</svg>
