<?xml version="1.0" encoding="UTF-8" standalone="no"?>
<!DOCTYPE svg PUBLIC "-//W3C//DTD SVG 1.1//EN"
 "http://www.w3.org/Graphics/SVG/1.1/DTD/svg11.dtd">
<!-- Generated by graphviz version 2.40.1 (20161225.0304)
 -->
<!-- Title: dependencies Pages: 1 -->
<svg width="504pt" height="211pt"
 viewBox="0.00 0.00 504.00 211.00" xmlns="http://www.w3.org/2000/svg" xmlns:xlink="http://www.w3.org/1999/xlink">
<g id="graph0" class="graph" transform="scale(1 1) rotate(0) translate(4 207)">
<title>dependencies</title>
<polygon fill="#ffffff" stroke="transparent" points="-4,4 -4,-207 500,-207 500,4 -4,4"/>
<text text-anchor="start" x="227.0091" y="-42.4" font-family="sans-serif" font-weight="bold" font-size="14.00" fill="#000000">Legend</text>
<polygon fill="#ffffb3" stroke="transparent" points="14,-10 14,-30 34,-30 34,-10 14,-10"/>
<text text-anchor="start" x="37.629" y="-15.4" font-family="sans-serif" font-size="14.00" fill="#000000"> &#160;Declarations</text>
<polygon fill="#8dd3c7" stroke="transparent" points="127,-10 127,-30 147,-30 147,-10 127,-10"/>
<text text-anchor="start" x="150.7251" y="-15.4" font-family="sans-serif" font-size="14.00" fill="#000000"> &#160;Module</text>
<polygon fill="#80b1d3" stroke="transparent" points="213,-10 213,-30 233,-30 233,-10 213,-10"/>
<text text-anchor="start" x="236.7812" y="-15.4" font-family="sans-serif" font-size="14.00" fill="#000000"> &#160;Bootstrap</text>
<polygon fill="#fdb462" stroke="transparent" points="310,-10 310,-30 330,-30 330,-10 310,-10"/>
<text text-anchor="start" x="333.6732" y="-15.4" font-family="sans-serif" font-size="14.00" fill="#000000"> &#160;Providers</text>
<polygon fill="#fb8072" stroke="transparent" points="406,-10 406,-30 426,-30 426,-10 406,-10"/>
<text text-anchor="start" x="429.7258" y="-15.4" font-family="sans-serif" font-size="14.00" fill="#000000"> &#160;Exports</text>
<g id="clust1" class="cluster">
<title>cluster_ReportedPostManagementPageModule</title>
<polygon fill="none" stroke="#000000" stroke-dasharray="1,5" points="20,-70 20,-195 476,-195 476,-70 20,-70"/>
</g>
<g id="clust2" class="cluster">
<title>cluster_ReportedPostManagementPageModule_declarations</title>
<polygon fill="none" stroke="#000000" points="260,-78 260,-130 468,-130 468,-78 260,-78"/>
</g>
<g id="clust4" class="cluster">
<title>cluster_ReportedPostManagementPageModule_imports</title>
<polygon fill="none" stroke="#000000" points="28,-78 28,-130 252,-130 252,-78 28,-78"/>
</g>
<!-- ReportedPostManagementPage -->
<g id="node1" class="node">
<title>ReportedPostManagementPage</title>
<polygon fill="#ffffb3" stroke="#000000" points="459.731,-122 268.269,-122 268.269,-86 459.731,-86 459.731,-122"/>
<text text-anchor="middle" x="364" y="-99.8" font-family="Times,serif" font-size="14.00" fill="#000000">ReportedPostManagementPage</text>
</g>
<!-- ReportedPostManagementPageModule -->
<g id="node2" class="node">
<title>ReportedPostManagementPageModule</title>
<polygon fill="#8dd3c7" stroke="#000000" points="365.7808,-187 362.7808,-191 341.7808,-191 338.7808,-187 130.2192,-187 130.2192,-151 365.7808,-151 365.7808,-187"/>
<text text-anchor="middle" x="248" y="-164.8" font-family="Times,serif" font-size="14.00" fill="#000000">ReportedPostManagementPageModule</text>
</g>
<!-- ReportedPostManagementPage&#45;&gt;ReportedPostManagementPageModule -->
<g id="edge1" class="edge">
<title>ReportedPostManagementPage&#45;&gt;ReportedPostManagementPageModule</title>
<path fill="none" stroke="#000000" d="M316.8875,-122.1061C316.8875,-122.1061 316.8875,-140.991 316.8875,-140.991"/>
<polygon fill="#000000" stroke="#000000" points="313.3875,-140.9909 316.8875,-150.991 320.3875,-140.991 313.3875,-140.9909"/>
</g>
<!-- ReportedPostManagementModule -->
<g id="node3" class="node">
<title>ReportedPostManagementModule</title>
<polygon fill="#8dd3c7" stroke="#000000" points="244.0688,-122 241.0688,-126 220.0688,-126 217.0688,-122 35.9312,-122 35.9312,-86 244.0688,-86 244.0688,-122"/>
<text text-anchor="middle" x="140" y="-99.8" font-family="Times,serif" font-size="14.00" fill="#000000">ReportedPostManagementModule</text>
</g>
<!-- ReportedPostManagementModule&#45;&gt;ReportedPostManagementPageModule -->
<g id="edge2" class="edge">
<title>ReportedPostManagementModule&#45;&gt;ReportedPostManagementPageModule</title>
<path fill="none" stroke="#000000" d="M187.1971,-122.1061C187.1971,-122.1061 187.1971,-140.991 187.1971,-140.991"/>
<polygon fill="#000000" stroke="#000000" points="183.6971,-140.9909 187.1971,-150.991 190.6971,-140.991 183.6971,-140.9909"/>
</g>
</g>
</svg>
