<?xml version="1.0" encoding="UTF-8" standalone="no"?>
<!DOCTYPE svg PUBLIC "-//W3C//DTD SVG 1.1//EN"
 "http://www.w3.org/Graphics/SVG/1.1/DTD/svg11.dtd">
<!-- Generated by graphviz version 2.40.1 (20161225.0304)
 -->
<!-- Title: dependencies Pages: 1 -->
<svg width="504pt" height="284pt"
 viewBox="0.00 0.00 504.00 284.00" xmlns="http://www.w3.org/2000/svg" xmlns:xlink="http://www.w3.org/1999/xlink">
<g id="graph0" class="graph" transform="scale(1 1) rotate(0) translate(4 280)">
<title>dependencies</title>
<polygon fill="#ffffff" stroke="transparent" points="-4,4 -4,-280 500,-280 500,4 -4,4"/>
<text text-anchor="start" x="227.0091" y="-42.4" font-family="sans-serif" font-weight="bold" font-size="14.00" fill="#000000">Legend</text>
<polygon fill="#ffffb3" stroke="transparent" points="14,-10 14,-30 34,-30 34,-10 14,-10"/>
<text text-anchor="start" x="37.629" y="-15.4" font-family="sans-serif" font-size="14.00" fill="#000000"> &#160;Declarations</text>
<polygon fill="#8dd3c7" stroke="transparent" points="127,-10 127,-30 147,-30 147,-10 127,-10"/>
<text text-anchor="start" x="150.7251" y="-15.4" font-family="sans-serif" font-size="14.00" fill="#000000"> &#160;Module</text>
<polygon fill="#80b1d3" stroke="transparent" points="213,-10 213,-30 233,-30 233,-10 213,-10"/>
<text text-anchor="start" x="236.7812" y="-15.4" font-family="sans-serif" font-size="14.00" fill="#000000"> &#160;Bootstrap</text>
<polygon fill="#fdb462" stroke="transparent" points="310,-10 310,-30 330,-30 330,-10 310,-10"/>
<text text-anchor="start" x="333.6732" y="-15.4" font-family="sans-serif" font-size="14.00" fill="#000000"> &#160;Providers</text>
<polygon fill="#fb8072" stroke="transparent" points="406,-10 406,-30 426,-30 426,-10 406,-10"/>
<text text-anchor="start" x="429.7258" y="-15.4" font-family="sans-serif" font-size="14.00" fill="#000000"> &#160;Exports</text>
<g id="clust1" class="cluster">
<title>cluster_CommonMessageListModule</title>
<polygon fill="none" stroke="#000000" stroke-dasharray="1,5" points="61,-70 61,-268 435,-268 435,-70 61,-70"/>
</g>
<g id="clust2" class="cluster">
<title>cluster_CommonMessageListModule_declarations</title>
<polygon fill="none" stroke="#000000" points="207,-78 207,-130 427,-130 427,-78 207,-78"/>
</g>
<g id="clust4" class="cluster">
<title>cluster_CommonMessageListModule_imports</title>
<polygon fill="none" stroke="#000000" points="69,-78 69,-130 199,-130 199,-78 69,-78"/>
</g>
<g id="clust5" class="cluster">
<title>cluster_CommonMessageListModule_exports</title>
<polygon fill="none" stroke="#000000" points="136,-208 136,-260 360,-260 360,-208 136,-208"/>
</g>
<!-- CommonMessageListComponent -->
<g id="node1" class="node">
<title>CommonMessageListComponent</title>
<polygon fill="#ffffb3" stroke="#000000" points="419.2063,-122 214.7937,-122 214.7937,-86 419.2063,-86 419.2063,-122"/>
<text text-anchor="middle" x="317" y="-99.8" font-family="Times,serif" font-size="14.00" fill="#000000">CommonMessageListComponent</text>
</g>
<!-- CommonMessageListModule -->
<g id="node2" class="node">
<title>CommonMessageListModule</title>
<polygon fill="#8dd3c7" stroke="#000000" points="339.4241,-187 336.4241,-191 315.4241,-191 312.4241,-187 156.5759,-187 156.5759,-151 339.4241,-151 339.4241,-187"/>
<text text-anchor="middle" x="248" y="-164.8" font-family="Times,serif" font-size="14.00" fill="#000000">CommonMessageListModule</text>
</g>
<!-- CommonMessageListComponent&#45;&gt;CommonMessageListModule -->
<g id="edge1" class="edge">
<title>CommonMessageListComponent&#45;&gt;CommonMessageListModule</title>
<path fill="none" stroke="#000000" d="M277.0544,-122.1061C277.0544,-122.1061 277.0544,-140.991 277.0544,-140.991"/>
<polygon fill="#000000" stroke="#000000" points="273.5544,-140.9909 277.0544,-150.991 280.5544,-140.991 273.5544,-140.9909"/>
</g>
<!-- CommonMessageListComponent  -->
<g id="node4" class="node">
<title>CommonMessageListComponent </title>
<polygon fill="#fb8072" stroke="#000000" points="351.7064,-252 144.2936,-252 144.2936,-216 351.7064,-216 351.7064,-252"/>
<text text-anchor="middle" x="248" y="-229.8" font-family="Times,serif" font-size="14.00" fill="#000000">CommonMessageListComponent </text>
</g>
<!-- CommonMessageListModule&#45;&gt;CommonMessageListComponent  -->
<g id="edge3" class="edge">
<title>CommonMessageListModule&#45;&gt;CommonMessageListComponent </title>
<path fill="none" stroke="#000000" stroke-dasharray="5,2" d="M248,-187.1061C248,-187.1061 248,-205.991 248,-205.991"/>
<polygon fill="#000000" stroke="#000000" points="244.5001,-205.9909 248,-215.991 251.5001,-205.991 244.5001,-205.9909"/>
</g>
<!-- SafeHtmlModule -->
<g id="node3" class="node">
<title>SafeHtmlModule</title>
<polygon fill="#8dd3c7" stroke="#000000" points="190.7008,-122 187.7008,-126 166.7008,-126 163.7008,-122 77.2992,-122 77.2992,-86 190.7008,-86 190.7008,-122"/>
<text text-anchor="middle" x="134" y="-99.8" font-family="Times,serif" font-size="14.00" fill="#000000">SafeHtmlModule</text>
</g>
<!-- SafeHtmlModule&#45;&gt;CommonMessageListModule -->
<g id="edge2" class="edge">
<title>SafeHtmlModule&#45;&gt;CommonMessageListModule</title>
<path fill="none" stroke="#000000" d="M173.6943,-122.1061C173.6943,-122.1061 173.6943,-140.991 173.6943,-140.991"/>
<polygon fill="#000000" stroke="#000000" points="170.1943,-140.9909 173.6943,-150.991 177.1943,-140.991 170.1943,-140.9909"/>
</g>
</g>
</svg>
