<?xml version="1.0" encoding="UTF-8" standalone="no"?>
<!DOCTYPE svg PUBLIC "-//W3C//DTD SVG 1.1//EN"
 "http://www.w3.org/Graphics/SVG/1.1/DTD/svg11.dtd">
<!-- Generated by graphviz version 2.40.1 (20161225.0304)
 -->
<!-- Title: dependencies Pages: 1 -->
<svg width="903pt" height="284pt"
 viewBox="0.00 0.00 903.00 284.00" xmlns="http://www.w3.org/2000/svg" xmlns:xlink="http://www.w3.org/1999/xlink">
<g id="graph0" class="graph" transform="scale(1 1) rotate(0) translate(4 280)">
<title>dependencies</title>
<polygon fill="#ffffff" stroke="transparent" points="-4,4 -4,-280 899,-280 899,4 -4,4"/>
<text text-anchor="start" x="426.5091" y="-42.4" font-family="sans-serif" font-weight="bold" font-size="14.00" fill="#000000">Legend</text>
<polygon fill="#ffffb3" stroke="transparent" points="213.5,-10 213.5,-30 233.5,-30 233.5,-10 213.5,-10"/>
<text text-anchor="start" x="237.129" y="-15.4" font-family="sans-serif" font-size="14.00" fill="#000000"> &#160;Declarations</text>
<polygon fill="#8dd3c7" stroke="transparent" points="326.5,-10 326.5,-30 346.5,-30 346.5,-10 326.5,-10"/>
<text text-anchor="start" x="350.2251" y="-15.4" font-family="sans-serif" font-size="14.00" fill="#000000"> &#160;Module</text>
<polygon fill="#80b1d3" stroke="transparent" points="412.5,-10 412.5,-30 432.5,-30 432.5,-10 412.5,-10"/>
<text text-anchor="start" x="436.2812" y="-15.4" font-family="sans-serif" font-size="14.00" fill="#000000"> &#160;Bootstrap</text>
<polygon fill="#fdb462" stroke="transparent" points="509.5,-10 509.5,-30 529.5,-30 529.5,-10 509.5,-10"/>
<text text-anchor="start" x="533.1732" y="-15.4" font-family="sans-serif" font-size="14.00" fill="#000000"> &#160;Providers</text>
<polygon fill="#fb8072" stroke="transparent" points="605.5,-10 605.5,-30 625.5,-30 625.5,-10 605.5,-10"/>
<text text-anchor="start" x="629.2258" y="-15.4" font-family="sans-serif" font-size="14.00" fill="#000000"> &#160;Exports</text>
<g id="clust1" class="cluster">
<title>cluster_ProfileEditModule</title>
<polygon fill="none" stroke="#000000" stroke-dasharray="1,5" points="8,-70 8,-268 887,-268 887,-70 8,-70"/>
</g>
<g id="clust2" class="cluster">
<title>cluster_ProfileEditModule_declarations</title>
<polygon fill="none" stroke="#000000" points="721,-78 721,-130 879,-130 879,-78 721,-78"/>
</g>
<g id="clust4" class="cluster">
<title>cluster_ProfileEditModule_imports</title>
<polygon fill="none" stroke="#000000" points="16,-78 16,-130 713,-130 713,-78 16,-78"/>
</g>
<g id="clust5" class="cluster">
<title>cluster_ProfileEditModule_exports</title>
<polygon fill="none" stroke="#000000" points="338,-208 338,-260 500,-260 500,-208 338,-208"/>
</g>
<!-- ProfileEditComponent -->
<g id="node1" class="node">
<title>ProfileEditComponent</title>
<polygon fill="#ffffb3" stroke="#000000" points="871.266,-122 728.734,-122 728.734,-86 871.266,-86 871.266,-122"/>
<text text-anchor="middle" x="800" y="-99.8" font-family="Times,serif" font-size="14.00" fill="#000000">ProfileEditComponent</text>
</g>
<!-- ProfileEditModule -->
<g id="node2" class="node">
<title>ProfileEditModule</title>
<polygon fill="#8dd3c7" stroke="#000000" points="479.4832,-187 476.4832,-191 455.4832,-191 452.4832,-187 358.5168,-187 358.5168,-151 479.4832,-151 479.4832,-187"/>
<text text-anchor="middle" x="419" y="-164.8" font-family="Times,serif" font-size="14.00" fill="#000000">ProfileEditModule</text>
</g>
<!-- ProfileEditComponent&#45;&gt;ProfileEditModule -->
<g id="edge1" class="edge">
<title>ProfileEditComponent&#45;&gt;ProfileEditModule</title>
<path fill="none" stroke="#000000" d="M800,-122.2843C800,-143.3211 800,-175 800,-175 800,-175 489.7919,-175 489.7919,-175"/>
<polygon fill="#000000" stroke="#000000" points="489.7919,-171.5001 479.7919,-175 489.7918,-178.5001 489.7919,-171.5001"/>
</g>
<!-- ProfileEditComponent  -->
<g id="node7" class="node">
<title>ProfileEditComponent </title>
<polygon fill="#fb8072" stroke="#000000" points="492.266,-252 345.734,-252 345.734,-216 492.266,-216 492.266,-252"/>
<text text-anchor="middle" x="419" y="-229.8" font-family="Times,serif" font-size="14.00" fill="#000000">ProfileEditComponent </text>
</g>
<!-- ProfileEditModule&#45;&gt;ProfileEditComponent  -->
<g id="edge6" class="edge">
<title>ProfileEditModule&#45;&gt;ProfileEditComponent </title>
<path fill="none" stroke="#000000" stroke-dasharray="5,2" d="M419,-187.1061C419,-187.1061 419,-205.991 419,-205.991"/>
<polygon fill="#000000" stroke="#000000" points="415.5001,-205.9909 419,-215.991 422.5001,-205.991 415.5001,-205.9909"/>
</g>
<!-- PasswordValidationModule -->
<g id="node3" class="node">
<title>PasswordValidationModule</title>
<polygon fill="#8dd3c7" stroke="#000000" points="705.3019,-122 702.3019,-126 681.3019,-126 678.3019,-122 532.6981,-122 532.6981,-86 705.3019,-86 705.3019,-122"/>
<text text-anchor="middle" x="619" y="-99.8" font-family="Times,serif" font-size="14.00" fill="#000000">PasswordValidationModule</text>
</g>
<!-- PasswordValidationModule&#45;&gt;ProfileEditModule -->
<g id="edge2" class="edge">
<title>PasswordValidationModule&#45;&gt;ProfileEditModule</title>
<path fill="none" stroke="#000000" d="M619,-122.0225C619,-139.3734 619,-163 619,-163 619,-163 489.5493,-163 489.5493,-163"/>
<polygon fill="#000000" stroke="#000000" points="489.5494,-159.5001 479.5493,-163 489.5493,-166.5001 489.5494,-159.5001"/>
</g>
<!-- SecurityQuestionSelectModule -->
<g id="node4" class="node">
<title>SecurityQuestionSelectModule</title>
<polygon fill="#8dd3c7" stroke="#000000" points="514.458,-122 511.458,-126 490.458,-126 487.458,-122 323.542,-122 323.542,-86 514.458,-86 514.458,-122"/>
<text text-anchor="middle" x="419" y="-99.8" font-family="Times,serif" font-size="14.00" fill="#000000">SecurityQuestionSelectModule</text>
</g>
<!-- SecurityQuestionSelectModule&#45;&gt;ProfileEditModule -->
<g id="edge3" class="edge">
<title>SecurityQuestionSelectModule&#45;&gt;ProfileEditModule</title>
<path fill="none" stroke="#000000" d="M419,-122.1061C419,-122.1061 419,-140.991 419,-140.991"/>
<polygon fill="#000000" stroke="#000000" points="415.5001,-140.9909 419,-150.991 422.5001,-140.991 415.5001,-140.9909"/>
</g>
<!-- TagSelectModule -->
<g id="node5" class="node">
<title>TagSelectModule</title>
<polygon fill="#8dd3c7" stroke="#000000" points="305.5256,-122 302.5256,-126 281.5256,-126 278.5256,-122 190.4744,-122 190.4744,-86 305.5256,-86 305.5256,-122"/>
<text text-anchor="middle" x="248" y="-99.8" font-family="Times,serif" font-size="14.00" fill="#000000">TagSelectModule</text>
</g>
<!-- TagSelectModule&#45;&gt;ProfileEditModule -->
<g id="edge4" class="edge">
<title>TagSelectModule&#45;&gt;ProfileEditModule</title>
<path fill="none" stroke="#000000" d="M248,-122.0225C248,-139.3734 248,-163 248,-163 248,-163 348.2303,-163 348.2303,-163"/>
<polygon fill="#000000" stroke="#000000" points="348.2304,-166.5001 358.2303,-163 348.2303,-159.5001 348.2304,-166.5001"/>
</g>
<!-- UserTypeSelectModule -->
<g id="node6" class="node">
<title>UserTypeSelectModule</title>
<polygon fill="#8dd3c7" stroke="#000000" points="172.451,-122 169.451,-126 148.451,-126 145.451,-122 23.549,-122 23.549,-86 172.451,-86 172.451,-122"/>
<text text-anchor="middle" x="98" y="-99.8" font-family="Times,serif" font-size="14.00" fill="#000000">UserTypeSelectModule</text>
</g>
<!-- UserTypeSelectModule&#45;&gt;ProfileEditModule -->
<g id="edge5" class="edge">
<title>UserTypeSelectModule&#45;&gt;ProfileEditModule</title>
<path fill="none" stroke="#000000" d="M98,-122.2843C98,-143.3211 98,-175 98,-175 98,-175 348.245,-175 348.245,-175"/>
<polygon fill="#000000" stroke="#000000" points="348.245,-178.5001 358.245,-175 348.2449,-171.5001 348.245,-178.5001"/>
</g>
</g>
</svg>
