<?xml version="1.0" encoding="UTF-8" standalone="no"?>
<!DOCTYPE svg PUBLIC "-//W3C//DTD SVG 1.1//EN"
 "http://www.w3.org/Graphics/SVG/1.1/DTD/svg11.dtd">
<!-- Generated by graphviz version 2.40.1 (20161225.0304)
 -->
<!-- Title: dependencies Pages: 1 -->
<svg width="642pt" height="211pt"
 viewBox="0.00 0.00 642.00 211.00" xmlns="http://www.w3.org/2000/svg" xmlns:xlink="http://www.w3.org/1999/xlink">
<g id="graph0" class="graph" transform="scale(1 1) rotate(0) translate(4 207)">
<title>dependencies</title>
<polygon fill="#ffffff" stroke="transparent" points="-4,4 -4,-207 638,-207 638,4 -4,4"/>
<text text-anchor="start" x="296.0091" y="-42.4" font-family="sans-serif" font-weight="bold" font-size="14.00" fill="#000000">Legend</text>
<polygon fill="#ffffb3" stroke="transparent" points="83,-10 83,-30 103,-30 103,-10 83,-10"/>
<text text-anchor="start" x="106.629" y="-15.4" font-family="sans-serif" font-size="14.00" fill="#000000"> &#160;Declarations</text>
<polygon fill="#8dd3c7" stroke="transparent" points="196,-10 196,-30 216,-30 216,-10 196,-10"/>
<text text-anchor="start" x="219.7251" y="-15.4" font-family="sans-serif" font-size="14.00" fill="#000000"> &#160;Module</text>
<polygon fill="#80b1d3" stroke="transparent" points="282,-10 282,-30 302,-30 302,-10 282,-10"/>
<text text-anchor="start" x="305.7812" y="-15.4" font-family="sans-serif" font-size="14.00" fill="#000000"> &#160;Bootstrap</text>
<polygon fill="#fdb462" stroke="transparent" points="379,-10 379,-30 399,-30 399,-10 379,-10"/>
<text text-anchor="start" x="402.6732" y="-15.4" font-family="sans-serif" font-size="14.00" fill="#000000"> &#160;Providers</text>
<polygon fill="#fb8072" stroke="transparent" points="475,-10 475,-30 495,-30 495,-10 475,-10"/>
<text text-anchor="start" x="498.7258" y="-15.4" font-family="sans-serif" font-size="14.00" fill="#000000"> &#160;Exports</text>
<g id="clust1" class="cluster">
<title>cluster_ArticleUserTypeManagementModule</title>
<polygon fill="none" stroke="#000000" stroke-dasharray="1,5" points="8,-70 8,-195 626,-195 626,-70 8,-70"/>
</g>
<g id="clust2" class="cluster">
<title>cluster_ArticleUserTypeManagementModule_declarations</title>
<polygon fill="none" stroke="#000000" points="392,-78 392,-130 618,-130 618,-78 392,-78"/>
</g>
<g id="clust4" class="cluster">
<title>cluster_ArticleUserTypeManagementModule_imports</title>
<polygon fill="none" stroke="#000000" points="250,-78 250,-130 384,-130 384,-78 250,-78"/>
</g>
<g id="clust7" class="cluster">
<title>cluster_ArticleUserTypeManagementModule_providers</title>
<polygon fill="none" stroke="#000000" points="16,-78 16,-130 242,-130 242,-78 16,-78"/>
</g>
<!-- ArticleUserTypeManagementPage -->
<g id="node1" class="node">
<title>ArticleUserTypeManagementPage</title>
<polygon fill="#ffffb3" stroke="#000000" points="610.3581,-122 399.6419,-122 399.6419,-86 610.3581,-86 610.3581,-122"/>
<text text-anchor="middle" x="505" y="-99.8" font-family="Times,serif" font-size="14.00" fill="#000000">ArticleUserTypeManagementPage</text>
</g>
<!-- ArticleUserTypeManagementModule -->
<g id="node2" class="node">
<title>ArticleUserTypeManagementModule</title>
<polygon fill="#8dd3c7" stroke="#000000" points="430.196,-187 427.196,-191 406.196,-191 403.196,-187 203.804,-187 203.804,-151 430.196,-151 430.196,-187"/>
<text text-anchor="middle" x="317" y="-164.8" font-family="Times,serif" font-size="14.00" fill="#000000">ArticleUserTypeManagementModule</text>
</g>
<!-- ArticleUserTypeManagementPage&#45;&gt;ArticleUserTypeManagementModule -->
<g id="edge1" class="edge">
<title>ArticleUserTypeManagementPage&#45;&gt;ArticleUserTypeManagementModule</title>
<path fill="none" stroke="#000000" d="M415.0845,-122.1061C415.0845,-122.1061 415.0845,-140.991 415.0845,-140.991"/>
<polygon fill="#000000" stroke="#000000" points="411.5846,-140.9909 415.0845,-150.991 418.5846,-140.991 411.5846,-140.9909"/>
</g>
<!-- DataTableModule -->
<g id="node3" class="node">
<title>DataTableModule</title>
<polygon fill="#8dd3c7" stroke="#000000" points="375.8487,-122 372.8487,-126 351.8487,-126 348.8487,-122 258.1513,-122 258.1513,-86 375.8487,-86 375.8487,-122"/>
<text text-anchor="middle" x="317" y="-99.8" font-family="Times,serif" font-size="14.00" fill="#000000">DataTableModule</text>
</g>
<!-- DataTableModule&#45;&gt;ArticleUserTypeManagementModule -->
<g id="edge2" class="edge">
<title>DataTableModule&#45;&gt;ArticleUserTypeManagementModule</title>
<path fill="none" stroke="#000000" d="M317,-122.1061C317,-122.1061 317,-140.991 317,-140.991"/>
<polygon fill="#000000" stroke="#000000" points="313.5001,-140.9909 317,-150.991 320.5001,-140.991 313.5001,-140.9909"/>
</g>
<!-- ArticleUserTypeService -->
<g id="node4" class="node">
<title>ArticleUserTypeService</title>
<ellipse fill="#fdb462" stroke="#000000" cx="129" cy="-104" rx="104.7482" ry="18"/>
<text text-anchor="middle" x="129" y="-99.8" font-family="Times,serif" font-size="14.00" fill="#000000">ArticleUserTypeService</text>
</g>
<!-- ArticleUserTypeService&#45;&gt;ArticleUserTypeManagementModule -->
<g id="edge3" class="edge">
<title>ArticleUserTypeService&#45;&gt;ArticleUserTypeManagementModule</title>
<path fill="none" stroke="#000000" d="M218.7631,-113.3129C218.7631,-113.3129 218.7631,-140.852 218.7631,-140.852"/>
<polygon fill="#000000" stroke="#000000" points="215.2632,-140.852 218.7631,-150.852 222.2632,-140.8521 215.2632,-140.852"/>
</g>
</g>
</svg>
