<?xml version="1.0" encoding="UTF-8" standalone="no"?>
<!DOCTYPE svg PUBLIC "-//W3C//DTD SVG 1.1//EN"
 "http://www.w3.org/Graphics/SVG/1.1/DTD/svg11.dtd">
<!-- Generated by graphviz version 2.40.1 (20161225.0304)
 -->
<!-- Title: dependencies Pages: 1 -->
<svg width="504pt" height="284pt"
 viewBox="0.00 0.00 504.00 284.00" xmlns="http://www.w3.org/2000/svg" xmlns:xlink="http://www.w3.org/1999/xlink">
<g id="graph0" class="graph" transform="scale(1 1) rotate(0) translate(4 280)">
<title>dependencies</title>
<polygon fill="#ffffff" stroke="transparent" points="-4,4 -4,-280 500,-280 500,4 -4,4"/>
<text text-anchor="start" x="227.0091" y="-42.4" font-family="sans-serif" font-weight="bold" font-size="14.00" fill="#000000">Legend</text>
<polygon fill="#ffffb3" stroke="transparent" points="14,-10 14,-30 34,-30 34,-10 14,-10"/>
<text text-anchor="start" x="37.629" y="-15.4" font-family="sans-serif" font-size="14.00" fill="#000000"> &#160;Declarations</text>
<polygon fill="#8dd3c7" stroke="transparent" points="127,-10 127,-30 147,-30 147,-10 127,-10"/>
<text text-anchor="start" x="150.7251" y="-15.4" font-family="sans-serif" font-size="14.00" fill="#000000"> &#160;Module</text>
<polygon fill="#80b1d3" stroke="transparent" points="213,-10 213,-30 233,-30 233,-10 213,-10"/>
<text text-anchor="start" x="236.7812" y="-15.4" font-family="sans-serif" font-size="14.00" fill="#000000"> &#160;Bootstrap</text>
<polygon fill="#fdb462" stroke="transparent" points="310,-10 310,-30 330,-30 330,-10 310,-10"/>
<text text-anchor="start" x="333.6732" y="-15.4" font-family="sans-serif" font-size="14.00" fill="#000000"> &#160;Providers</text>
<polygon fill="#fb8072" stroke="transparent" points="406,-10 406,-30 426,-30 426,-10 406,-10"/>
<text text-anchor="start" x="429.7258" y="-15.4" font-family="sans-serif" font-size="14.00" fill="#000000"> &#160;Exports</text>
<g id="clust1" class="cluster">
<title>cluster_VideoListModule</title>
<polygon fill="none" stroke="#000000" stroke-dasharray="1,5" points="94,-70 94,-268 402,-268 402,-70 94,-70"/>
</g>
<g id="clust2" class="cluster">
<title>cluster_VideoListModule_declarations</title>
<polygon fill="none" stroke="#000000" points="240,-78 240,-130 394,-130 394,-78 240,-78"/>
</g>
<g id="clust4" class="cluster">
<title>cluster_VideoListModule_imports</title>
<polygon fill="none" stroke="#000000" points="102,-78 102,-130 232,-130 232,-78 102,-78"/>
</g>
<g id="clust5" class="cluster">
<title>cluster_VideoListModule_exports</title>
<polygon fill="none" stroke="#000000" points="170,-208 170,-260 326,-260 326,-208 170,-208"/>
</g>
<!-- VideoListComponent -->
<g id="node1" class="node">
<title>VideoListComponent</title>
<polygon fill="#ffffb3" stroke="#000000" points="385.823,-122 248.177,-122 248.177,-86 385.823,-86 385.823,-122"/>
<text text-anchor="middle" x="317" y="-99.8" font-family="Times,serif" font-size="14.00" fill="#000000">VideoListComponent</text>
</g>
<!-- VideoListModule -->
<g id="node2" class="node">
<title>VideoListModule</title>
<polygon fill="#8dd3c7" stroke="#000000" points="305.5409,-187 302.5409,-191 281.5409,-191 278.5409,-187 190.4591,-187 190.4591,-151 305.5409,-151 305.5409,-187"/>
<text text-anchor="middle" x="248" y="-164.8" font-family="Times,serif" font-size="14.00" fill="#000000">VideoListModule</text>
</g>
<!-- VideoListComponent&#45;&gt;VideoListModule -->
<g id="edge1" class="edge">
<title>VideoListComponent&#45;&gt;VideoListModule</title>
<path fill="none" stroke="#000000" d="M277.0544,-122.1061C277.0544,-122.1061 277.0544,-140.991 277.0544,-140.991"/>
<polygon fill="#000000" stroke="#000000" points="273.5544,-140.9909 277.0544,-150.991 280.5544,-140.991 273.5544,-140.9909"/>
</g>
<!-- VideoListComponent  -->
<g id="node4" class="node">
<title>VideoListComponent </title>
<polygon fill="#fb8072" stroke="#000000" points="318.3227,-252 177.6773,-252 177.6773,-216 318.3227,-216 318.3227,-252"/>
<text text-anchor="middle" x="248" y="-229.8" font-family="Times,serif" font-size="14.00" fill="#000000">VideoListComponent </text>
</g>
<!-- VideoListModule&#45;&gt;VideoListComponent  -->
<g id="edge3" class="edge">
<title>VideoListModule&#45;&gt;VideoListComponent </title>
<path fill="none" stroke="#000000" stroke-dasharray="5,2" d="M248,-187.1061C248,-187.1061 248,-205.991 248,-205.991"/>
<polygon fill="#000000" stroke="#000000" points="244.5001,-205.9909 248,-215.991 251.5001,-205.991 244.5001,-205.9909"/>
</g>
<!-- BlockListModule -->
<g id="node3" class="node">
<title>BlockListModule</title>
<polygon fill="#8dd3c7" stroke="#000000" points="224.2702,-122 221.2702,-126 200.2702,-126 197.2702,-122 109.7298,-122 109.7298,-86 224.2702,-86 224.2702,-122"/>
<text text-anchor="middle" x="167" y="-99.8" font-family="Times,serif" font-size="14.00" fill="#000000">BlockListModule</text>
</g>
<!-- BlockListModule&#45;&gt;VideoListModule -->
<g id="edge2" class="edge">
<title>BlockListModule&#45;&gt;VideoListModule</title>
<path fill="none" stroke="#000000" d="M207.3075,-122.1061C207.3075,-122.1061 207.3075,-140.991 207.3075,-140.991"/>
<polygon fill="#000000" stroke="#000000" points="203.8076,-140.9909 207.3075,-150.991 210.8076,-140.991 203.8076,-140.9909"/>
</g>
</g>
</svg>
