<?xml version="1.0" encoding="UTF-8" standalone="no"?>
<!DOCTYPE svg PUBLIC "-//W3C//DTD SVG 1.1//EN"
 "http://www.w3.org/Graphics/SVG/1.1/DTD/svg11.dtd">
<!-- Generated by graphviz version 2.40.1 (20161225.0304)
 -->
<!-- Title: dependencies Pages: 1 -->
<svg width="504pt" height="211pt"
 viewBox="0.00 0.00 504.00 211.00" xmlns="http://www.w3.org/2000/svg" xmlns:xlink="http://www.w3.org/1999/xlink">
<g id="graph0" class="graph" transform="scale(1 1) rotate(0) translate(4 207)">
<title>dependencies</title>
<polygon fill="#ffffff" stroke="transparent" points="-4,4 -4,-207 500,-207 500,4 -4,4"/>
<text text-anchor="start" x="227.0091" y="-42.4" font-family="sans-serif" font-weight="bold" font-size="14.00" fill="#000000">Legend</text>
<polygon fill="#ffffb3" stroke="transparent" points="14,-10 14,-30 34,-30 34,-10 14,-10"/>
<text text-anchor="start" x="37.629" y="-15.4" font-family="sans-serif" font-size="14.00" fill="#000000"> &#160;Declarations</text>
<polygon fill="#8dd3c7" stroke="transparent" points="127,-10 127,-30 147,-30 147,-10 127,-10"/>
<text text-anchor="start" x="150.7251" y="-15.4" font-family="sans-serif" font-size="14.00" fill="#000000"> &#160;Module</text>
<polygon fill="#80b1d3" stroke="transparent" points="213,-10 213,-30 233,-30 233,-10 213,-10"/>
<text text-anchor="start" x="236.7812" y="-15.4" font-family="sans-serif" font-size="14.00" fill="#000000"> &#160;Bootstrap</text>
<polygon fill="#fdb462" stroke="transparent" points="310,-10 310,-30 330,-30 330,-10 310,-10"/>
<text text-anchor="start" x="333.6732" y="-15.4" font-family="sans-serif" font-size="14.00" fill="#000000"> &#160;Providers</text>
<polygon fill="#fb8072" stroke="transparent" points="406,-10 406,-30 426,-30 426,-10 406,-10"/>
<text text-anchor="start" x="429.7258" y="-15.4" font-family="sans-serif" font-size="14.00" fill="#000000"> &#160;Exports</text>
<g id="clust1" class="cluster">
<title>cluster_NotificationCreatePageModule</title>
<polygon fill="none" stroke="#000000" stroke-dasharray="1,5" points="86,-70 86,-195 410,-195 410,-70 86,-70"/>
</g>
<g id="clust2" class="cluster">
<title>cluster_NotificationCreatePageModule_declarations</title>
<polygon fill="none" stroke="#000000" points="238,-78 238,-130 402,-130 402,-78 238,-78"/>
</g>
<g id="clust4" class="cluster">
<title>cluster_NotificationCreatePageModule_imports</title>
<polygon fill="none" stroke="#000000" points="94,-78 94,-130 230,-130 230,-78 94,-78"/>
</g>
<!-- NotificationCreatePage -->
<g id="node1" class="node">
<title>NotificationCreatePage</title>
<polygon fill="#ffffb3" stroke="#000000" points="393.8933,-122 246.1067,-122 246.1067,-86 393.8933,-86 393.8933,-122"/>
<text text-anchor="middle" x="320" y="-99.8" font-family="Times,serif" font-size="14.00" fill="#000000">NotificationCreatePage</text>
</g>
<!-- NotificationCreatePageModule -->
<g id="node2" class="node">
<title>NotificationCreatePageModule</title>
<polygon fill="#8dd3c7" stroke="#000000" points="343.4426,-187 340.4426,-191 319.4426,-191 316.4426,-187 152.5574,-187 152.5574,-151 343.4426,-151 343.4426,-187"/>
<text text-anchor="middle" x="248" y="-164.8" font-family="Times,serif" font-size="14.00" fill="#000000">NotificationCreatePageModule</text>
</g>
<!-- NotificationCreatePage&#45;&gt;NotificationCreatePageModule -->
<g id="edge1" class="edge">
<title>NotificationCreatePage&#45;&gt;NotificationCreatePageModule</title>
<path fill="none" stroke="#000000" d="M294.8875,-122.1061C294.8875,-122.1061 294.8875,-140.991 294.8875,-140.991"/>
<polygon fill="#000000" stroke="#000000" points="291.3875,-140.9909 294.8875,-150.991 298.3875,-140.991 291.3875,-140.9909"/>
</g>
<!-- UserSelectModule -->
<g id="node3" class="node">
<title>UserSelectModule</title>
<polygon fill="#8dd3c7" stroke="#000000" points="222.1839,-122 219.1839,-126 198.1839,-126 195.1839,-122 101.8161,-122 101.8161,-86 222.1839,-86 222.1839,-122"/>
<text text-anchor="middle" x="162" y="-99.8" font-family="Times,serif" font-size="14.00" fill="#000000">UserSelectModule</text>
</g>
<!-- UserSelectModule&#45;&gt;NotificationCreatePageModule -->
<g id="edge2" class="edge">
<title>UserSelectModule&#45;&gt;NotificationCreatePageModule</title>
<path fill="none" stroke="#000000" d="M187.3103,-122.1061C187.3103,-122.1061 187.3103,-140.991 187.3103,-140.991"/>
<polygon fill="#000000" stroke="#000000" points="183.8104,-140.9909 187.3103,-150.991 190.8104,-140.991 183.8104,-140.9909"/>
</g>
</g>
</svg>
