<?xml version="1.0" encoding="UTF-8" standalone="no"?>
<!DOCTYPE svg PUBLIC "-//W3C//DTD SVG 1.1//EN"
 "http://www.w3.org/Graphics/SVG/1.1/DTD/svg11.dtd">
<!-- Generated by graphviz version 2.40.1 (20161225.0304)
 -->
<!-- Title: dependencies Pages: 1 -->
<svg width="568pt" height="284pt"
 viewBox="0.00 0.00 568.00 284.00" xmlns="http://www.w3.org/2000/svg" xmlns:xlink="http://www.w3.org/1999/xlink">
<g id="graph0" class="graph" transform="scale(1 1) rotate(0) translate(4 280)">
<title>dependencies</title>
<polygon fill="#ffffff" stroke="transparent" points="-4,4 -4,-280 564,-280 564,4 -4,4"/>
<text text-anchor="start" x="259.0091" y="-42.4" font-family="sans-serif" font-weight="bold" font-size="14.00" fill="#000000">Legend</text>
<polygon fill="#ffffb3" stroke="transparent" points="46,-10 46,-30 66,-30 66,-10 46,-10"/>
<text text-anchor="start" x="69.629" y="-15.4" font-family="sans-serif" font-size="14.00" fill="#000000"> &#160;Declarations</text>
<polygon fill="#8dd3c7" stroke="transparent" points="159,-10 159,-30 179,-30 179,-10 159,-10"/>
<text text-anchor="start" x="182.7251" y="-15.4" font-family="sans-serif" font-size="14.00" fill="#000000"> &#160;Module</text>
<polygon fill="#80b1d3" stroke="transparent" points="245,-10 245,-30 265,-30 265,-10 245,-10"/>
<text text-anchor="start" x="268.7812" y="-15.4" font-family="sans-serif" font-size="14.00" fill="#000000"> &#160;Bootstrap</text>
<polygon fill="#fdb462" stroke="transparent" points="342,-10 342,-30 362,-30 362,-10 342,-10"/>
<text text-anchor="start" x="365.6732" y="-15.4" font-family="sans-serif" font-size="14.00" fill="#000000"> &#160;Providers</text>
<polygon fill="#fb8072" stroke="transparent" points="438,-10 438,-30 458,-30 458,-10 438,-10"/>
<text text-anchor="start" x="461.7258" y="-15.4" font-family="sans-serif" font-size="14.00" fill="#000000"> &#160;Exports</text>
<g id="clust1" class="cluster">
<title>cluster_SkeletonInboxModule</title>
<polygon fill="none" stroke="#000000" stroke-dasharray="1,5" points="8,-70 8,-268 552,-268 552,-70 8,-70"/>
</g>
<g id="clust2" class="cluster">
<title>cluster_SkeletonInboxModule_declarations</title>
<polygon fill="none" stroke="#000000" points="366,-78 366,-130 544,-130 544,-78 366,-78"/>
</g>
<g id="clust4" class="cluster">
<title>cluster_SkeletonInboxModule_imports</title>
<polygon fill="none" stroke="#000000" points="16,-78 16,-130 358,-130 358,-78 16,-78"/>
</g>
<g id="clust5" class="cluster">
<title>cluster_SkeletonInboxModule_exports</title>
<polygon fill="none" stroke="#000000" points="188,-208 188,-260 370,-260 370,-208 188,-208"/>
</g>
<!-- SkeletonInboxComponent -->
<g id="node1" class="node">
<title>SkeletonInboxComponent</title>
<polygon fill="#ffffb3" stroke="#000000" points="536.486,-122 373.514,-122 373.514,-86 536.486,-86 536.486,-122"/>
<text text-anchor="middle" x="455" y="-99.8" font-family="Times,serif" font-size="14.00" fill="#000000">SkeletonInboxComponent</text>
</g>
<!-- SkeletonInboxModule -->
<g id="node2" class="node">
<title>SkeletonInboxModule</title>
<polygon fill="#8dd3c7" stroke="#000000" points="349.7035,-187 346.7035,-191 325.7035,-191 322.7035,-187 208.2965,-187 208.2965,-151 349.7035,-151 349.7035,-187"/>
<text text-anchor="middle" x="279" y="-164.8" font-family="Times,serif" font-size="14.00" fill="#000000">SkeletonInboxModule</text>
</g>
<!-- SkeletonInboxComponent&#45;&gt;SkeletonInboxModule -->
<g id="edge1" class="edge">
<title>SkeletonInboxComponent&#45;&gt;SkeletonInboxModule</title>
<path fill="none" stroke="#000000" d="M455,-122.1061C455,-141.3391 455,-169 455,-169 455,-169 359.8252,-169 359.8252,-169"/>
<polygon fill="#000000" stroke="#000000" points="359.8252,-165.5001 349.8252,-169 359.8251,-172.5001 359.8252,-165.5001"/>
</g>
<!-- SkeletonInboxComponent  -->
<g id="node5" class="node">
<title>SkeletonInboxComponent </title>
<polygon fill="#fb8072" stroke="#000000" points="362.4867,-252 195.5133,-252 195.5133,-216 362.4867,-216 362.4867,-252"/>
<text text-anchor="middle" x="279" y="-229.8" font-family="Times,serif" font-size="14.00" fill="#000000">SkeletonInboxComponent </text>
</g>
<!-- SkeletonInboxModule&#45;&gt;SkeletonInboxComponent  -->
<g id="edge4" class="edge">
<title>SkeletonInboxModule&#45;&gt;SkeletonInboxComponent </title>
<path fill="none" stroke="#000000" stroke-dasharray="5,2" d="M279,-187.1061C279,-187.1061 279,-205.991 279,-205.991"/>
<polygon fill="#000000" stroke="#000000" points="275.5001,-205.9909 279,-215.991 282.5001,-205.991 275.5001,-205.9909"/>
</g>
<!-- SkeletonBlockModule -->
<g id="node3" class="node">
<title>SkeletonBlockModule</title>
<polygon fill="#8dd3c7" stroke="#000000" points="349.9846,-122 346.9846,-126 325.9846,-126 322.9846,-122 208.0154,-122 208.0154,-86 349.9846,-86 349.9846,-122"/>
<text text-anchor="middle" x="279" y="-99.8" font-family="Times,serif" font-size="14.00" fill="#000000">SkeletonBlockModule</text>
</g>
<!-- SkeletonBlockModule&#45;&gt;SkeletonInboxModule -->
<g id="edge2" class="edge">
<title>SkeletonBlockModule&#45;&gt;SkeletonInboxModule</title>
<path fill="none" stroke="#000000" d="M279,-122.1061C279,-122.1061 279,-140.991 279,-140.991"/>
<polygon fill="#000000" stroke="#000000" points="275.5001,-140.9909 279,-150.991 282.5001,-140.991 275.5001,-140.9909"/>
</g>
<!-- SkeletonParagraphModule -->
<g id="node4" class="node">
<title>SkeletonParagraphModule</title>
<polygon fill="#8dd3c7" stroke="#000000" points="189.7907,-122 186.7907,-126 165.7907,-126 162.7907,-122 24.2093,-122 24.2093,-86 189.7907,-86 189.7907,-122"/>
<text text-anchor="middle" x="107" y="-99.8" font-family="Times,serif" font-size="14.00" fill="#000000">SkeletonParagraphModule</text>
</g>
<!-- SkeletonParagraphModule&#45;&gt;SkeletonInboxModule -->
<g id="edge3" class="edge">
<title>SkeletonParagraphModule&#45;&gt;SkeletonInboxModule</title>
<path fill="none" stroke="#000000" d="M107,-122.1061C107,-141.3391 107,-169 107,-169 107,-169 198.048,-169 198.048,-169"/>
<polygon fill="#000000" stroke="#000000" points="198.048,-172.5001 208.048,-169 198.048,-165.5001 198.048,-172.5001"/>
</g>
</g>
</svg>
