<?xml version="1.0" encoding="UTF-8" standalone="no"?>
<!DOCTYPE svg PUBLIC "-//W3C//DTD SVG 1.1//EN"
 "http://www.w3.org/Graphics/SVG/1.1/DTD/svg11.dtd">
<!-- Generated by graphviz version 2.40.1 (20161225.0304)
 -->
<!-- Title: dependencies Pages: 1 -->
<svg width="504pt" height="284pt"
 viewBox="0.00 0.00 504.00 284.00" xmlns="http://www.w3.org/2000/svg" xmlns:xlink="http://www.w3.org/1999/xlink">
<g id="graph0" class="graph" transform="scale(1 1) rotate(0) translate(4 280)">
<title>dependencies</title>
<polygon fill="#ffffff" stroke="transparent" points="-4,4 -4,-280 500,-280 500,4 -4,4"/>
<text text-anchor="start" x="227.0091" y="-42.4" font-family="sans-serif" font-weight="bold" font-size="14.00" fill="#000000">Legend</text>
<polygon fill="#ffffb3" stroke="transparent" points="14,-10 14,-30 34,-30 34,-10 14,-10"/>
<text text-anchor="start" x="37.629" y="-15.4" font-family="sans-serif" font-size="14.00" fill="#000000"> &#160;Declarations</text>
<polygon fill="#8dd3c7" stroke="transparent" points="127,-10 127,-30 147,-30 147,-10 127,-10"/>
<text text-anchor="start" x="150.7251" y="-15.4" font-family="sans-serif" font-size="14.00" fill="#000000"> &#160;Module</text>
<polygon fill="#80b1d3" stroke="transparent" points="213,-10 213,-30 233,-30 233,-10 213,-10"/>
<text text-anchor="start" x="236.7812" y="-15.4" font-family="sans-serif" font-size="14.00" fill="#000000"> &#160;Bootstrap</text>
<polygon fill="#fdb462" stroke="transparent" points="310,-10 310,-30 330,-30 330,-10 310,-10"/>
<text text-anchor="start" x="333.6732" y="-15.4" font-family="sans-serif" font-size="14.00" fill="#000000"> &#160;Providers</text>
<polygon fill="#fb8072" stroke="transparent" points="406,-10 406,-30 426,-30 426,-10 406,-10"/>
<text text-anchor="start" x="429.7258" y="-15.4" font-family="sans-serif" font-size="14.00" fill="#000000"> &#160;Exports</text>
<g id="clust1" class="cluster">
<title>cluster_MenuFeatureButtonModule</title>
<polygon fill="none" stroke="#000000" stroke-dasharray="1,5" points="40,-70 40,-268 456,-268 456,-70 40,-70"/>
</g>
<g id="clust2" class="cluster">
<title>cluster_MenuFeatureButtonModule_declarations</title>
<polygon fill="none" stroke="#000000" points="238,-78 238,-130 448,-130 448,-78 238,-78"/>
</g>
<g id="clust5" class="cluster">
<title>cluster_MenuFeatureButtonModule_exports</title>
<polygon fill="none" stroke="#000000" points="141,-208 141,-260 355,-260 355,-208 141,-208"/>
</g>
<g id="clust7" class="cluster">
<title>cluster_MenuFeatureButtonModule_providers</title>
<polygon fill="none" stroke="#000000" points="48,-78 48,-130 230,-130 230,-78 48,-78"/>
</g>
<!-- MenuFeatureButtonComponent -->
<g id="node1" class="node">
<title>MenuFeatureButtonComponent</title>
<polygon fill="#ffffb3" stroke="#000000" points="440.087,-122 245.913,-122 245.913,-86 440.087,-86 440.087,-122"/>
<text text-anchor="middle" x="343" y="-99.8" font-family="Times,serif" font-size="14.00" fill="#000000">MenuFeatureButtonComponent</text>
</g>
<!-- MenuFeatureButtonModule -->
<g id="node2" class="node">
<title>MenuFeatureButtonModule</title>
<polygon fill="#8dd3c7" stroke="#000000" points="334.3047,-187 331.3047,-191 310.3047,-191 307.3047,-187 161.6953,-187 161.6953,-151 334.3047,-151 334.3047,-187"/>
<text text-anchor="middle" x="248" y="-164.8" font-family="Times,serif" font-size="14.00" fill="#000000">MenuFeatureButtonModule</text>
</g>
<!-- MenuFeatureButtonComponent&#45;&gt;MenuFeatureButtonModule -->
<g id="edge1" class="edge">
<title>MenuFeatureButtonComponent&#45;&gt;MenuFeatureButtonModule</title>
<path fill="none" stroke="#000000" d="M290.0544,-122.1061C290.0544,-122.1061 290.0544,-140.991 290.0544,-140.991"/>
<polygon fill="#000000" stroke="#000000" points="286.5544,-140.9909 290.0544,-150.991 293.5544,-140.991 286.5544,-140.9909"/>
</g>
<!-- MenuFeatureButtonComponent  -->
<g id="node3" class="node">
<title>MenuFeatureButtonComponent </title>
<polygon fill="#fb8072" stroke="#000000" points="346.5874,-252 149.4126,-252 149.4126,-216 346.5874,-216 346.5874,-252"/>
<text text-anchor="middle" x="248" y="-229.8" font-family="Times,serif" font-size="14.00" fill="#000000">MenuFeatureButtonComponent </text>
</g>
<!-- MenuFeatureButtonModule&#45;&gt;MenuFeatureButtonComponent  -->
<g id="edge2" class="edge">
<title>MenuFeatureButtonModule&#45;&gt;MenuFeatureButtonComponent </title>
<path fill="none" stroke="#000000" stroke-dasharray="5,2" d="M248,-187.1061C248,-187.1061 248,-205.991 248,-205.991"/>
<polygon fill="#000000" stroke="#000000" points="244.5001,-205.9909 248,-215.991 251.5001,-205.991 244.5001,-205.9909"/>
</g>
<!-- InboxCountSocket -->
<g id="node4" class="node">
<title>InboxCountSocket</title>
<ellipse fill="#fdb462" stroke="#000000" cx="139" cy="-104" rx="83.4137" ry="18"/>
<text text-anchor="middle" x="139" y="-99.8" font-family="Times,serif" font-size="14.00" fill="#000000">InboxCountSocket</text>
</g>
<!-- InboxCountSocket&#45;&gt;MenuFeatureButtonModule -->
<g id="edge3" class="edge">
<title>InboxCountSocket&#45;&gt;MenuFeatureButtonModule</title>
<path fill="none" stroke="#000000" d="M192.1523,-118.104C192.1523,-118.104 192.1523,-140.7209 192.1523,-140.7209"/>
<polygon fill="#000000" stroke="#000000" points="188.6524,-140.7209 192.1523,-150.7209 195.6524,-140.7209 188.6524,-140.7209"/>
</g>
</g>
</svg>
