<?xml version="1.0" encoding="UTF-8" standalone="no"?>
<!DOCTYPE svg PUBLIC "-//W3C//DTD SVG 1.1//EN"
 "http://www.w3.org/Graphics/SVG/1.1/DTD/svg11.dtd">
<!-- Generated by graphviz version 2.40.1 (20161225.0304)
 -->
<!-- Title: dependencies Pages: 1 -->
<svg width="504pt" height="284pt"
 viewBox="0.00 0.00 504.00 284.00" xmlns="http://www.w3.org/2000/svg" xmlns:xlink="http://www.w3.org/1999/xlink">
<g id="graph0" class="graph" transform="scale(1 1) rotate(0) translate(4 280)">
<title>dependencies</title>
<polygon fill="#ffffff" stroke="transparent" points="-4,4 -4,-280 500,-280 500,4 -4,4"/>
<text text-anchor="start" x="227.0091" y="-42.4" font-family="sans-serif" font-weight="bold" font-size="14.00" fill="#000000">Legend</text>
<polygon fill="#ffffb3" stroke="transparent" points="14,-10 14,-30 34,-30 34,-10 14,-10"/>
<text text-anchor="start" x="37.629" y="-15.4" font-family="sans-serif" font-size="14.00" fill="#000000"> &#160;Declarations</text>
<polygon fill="#8dd3c7" stroke="transparent" points="127,-10 127,-30 147,-30 147,-10 127,-10"/>
<text text-anchor="start" x="150.7251" y="-15.4" font-family="sans-serif" font-size="14.00" fill="#000000"> &#160;Module</text>
<polygon fill="#80b1d3" stroke="transparent" points="213,-10 213,-30 233,-30 233,-10 213,-10"/>
<text text-anchor="start" x="236.7812" y="-15.4" font-family="sans-serif" font-size="14.00" fill="#000000"> &#160;Bootstrap</text>
<polygon fill="#fdb462" stroke="transparent" points="310,-10 310,-30 330,-30 330,-10 310,-10"/>
<text text-anchor="start" x="333.6732" y="-15.4" font-family="sans-serif" font-size="14.00" fill="#000000"> &#160;Providers</text>
<polygon fill="#fb8072" stroke="transparent" points="406,-10 406,-30 426,-30 426,-10 406,-10"/>
<text text-anchor="start" x="429.7258" y="-15.4" font-family="sans-serif" font-size="14.00" fill="#000000"> &#160;Exports</text>
<g id="clust1" class="cluster">
<title>cluster_ContactStaffMessageModule</title>
<polygon fill="none" stroke="#000000" stroke-dasharray="1,5" points="30,-70 30,-268 466,-268 466,-70 30,-70"/>
</g>
<g id="clust2" class="cluster">
<title>cluster_ContactStaffMessageModule_declarations</title>
<polygon fill="none" stroke="#000000" points="240,-78 240,-130 458,-130 458,-78 240,-78"/>
</g>
<g id="clust5" class="cluster">
<title>cluster_ContactStaffMessageModule_exports</title>
<polygon fill="none" stroke="#000000" points="138,-208 138,-260 358,-260 358,-208 138,-208"/>
</g>
<g id="clust7" class="cluster">
<title>cluster_ContactStaffMessageModule_providers</title>
<polygon fill="none" stroke="#000000" points="38,-78 38,-130 232,-130 232,-78 38,-78"/>
</g>
<!-- ContactStaffMessageComponent -->
<g id="node1" class="node">
<title>ContactStaffMessageComponent</title>
<polygon fill="#ffffb3" stroke="#000000" points="449.566,-122 248.434,-122 248.434,-86 449.566,-86 449.566,-122"/>
<text text-anchor="middle" x="349" y="-99.8" font-family="Times,serif" font-size="14.00" fill="#000000">ContactStaffMessageComponent</text>
</g>
<!-- ContactStaffMessageModule -->
<g id="node2" class="node">
<title>ContactStaffMessageModule</title>
<polygon fill="#8dd3c7" stroke="#000000" points="337.7836,-187 334.7836,-191 313.7836,-191 310.7836,-187 158.2164,-187 158.2164,-151 337.7836,-151 337.7836,-187"/>
<text text-anchor="middle" x="248" y="-164.8" font-family="Times,serif" font-size="14.00" fill="#000000">ContactStaffMessageModule</text>
</g>
<!-- ContactStaffMessageComponent&#45;&gt;ContactStaffMessageModule -->
<g id="edge1" class="edge">
<title>ContactStaffMessageComponent&#45;&gt;ContactStaffMessageModule</title>
<path fill="none" stroke="#000000" d="M293.0544,-122.1061C293.0544,-122.1061 293.0544,-140.991 293.0544,-140.991"/>
<polygon fill="#000000" stroke="#000000" points="289.5544,-140.9909 293.0544,-150.991 296.5544,-140.991 289.5544,-140.9909"/>
</g>
<!-- ContactStaffMessageComponent  -->
<g id="node3" class="node">
<title>ContactStaffMessageComponent </title>
<polygon fill="#fb8072" stroke="#000000" points="350.0665,-252 145.9335,-252 145.9335,-216 350.0665,-216 350.0665,-252"/>
<text text-anchor="middle" x="248" y="-229.8" font-family="Times,serif" font-size="14.00" fill="#000000">ContactStaffMessageComponent </text>
</g>
<!-- ContactStaffMessageModule&#45;&gt;ContactStaffMessageComponent  -->
<g id="edge2" class="edge">
<title>ContactStaffMessageModule&#45;&gt;ContactStaffMessageComponent </title>
<path fill="none" stroke="#000000" stroke-dasharray="5,2" d="M248,-187.1061C248,-187.1061 248,-205.991 248,-205.991"/>
<polygon fill="#000000" stroke="#000000" points="244.5001,-205.9909 248,-215.991 251.5001,-205.991 244.5001,-205.9909"/>
</g>
<!-- ContactStaffService -->
<g id="node4" class="node">
<title>ContactStaffService</title>
<ellipse fill="#fdb462" stroke="#000000" cx="135" cy="-104" rx="88.5966" ry="18"/>
<text text-anchor="middle" x="135" y="-99.8" font-family="Times,serif" font-size="14.00" fill="#000000">ContactStaffService</text>
</g>
<!-- ContactStaffService&#45;&gt;ContactStaffMessageModule -->
<g id="edge3" class="edge">
<title>ContactStaffService&#45;&gt;ContactStaffMessageModule</title>
<path fill="none" stroke="#000000" d="M191.0782,-118.104C191.0782,-118.104 191.0782,-140.7209 191.0782,-140.7209"/>
<polygon fill="#000000" stroke="#000000" points="187.5783,-140.7209 191.0782,-150.7209 194.5783,-140.7209 187.5783,-140.7209"/>
</g>
</g>
</svg>
