<?xml version="1.0" encoding="UTF-8" standalone="no"?>
<!DOCTYPE svg PUBLIC "-//W3C//DTD SVG 1.1//EN"
 "http://www.w3.org/Graphics/SVG/1.1/DTD/svg11.dtd">
<!-- Generated by graphviz version 2.40.1 (20161225.0304)
 -->
<!-- Title: dependencies Pages: 1 -->
<svg width="584pt" height="211pt"
 viewBox="0.00 0.00 584.00 211.00" xmlns="http://www.w3.org/2000/svg" xmlns:xlink="http://www.w3.org/1999/xlink">
<g id="graph0" class="graph" transform="scale(1 1) rotate(0) translate(4 207)">
<title>dependencies</title>
<polygon fill="#ffffff" stroke="transparent" points="-4,4 -4,-207 580,-207 580,4 -4,4"/>
<text text-anchor="start" x="267.0091" y="-42.4" font-family="sans-serif" font-weight="bold" font-size="14.00" fill="#000000">Legend</text>
<polygon fill="#ffffb3" stroke="transparent" points="54,-10 54,-30 74,-30 74,-10 54,-10"/>
<text text-anchor="start" x="77.629" y="-15.4" font-family="sans-serif" font-size="14.00" fill="#000000"> &#160;Declarations</text>
<polygon fill="#8dd3c7" stroke="transparent" points="167,-10 167,-30 187,-30 187,-10 167,-10"/>
<text text-anchor="start" x="190.7251" y="-15.4" font-family="sans-serif" font-size="14.00" fill="#000000"> &#160;Module</text>
<polygon fill="#80b1d3" stroke="transparent" points="253,-10 253,-30 273,-30 273,-10 253,-10"/>
<text text-anchor="start" x="276.7812" y="-15.4" font-family="sans-serif" font-size="14.00" fill="#000000"> &#160;Bootstrap</text>
<polygon fill="#fdb462" stroke="transparent" points="350,-10 350,-30 370,-30 370,-10 350,-10"/>
<text text-anchor="start" x="373.6732" y="-15.4" font-family="sans-serif" font-size="14.00" fill="#000000"> &#160;Providers</text>
<polygon fill="#fb8072" stroke="transparent" points="446,-10 446,-30 466,-30 466,-10 446,-10"/>
<text text-anchor="start" x="469.7258" y="-15.4" font-family="sans-serif" font-size="14.00" fill="#000000"> &#160;Exports</text>
<g id="clust1" class="cluster">
<title>cluster_ContactStaffMessageListPageModule</title>
<polygon fill="none" stroke="#000000" stroke-dasharray="1,5" points="8,-70 8,-195 568,-195 568,-70 8,-70"/>
</g>
<g id="clust2" class="cluster">
<title>cluster_ContactStaffMessageListPageModule_declarations</title>
<polygon fill="none" stroke="#000000" points="360,-78 360,-130 560,-130 560,-78 360,-78"/>
</g>
<g id="clust4" class="cluster">
<title>cluster_ContactStaffMessageListPageModule_imports</title>
<polygon fill="none" stroke="#000000" points="218,-78 218,-130 352,-130 352,-78 218,-78"/>
</g>
<g id="clust7" class="cluster">
<title>cluster_ContactStaffMessageListPageModule_providers</title>
<polygon fill="none" stroke="#000000" points="16,-78 16,-130 210,-130 210,-78 16,-78"/>
</g>
<!-- ContactStaffMessageListPage -->
<g id="node1" class="node">
<title>ContactStaffMessageListPage</title>
<polygon fill="#ffffb3" stroke="#000000" points="552.224,-122 367.776,-122 367.776,-86 552.224,-86 552.224,-122"/>
<text text-anchor="middle" x="460" y="-99.8" font-family="Times,serif" font-size="14.00" fill="#000000">ContactStaffMessageListPage</text>
</g>
<!-- ContactStaffMessageListPageModule -->
<g id="node2" class="node">
<title>ContactStaffMessageListPageModule</title>
<polygon fill="#8dd3c7" stroke="#000000" points="399.2738,-187 396.2738,-191 375.2738,-191 372.2738,-187 170.7262,-187 170.7262,-151 399.2738,-151 399.2738,-187"/>
<text text-anchor="middle" x="285" y="-164.8" font-family="Times,serif" font-size="14.00" fill="#000000">ContactStaffMessageListPageModule</text>
</g>
<!-- ContactStaffMessageListPage&#45;&gt;ContactStaffMessageListPageModule -->
<g id="edge1" class="edge">
<title>ContactStaffMessageListPage&#45;&gt;ContactStaffMessageListPageModule</title>
<path fill="none" stroke="#000000" d="M383.3875,-122.1061C383.3875,-122.1061 383.3875,-140.991 383.3875,-140.991"/>
<polygon fill="#000000" stroke="#000000" points="379.8875,-140.9909 383.3875,-150.991 386.8875,-140.991 379.8875,-140.9909"/>
</g>
<!-- DataTableModule -->
<g id="node3" class="node">
<title>DataTableModule</title>
<polygon fill="#8dd3c7" stroke="#000000" points="343.8487,-122 340.8487,-126 319.8487,-126 316.8487,-122 226.1513,-122 226.1513,-86 343.8487,-86 343.8487,-122"/>
<text text-anchor="middle" x="285" y="-99.8" font-family="Times,serif" font-size="14.00" fill="#000000">DataTableModule</text>
</g>
<!-- DataTableModule&#45;&gt;ContactStaffMessageListPageModule -->
<g id="edge2" class="edge">
<title>DataTableModule&#45;&gt;ContactStaffMessageListPageModule</title>
<path fill="none" stroke="#000000" d="M285,-122.1061C285,-122.1061 285,-140.991 285,-140.991"/>
<polygon fill="#000000" stroke="#000000" points="281.5001,-140.9909 285,-150.991 288.5001,-140.991 281.5001,-140.9909"/>
</g>
<!-- ContactStaffService -->
<g id="node4" class="node">
<title>ContactStaffService</title>
<ellipse fill="#fdb462" stroke="#000000" cx="113" cy="-104" rx="88.5966" ry="18"/>
<text text-anchor="middle" x="113" y="-99.8" font-family="Times,serif" font-size="14.00" fill="#000000">ContactStaffService</text>
</g>
<!-- ContactStaffService&#45;&gt;ContactStaffMessageListPageModule -->
<g id="edge3" class="edge">
<title>ContactStaffService&#45;&gt;ContactStaffMessageListPageModule</title>
<path fill="none" stroke="#000000" d="M186.3306,-114.1563C186.3306,-114.1563 186.3306,-140.8074 186.3306,-140.8074"/>
<polygon fill="#000000" stroke="#000000" points="182.8307,-140.8074 186.3306,-150.8074 189.8307,-140.8075 182.8307,-140.8074"/>
</g>
</g>
</svg>
