<?xml version="1.0" encoding="UTF-8" standalone="no"?>
<!DOCTYPE svg PUBLIC "-//W3C//DTD SVG 1.1//EN"
 "http://www.w3.org/Graphics/SVG/1.1/DTD/svg11.dtd">
<!-- Generated by graphviz version 2.40.1 (20161225.0304)
 -->
<!-- Title: dependencies Pages: 1 -->
<svg width="740pt" height="284pt"
 viewBox="0.00 0.00 740.00 284.00" xmlns="http://www.w3.org/2000/svg" xmlns:xlink="http://www.w3.org/1999/xlink">
<g id="graph0" class="graph" transform="scale(1 1) rotate(0) translate(4 280)">
<title>dependencies</title>
<polygon fill="#ffffff" stroke="transparent" points="-4,4 -4,-280 736,-280 736,4 -4,4"/>
<text text-anchor="start" x="345.0091" y="-42.4" font-family="sans-serif" font-weight="bold" font-size="14.00" fill="#000000">Legend</text>
<polygon fill="#ffffb3" stroke="transparent" points="132,-10 132,-30 152,-30 152,-10 132,-10"/>
<text text-anchor="start" x="155.629" y="-15.4" font-family="sans-serif" font-size="14.00" fill="#000000"> &#160;Declarations</text>
<polygon fill="#8dd3c7" stroke="transparent" points="245,-10 245,-30 265,-30 265,-10 245,-10"/>
<text text-anchor="start" x="268.7251" y="-15.4" font-family="sans-serif" font-size="14.00" fill="#000000"> &#160;Module</text>
<polygon fill="#80b1d3" stroke="transparent" points="331,-10 331,-30 351,-30 351,-10 331,-10"/>
<text text-anchor="start" x="354.7812" y="-15.4" font-family="sans-serif" font-size="14.00" fill="#000000"> &#160;Bootstrap</text>
<polygon fill="#fdb462" stroke="transparent" points="428,-10 428,-30 448,-30 448,-10 428,-10"/>
<text text-anchor="start" x="451.6732" y="-15.4" font-family="sans-serif" font-size="14.00" fill="#000000"> &#160;Providers</text>
<polygon fill="#fb8072" stroke="transparent" points="524,-10 524,-30 544,-30 544,-10 524,-10"/>
<text text-anchor="start" x="547.7258" y="-15.4" font-family="sans-serif" font-size="14.00" fill="#000000"> &#160;Exports</text>
<g id="clust1" class="cluster">
<title>cluster_ScreenFallRiskSurveyModule</title>
<polygon fill="none" stroke="#000000" stroke-dasharray="1,5" points="8,-70 8,-268 724,-268 724,-70 8,-70"/>
</g>
<g id="clust2" class="cluster">
<title>cluster_ScreenFallRiskSurveyModule_declarations</title>
<polygon fill="none" stroke="#000000" points="494,-78 494,-130 716,-130 716,-78 494,-78"/>
</g>
<g id="clust4" class="cluster">
<title>cluster_ScreenFallRiskSurveyModule_imports</title>
<polygon fill="none" stroke="#000000" points="228,-78 228,-130 486,-130 486,-78 228,-78"/>
</g>
<g id="clust5" class="cluster">
<title>cluster_ScreenFallRiskSurveyModule_exports</title>
<polygon fill="none" stroke="#000000" points="238,-208 238,-260 464,-260 464,-208 238,-208"/>
</g>
<g id="clust7" class="cluster">
<title>cluster_ScreenFallRiskSurveyModule_providers</title>
<polygon fill="none" stroke="#000000" points="16,-78 16,-130 220,-130 220,-78 16,-78"/>
</g>
<!-- ScreenFallRiskSurveyComponent -->
<g id="node1" class="node">
<title>ScreenFallRiskSurveyComponent</title>
<polygon fill="#ffffb3" stroke="#000000" points="708.0279,-122 501.9721,-122 501.9721,-86 708.0279,-86 708.0279,-122"/>
<text text-anchor="middle" x="605" y="-99.8" font-family="Times,serif" font-size="14.00" fill="#000000">ScreenFallRiskSurveyComponent</text>
</g>
<!-- ScreenFallRiskSurveyModule -->
<g id="node2" class="node">
<title>ScreenFallRiskSurveyModule</title>
<polygon fill="#8dd3c7" stroke="#000000" points="443.245,-187 440.245,-191 419.245,-191 416.245,-187 258.755,-187 258.755,-151 443.245,-151 443.245,-187"/>
<text text-anchor="middle" x="351" y="-164.8" font-family="Times,serif" font-size="14.00" fill="#000000">ScreenFallRiskSurveyModule</text>
</g>
<!-- ScreenFallRiskSurveyComponent&#45;&gt;ScreenFallRiskSurveyModule -->
<g id="edge1" class="edge">
<title>ScreenFallRiskSurveyComponent&#45;&gt;ScreenFallRiskSurveyModule</title>
<path fill="none" stroke="#000000" d="M605,-122.1061C605,-141.3391 605,-169 605,-169 605,-169 453.4183,-169 453.4183,-169"/>
<polygon fill="#000000" stroke="#000000" points="453.4184,-165.5001 443.4183,-169 453.4183,-172.5001 453.4184,-165.5001"/>
</g>
<!-- ScreenFallRiskSurveyComponent  -->
<g id="node5" class="node">
<title>ScreenFallRiskSurveyComponent </title>
<polygon fill="#fb8072" stroke="#000000" points="456.0274,-252 245.9726,-252 245.9726,-216 456.0274,-216 456.0274,-252"/>
<text text-anchor="middle" x="351" y="-229.8" font-family="Times,serif" font-size="14.00" fill="#000000">ScreenFallRiskSurveyComponent </text>
</g>
<!-- ScreenFallRiskSurveyModule&#45;&gt;ScreenFallRiskSurveyComponent  -->
<g id="edge4" class="edge">
<title>ScreenFallRiskSurveyModule&#45;&gt;ScreenFallRiskSurveyComponent </title>
<path fill="none" stroke="#000000" stroke-dasharray="5,2" d="M351,-187.1061C351,-187.1061 351,-205.991 351,-205.991"/>
<polygon fill="#000000" stroke="#000000" points="347.5001,-205.9909 351,-215.991 354.5001,-205.991 347.5001,-205.9909"/>
</g>
<!-- InputTypesModule -->
<g id="node3" class="node">
<title>InputTypesModule</title>
<polygon fill="#8dd3c7" stroke="#000000" points="477.8132,-122 474.8132,-126 453.8132,-126 450.8132,-122 354.1868,-122 354.1868,-86 477.8132,-86 477.8132,-122"/>
<text text-anchor="middle" x="416" y="-99.8" font-family="Times,serif" font-size="14.00" fill="#000000">InputTypesModule</text>
</g>
<!-- InputTypesModule&#45;&gt;ScreenFallRiskSurveyModule -->
<g id="edge2" class="edge">
<title>InputTypesModule&#45;&gt;ScreenFallRiskSurveyModule</title>
<path fill="none" stroke="#000000" d="M398.858,-122.1061C398.858,-122.1061 398.858,-140.991 398.858,-140.991"/>
<polygon fill="#000000" stroke="#000000" points="395.3581,-140.9909 398.858,-150.991 402.3581,-140.991 395.3581,-140.9909"/>
</g>
<!-- UploadModule -->
<g id="node4" class="node">
<title>UploadModule</title>
<polygon fill="#8dd3c7" stroke="#000000" points="336.2619,-122 333.2619,-126 312.2619,-126 309.2619,-122 235.7381,-122 235.7381,-86 336.2619,-86 336.2619,-122"/>
<text text-anchor="middle" x="286" y="-99.8" font-family="Times,serif" font-size="14.00" fill="#000000">UploadModule</text>
</g>
<!-- UploadModule&#45;&gt;ScreenFallRiskSurveyModule -->
<g id="edge3" class="edge">
<title>UploadModule&#45;&gt;ScreenFallRiskSurveyModule</title>
<path fill="none" stroke="#000000" d="M297.5042,-122.1061C297.5042,-122.1061 297.5042,-140.991 297.5042,-140.991"/>
<polygon fill="#000000" stroke="#000000" points="294.0043,-140.9909 297.5042,-150.991 301.0043,-140.991 294.0043,-140.9909"/>
</g>
<!-- FallScreeningService -->
<g id="node6" class="node">
<title>FallScreeningService</title>
<ellipse fill="#fdb462" stroke="#000000" cx="118" cy="-104" rx="93.7533" ry="18"/>
<text text-anchor="middle" x="118" y="-99.8" font-family="Times,serif" font-size="14.00" fill="#000000">FallScreeningService</text>
</g>
<!-- FallScreeningService&#45;&gt;ScreenFallRiskSurveyModule -->
<g id="edge5" class="edge">
<title>FallScreeningService&#45;&gt;ScreenFallRiskSurveyModule</title>
<path fill="none" stroke="#000000" d="M118,-122.1061C118,-141.3391 118,-169 118,-169 118,-169 248.5776,-169 248.5776,-169"/>
<polygon fill="#000000" stroke="#000000" points="248.5776,-172.5001 258.5776,-169 248.5775,-165.5001 248.5776,-172.5001"/>
</g>
</g>
</svg>
