<?xml version="1.0" encoding="UTF-8" standalone="no"?>
<!DOCTYPE svg PUBLIC "-//W3C//DTD SVG 1.1//EN"
 "http://www.w3.org/Graphics/SVG/1.1/DTD/svg11.dtd">
<!-- Generated by graphviz version 2.40.1 (20161225.0304)
 -->
<!-- Title: dependencies Pages: 1 -->
<svg width="646pt" height="284pt"
 viewBox="0.00 0.00 646.00 284.00" xmlns="http://www.w3.org/2000/svg" xmlns:xlink="http://www.w3.org/1999/xlink">
<g id="graph0" class="graph" transform="scale(1 1) rotate(0) translate(4 280)">
<title>dependencies</title>
<polygon fill="#ffffff" stroke="transparent" points="-4,4 -4,-280 642,-280 642,4 -4,4"/>
<text text-anchor="start" x="298.0091" y="-42.4" font-family="sans-serif" font-weight="bold" font-size="14.00" fill="#000000">Legend</text>
<polygon fill="#ffffb3" stroke="transparent" points="85,-10 85,-30 105,-30 105,-10 85,-10"/>
<text text-anchor="start" x="108.629" y="-15.4" font-family="sans-serif" font-size="14.00" fill="#000000"> &#160;Declarations</text>
<polygon fill="#8dd3c7" stroke="transparent" points="198,-10 198,-30 218,-30 218,-10 198,-10"/>
<text text-anchor="start" x="221.7251" y="-15.4" font-family="sans-serif" font-size="14.00" fill="#000000"> &#160;Module</text>
<polygon fill="#80b1d3" stroke="transparent" points="284,-10 284,-30 304,-30 304,-10 284,-10"/>
<text text-anchor="start" x="307.7812" y="-15.4" font-family="sans-serif" font-size="14.00" fill="#000000"> &#160;Bootstrap</text>
<polygon fill="#fdb462" stroke="transparent" points="381,-10 381,-30 401,-30 401,-10 381,-10"/>
<text text-anchor="start" x="404.6732" y="-15.4" font-family="sans-serif" font-size="14.00" fill="#000000"> &#160;Providers</text>
<polygon fill="#fb8072" stroke="transparent" points="477,-10 477,-30 497,-30 497,-10 477,-10"/>
<text text-anchor="start" x="500.7258" y="-15.4" font-family="sans-serif" font-size="14.00" fill="#000000"> &#160;Exports</text>
<g id="clust1" class="cluster">
<title>cluster_AcceptRemoveFriendButtonGroupModule</title>
<polygon fill="none" stroke="#000000" stroke-dasharray="1,5" points="8,-70 8,-268 630,-268 630,-70 8,-70"/>
</g>
<g id="clust2" class="cluster">
<title>cluster_AcceptRemoveFriendButtonGroupModule_declarations</title>
<polygon fill="none" stroke="#000000" points="328,-78 328,-130 622,-130 622,-78 328,-78"/>
</g>
<g id="clust4" class="cluster">
<title>cluster_AcceptRemoveFriendButtonGroupModule_imports</title>
<polygon fill="none" stroke="#000000" points="170,-78 170,-130 320,-130 320,-78 170,-78"/>
</g>
<g id="clust5" class="cluster">
<title>cluster_AcceptRemoveFriendButtonGroupModule_exports</title>
<polygon fill="none" stroke="#000000" points="96,-208 96,-260 394,-260 394,-208 96,-208"/>
</g>
<g id="clust7" class="cluster">
<title>cluster_AcceptRemoveFriendButtonGroupModule_providers</title>
<polygon fill="none" stroke="#000000" points="16,-78 16,-130 162,-130 162,-78 16,-78"/>
</g>
<!-- AcceptRemoveFriendButtonGroupComponent -->
<g id="node1" class="node">
<title>AcceptRemoveFriendButtonGroupComponent</title>
<polygon fill="#ffffb3" stroke="#000000" points="614.0632,-122 335.9368,-122 335.9368,-86 614.0632,-86 614.0632,-122"/>
<text text-anchor="middle" x="475" y="-99.8" font-family="Times,serif" font-size="14.00" fill="#000000">AcceptRemoveFriendButtonGroupComponent</text>
</g>
<!-- AcceptRemoveFriendButtonGroupModule -->
<g id="node2" class="node">
<title>AcceptRemoveFriendButtonGroupModule</title>
<polygon fill="#8dd3c7" stroke="#000000" points="373.2808,-187 370.2808,-191 349.2808,-191 346.2808,-187 116.7192,-187 116.7192,-151 373.2808,-151 373.2808,-187"/>
<text text-anchor="middle" x="245" y="-164.8" font-family="Times,serif" font-size="14.00" fill="#000000">AcceptRemoveFriendButtonGroupModule</text>
</g>
<!-- AcceptRemoveFriendButtonGroupComponent&#45;&gt;AcceptRemoveFriendButtonGroupModule -->
<g id="edge1" class="edge">
<title>AcceptRemoveFriendButtonGroupComponent&#45;&gt;AcceptRemoveFriendButtonGroupModule</title>
<path fill="none" stroke="#000000" d="M354.5544,-122.1061C354.5544,-122.1061 354.5544,-140.991 354.5544,-140.991"/>
<polygon fill="#000000" stroke="#000000" points="351.0544,-140.9909 354.5544,-150.991 358.0544,-140.991 351.0544,-140.9909"/>
</g>
<!-- AcceptRemoveFriendButtonGroupComponent  -->
<g id="node4" class="node">
<title>AcceptRemoveFriendButtonGroupComponent </title>
<polygon fill="#fb8072" stroke="#000000" points="385.5635,-252 104.4365,-252 104.4365,-216 385.5635,-216 385.5635,-252"/>
<text text-anchor="middle" x="245" y="-229.8" font-family="Times,serif" font-size="14.00" fill="#000000">AcceptRemoveFriendButtonGroupComponent </text>
</g>
<!-- AcceptRemoveFriendButtonGroupModule&#45;&gt;AcceptRemoveFriendButtonGroupComponent  -->
<g id="edge3" class="edge">
<title>AcceptRemoveFriendButtonGroupModule&#45;&gt;AcceptRemoveFriendButtonGroupComponent </title>
<path fill="none" stroke="#000000" stroke-dasharray="5,2" d="M245,-187.1061C245,-187.1061 245,-205.991 245,-205.991"/>
<polygon fill="#000000" stroke="#000000" points="241.5001,-205.9909 245,-215.991 248.5001,-205.991 241.5001,-205.9909"/>
</g>
<!-- ConfirmationModule -->
<g id="node3" class="node">
<title>ConfirmationModule</title>
<polygon fill="#8dd3c7" stroke="#000000" points="312.4846,-122 309.4846,-126 288.4846,-126 285.4846,-122 177.5154,-122 177.5154,-86 312.4846,-86 312.4846,-122"/>
<text text-anchor="middle" x="245" y="-99.8" font-family="Times,serif" font-size="14.00" fill="#000000">ConfirmationModule</text>
</g>
<!-- ConfirmationModule&#45;&gt;AcceptRemoveFriendButtonGroupModule -->
<g id="edge2" class="edge">
<title>ConfirmationModule&#45;&gt;AcceptRemoveFriendButtonGroupModule</title>
<path fill="none" stroke="#000000" d="M245,-122.1061C245,-122.1061 245,-140.991 245,-140.991"/>
<polygon fill="#000000" stroke="#000000" points="241.5001,-140.9909 245,-150.991 248.5001,-140.991 241.5001,-140.9909"/>
</g>
<!-- FriendService -->
<g id="node5" class="node">
<title>FriendService</title>
<ellipse fill="#fdb462" stroke="#000000" cx="89" cy="-104" rx="65.4053" ry="18"/>
<text text-anchor="middle" x="89" y="-99.8" font-family="Times,serif" font-size="14.00" fill="#000000">FriendService</text>
</g>
<!-- FriendService&#45;&gt;AcceptRemoveFriendButtonGroupModule -->
<g id="edge4" class="edge">
<title>FriendService&#45;&gt;AcceptRemoveFriendButtonGroupModule</title>
<path fill="none" stroke="#000000" d="M135.531,-116.8419C135.531,-116.8419 135.531,-140.5231 135.531,-140.5231"/>
<polygon fill="#000000" stroke="#000000" points="132.0311,-140.523 135.531,-150.5231 139.0311,-140.5231 132.0311,-140.523"/>
</g>
</g>
</svg>
