<?xml version="1.0" encoding="UTF-8" standalone="no"?>
<!DOCTYPE svg PUBLIC "-//W3C//DTD SVG 1.1//EN"
 "http://www.w3.org/Graphics/SVG/1.1/DTD/svg11.dtd">
<!-- Generated by graphviz version 2.40.1 (20161225.0304)
 -->
<!-- Title: dependencies Pages: 1 -->
<svg width="596pt" height="211pt"
 viewBox="0.00 0.00 596.00 211.00" xmlns="http://www.w3.org/2000/svg" xmlns:xlink="http://www.w3.org/1999/xlink">
<g id="graph0" class="graph" transform="scale(1 1) rotate(0) translate(4 207)">
<title>dependencies</title>
<polygon fill="#ffffff" stroke="transparent" points="-4,4 -4,-207 592,-207 592,4 -4,4"/>
<text text-anchor="start" x="273.0091" y="-42.4" font-family="sans-serif" font-weight="bold" font-size="14.00" fill="#000000">Legend</text>
<polygon fill="#ffffb3" stroke="transparent" points="60,-10 60,-30 80,-30 80,-10 60,-10"/>
<text text-anchor="start" x="83.629" y="-15.4" font-family="sans-serif" font-size="14.00" fill="#000000"> &#160;Declarations</text>
<polygon fill="#8dd3c7" stroke="transparent" points="173,-10 173,-30 193,-30 193,-10 173,-10"/>
<text text-anchor="start" x="196.7251" y="-15.4" font-family="sans-serif" font-size="14.00" fill="#000000"> &#160;Module</text>
<polygon fill="#80b1d3" stroke="transparent" points="259,-10 259,-30 279,-30 279,-10 259,-10"/>
<text text-anchor="start" x="282.7812" y="-15.4" font-family="sans-serif" font-size="14.00" fill="#000000"> &#160;Bootstrap</text>
<polygon fill="#fdb462" stroke="transparent" points="356,-10 356,-30 376,-30 376,-10 356,-10"/>
<text text-anchor="start" x="379.6732" y="-15.4" font-family="sans-serif" font-size="14.00" fill="#000000"> &#160;Providers</text>
<polygon fill="#fb8072" stroke="transparent" points="452,-10 452,-30 472,-30 472,-10 452,-10"/>
<text text-anchor="start" x="475.7258" y="-15.4" font-family="sans-serif" font-size="14.00" fill="#000000"> &#160;Exports</text>
<g id="clust1" class="cluster">
<title>cluster_SecurityQuestionEditPageModule</title>
<polygon fill="none" stroke="#000000" stroke-dasharray="1,5" points="8,-70 8,-195 580,-195 580,-70 8,-70"/>
</g>
<g id="clust2" class="cluster">
<title>cluster_SecurityQuestionEditPageModule_declarations</title>
<polygon fill="none" stroke="#000000" points="392,-78 392,-130 572,-130 572,-78 392,-78"/>
</g>
<g id="clust4" class="cluster">
<title>cluster_SecurityQuestionEditPageModule_imports</title>
<polygon fill="none" stroke="#000000" points="16,-78 16,-130 384,-130 384,-78 16,-78"/>
</g>
<!-- SecurityQuestionEditPage -->
<g id="node1" class="node">
<title>SecurityQuestionEditPage</title>
<polygon fill="#ffffb3" stroke="#000000" points="563.7464,-122 400.2536,-122 400.2536,-86 563.7464,-86 563.7464,-122"/>
<text text-anchor="middle" x="482" y="-99.8" font-family="Times,serif" font-size="14.00" fill="#000000">SecurityQuestionEditPage</text>
</g>
<!-- SecurityQuestionEditPageModule -->
<g id="node2" class="node">
<title>SecurityQuestionEditPageModule</title>
<polygon fill="#8dd3c7" stroke="#000000" points="366.7962,-187 363.7962,-191 342.7962,-191 339.7962,-187 159.2038,-187 159.2038,-151 366.7962,-151 366.7962,-187"/>
<text text-anchor="middle" x="263" y="-164.8" font-family="Times,serif" font-size="14.00" fill="#000000">SecurityQuestionEditPageModule</text>
</g>
<!-- SecurityQuestionEditPage&#45;&gt;SecurityQuestionEditPageModule -->
<g id="edge1" class="edge">
<title>SecurityQuestionEditPage&#45;&gt;SecurityQuestionEditPageModule</title>
<path fill="none" stroke="#000000" d="M482,-122.1061C482,-141.3391 482,-169 482,-169 482,-169 376.728,-169 376.728,-169"/>
<polygon fill="#000000" stroke="#000000" points="376.728,-165.5001 366.728,-169 376.7279,-172.5001 376.728,-165.5001"/>
</g>
<!-- HeaderModule -->
<g id="node3" class="node">
<title>HeaderModule</title>
<polygon fill="#8dd3c7" stroke="#000000" points="375.9608,-122 372.9608,-126 351.9608,-126 348.9608,-122 276.0392,-122 276.0392,-86 375.9608,-86 375.9608,-122"/>
<text text-anchor="middle" x="326" y="-99.8" font-family="Times,serif" font-size="14.00" fill="#000000">HeaderModule</text>
</g>
<!-- HeaderModule&#45;&gt;SecurityQuestionEditPageModule -->
<g id="edge2" class="edge">
<title>HeaderModule&#45;&gt;SecurityQuestionEditPageModule</title>
<path fill="none" stroke="#000000" d="M321.3338,-122.1061C321.3338,-122.1061 321.3338,-140.991 321.3338,-140.991"/>
<polygon fill="#000000" stroke="#000000" points="317.8339,-140.9909 321.3338,-150.991 324.8339,-140.991 317.8339,-140.9909"/>
</g>
<!-- TagSelectModule -->
<g id="node4" class="node">
<title>TagSelectModule</title>
<polygon fill="#8dd3c7" stroke="#000000" points="257.5256,-122 254.5256,-126 233.5256,-126 230.5256,-122 142.4744,-122 142.4744,-86 257.5256,-86 257.5256,-122"/>
<text text-anchor="middle" x="200" y="-99.8" font-family="Times,serif" font-size="14.00" fill="#000000">TagSelectModule</text>
</g>
<!-- TagSelectModule&#45;&gt;SecurityQuestionEditPageModule -->
<g id="edge3" class="edge">
<title>TagSelectModule&#45;&gt;SecurityQuestionEditPageModule</title>
<path fill="none" stroke="#000000" d="M208.5572,-122.1061C208.5572,-122.1061 208.5572,-140.991 208.5572,-140.991"/>
<polygon fill="#000000" stroke="#000000" points="205.0572,-140.9909 208.5572,-150.991 212.0572,-140.991 205.0572,-140.9909"/>
</g>
<!-- UploadModule -->
<g id="node5" class="node">
<title>UploadModule</title>
<polygon fill="#8dd3c7" stroke="#000000" points="124.2619,-122 121.2619,-126 100.2619,-126 97.2619,-122 23.7381,-122 23.7381,-86 124.2619,-86 124.2619,-122"/>
<text text-anchor="middle" x="74" y="-99.8" font-family="Times,serif" font-size="14.00" fill="#000000">UploadModule</text>
</g>
<!-- UploadModule&#45;&gt;SecurityQuestionEditPageModule -->
<g id="edge4" class="edge">
<title>UploadModule&#45;&gt;SecurityQuestionEditPageModule</title>
<path fill="none" stroke="#000000" d="M74,-122.1061C74,-141.3391 74,-169 74,-169 74,-169 149.1008,-169 149.1008,-169"/>
<polygon fill="#000000" stroke="#000000" points="149.1008,-172.5001 159.1008,-169 149.1007,-165.5001 149.1008,-172.5001"/>
</g>
</g>
</svg>
