<?xml version="1.0" encoding="UTF-8" standalone="no"?>
<!DOCTYPE svg PUBLIC "-//W3C//DTD SVG 1.1//EN"
 "http://www.w3.org/Graphics/SVG/1.1/DTD/svg11.dtd">
<!-- Generated by graphviz version 2.40.1 (20161225.0304)
 -->
<!-- Title: dependencies Pages: 1 -->
<svg width="504pt" height="284pt"
 viewBox="0.00 0.00 504.00 284.00" xmlns="http://www.w3.org/2000/svg" xmlns:xlink="http://www.w3.org/1999/xlink">
<g id="graph0" class="graph" transform="scale(1 1) rotate(0) translate(4 280)">
<title>dependencies</title>
<polygon fill="#ffffff" stroke="transparent" points="-4,4 -4,-280 500,-280 500,4 -4,4"/>
<text text-anchor="start" x="227.0091" y="-42.4" font-family="sans-serif" font-weight="bold" font-size="14.00" fill="#000000">Legend</text>
<polygon fill="#ffffb3" stroke="transparent" points="14,-10 14,-30 34,-30 34,-10 14,-10"/>
<text text-anchor="start" x="37.629" y="-15.4" font-family="sans-serif" font-size="14.00" fill="#000000"> &#160;Declarations</text>
<polygon fill="#8dd3c7" stroke="transparent" points="127,-10 127,-30 147,-30 147,-10 127,-10"/>
<text text-anchor="start" x="150.7251" y="-15.4" font-family="sans-serif" font-size="14.00" fill="#000000"> &#160;Module</text>
<polygon fill="#80b1d3" stroke="transparent" points="213,-10 213,-30 233,-30 233,-10 213,-10"/>
<text text-anchor="start" x="236.7812" y="-15.4" font-family="sans-serif" font-size="14.00" fill="#000000"> &#160;Bootstrap</text>
<polygon fill="#fdb462" stroke="transparent" points="310,-10 310,-30 330,-30 330,-10 310,-10"/>
<text text-anchor="start" x="333.6732" y="-15.4" font-family="sans-serif" font-size="14.00" fill="#000000"> &#160;Providers</text>
<polygon fill="#fb8072" stroke="transparent" points="406,-10 406,-30 426,-30 426,-10 406,-10"/>
<text text-anchor="start" x="429.7258" y="-15.4" font-family="sans-serif" font-size="14.00" fill="#000000"> &#160;Exports</text>
<g id="clust1" class="cluster">
<title>cluster_UserListModule</title>
<polygon fill="none" stroke="#000000" stroke-dasharray="1,5" points="30,-70 30,-268 466,-268 466,-70 30,-70"/>
</g>
<g id="clust2" class="cluster">
<title>cluster_UserListModule_declarations</title>
<polygon fill="none" stroke="#000000" points="312,-78 312,-130 458,-130 458,-78 312,-78"/>
</g>
<g id="clust4" class="cluster">
<title>cluster_UserListModule_imports</title>
<polygon fill="none" stroke="#000000" points="178,-78 178,-130 304,-130 304,-78 178,-78"/>
</g>
<g id="clust5" class="cluster">
<title>cluster_UserListModule_exports</title>
<polygon fill="none" stroke="#000000" points="166,-208 166,-260 316,-260 316,-208 166,-208"/>
</g>
<g id="clust7" class="cluster">
<title>cluster_UserListModule_providers</title>
<polygon fill="none" stroke="#000000" points="38,-78 38,-130 170,-130 170,-78 38,-78"/>
</g>
<!-- UserListComponent -->
<g id="node1" class="node">
<title>UserListComponent</title>
<polygon fill="#ffffb3" stroke="#000000" points="449.538,-122 320.462,-122 320.462,-86 449.538,-86 449.538,-122"/>
<text text-anchor="middle" x="385" y="-99.8" font-family="Times,serif" font-size="14.00" fill="#000000">UserListComponent</text>
</g>
<!-- UserListModule -->
<g id="node2" class="node">
<title>UserListModule</title>
<polygon fill="#8dd3c7" stroke="#000000" points="294.7549,-187 291.7549,-191 270.7549,-191 267.7549,-187 187.2451,-187 187.2451,-151 294.7549,-151 294.7549,-187"/>
<text text-anchor="middle" x="241" y="-164.8" font-family="Times,serif" font-size="14.00" fill="#000000">UserListModule</text>
</g>
<!-- UserListComponent&#45;&gt;UserListModule -->
<g id="edge1" class="edge">
<title>UserListComponent&#45;&gt;UserListModule</title>
<path fill="none" stroke="#000000" d="M385,-122.1061C385,-141.3391 385,-169 385,-169 385,-169 305.03,-169 305.03,-169"/>
<polygon fill="#000000" stroke="#000000" points="305.03,-165.5001 295.03,-169 305.0299,-172.5001 305.03,-165.5001"/>
</g>
<!-- UserListComponent  -->
<g id="node4" class="node">
<title>UserListComponent </title>
<polygon fill="#fb8072" stroke="#000000" points="307.5372,-252 174.4628,-252 174.4628,-216 307.5372,-216 307.5372,-252"/>
<text text-anchor="middle" x="241" y="-229.8" font-family="Times,serif" font-size="14.00" fill="#000000">UserListComponent </text>
</g>
<!-- UserListModule&#45;&gt;UserListComponent  -->
<g id="edge3" class="edge">
<title>UserListModule&#45;&gt;UserListComponent </title>
<path fill="none" stroke="#000000" stroke-dasharray="5,2" d="M241,-187.1061C241,-187.1061 241,-205.991 241,-205.991"/>
<polygon fill="#000000" stroke="#000000" points="237.5001,-205.9909 241,-215.991 244.5001,-205.991 237.5001,-205.9909"/>
</g>
<!-- LongListModule -->
<g id="node3" class="node">
<title>LongListModule</title>
<polygon fill="#8dd3c7" stroke="#000000" points="296.3809,-122 293.3809,-126 272.3809,-126 269.3809,-122 185.6191,-122 185.6191,-86 296.3809,-86 296.3809,-122"/>
<text text-anchor="middle" x="241" y="-99.8" font-family="Times,serif" font-size="14.00" fill="#000000">LongListModule</text>
</g>
<!-- LongListModule&#45;&gt;UserListModule -->
<g id="edge2" class="edge">
<title>LongListModule&#45;&gt;UserListModule</title>
<path fill="none" stroke="#000000" d="M241,-122.1061C241,-122.1061 241,-140.991 241,-140.991"/>
<polygon fill="#000000" stroke="#000000" points="237.5001,-140.9909 241,-150.991 244.5001,-140.991 237.5001,-140.9909"/>
</g>
<!-- UserService -->
<g id="node5" class="node">
<title>UserService</title>
<ellipse fill="#fdb462" stroke="#000000" cx="104" cy="-104" rx="58.4415" ry="18"/>
<text text-anchor="middle" x="104" y="-99.8" font-family="Times,serif" font-size="14.00" fill="#000000">UserService</text>
</g>
<!-- UserService&#45;&gt;UserListModule -->
<g id="edge4" class="edge">
<title>UserService&#45;&gt;UserListModule</title>
<path fill="none" stroke="#000000" d="M104,-122.1061C104,-141.3391 104,-169 104,-169 104,-169 176.854,-169 176.854,-169"/>
<polygon fill="#000000" stroke="#000000" points="176.854,-172.5001 186.854,-169 176.8539,-165.5001 176.854,-172.5001"/>
</g>
</g>
</svg>
